codes/on/on06.csv

X,CH1,Start,Increment,
Sequence,Volt,3.048000e-01,2.000000e-05
0,-4.00e-02,
1,4.00e-02,
2,-4.00e-02,
3,4.00e-02,
4,4.00e-02,
5,-4.00e-02,
6,4.00e-02,
7,-4.00e-02,
8,4.00e-02,
9,-4.00e-02,
10,-4.00e-02,
11,4.00e-02,
12,-4.00e-02,
13,4.00e-02,
14,-4.00e-02,
15,4.00e-02,
16,4.00e-02,
17,-4.00e-02,
18,4.00e-02,
19,-4.00e-02,
20,4.00e-02,
21,-4.00e-02,
22,4.00e-02,
23,-4.00e-02,
24,4.00e-02,
25,-4.00e-02,
26,4.00e-02,
27,-4.00e-02,
28,4.00e-02,
29,-4.00e-02,
30,-4.00e-02,
31,4.00e-02,
32,-4.00e-02,
33,4.00e-02,
34,4.00e-02,
35,-4.00e-02,
36,-4.00e-02,
37,4.00e-02,
38,-4.00e-02,
39,4.00e-02,
40,4.00e-02,
41,-4.00e-02,
42,-4.00e-02,
43,4.00e-02,
44,4.00e-02,
45,-4.00e-02,
46,4.00e-02,
47,-4.00e-02,
48,4.00e-02,
49,-4.00e-02,
50,4.00e-02,
51,-4.00e-02,
52,-4.00e-02,
53,4.00e-02,
54,4.00e-02,
55,-4.00e-02,
56,4.00e-02,
57,-4.00e-02,
58,4.00e-02,
59,-4.00e-02,
60,-4.00e-02,
61,4.00e-02,
62,-4.00e-02,
63,4.00e-02,
64,-4.00e-02,
65,4.00e-02,
66,4.00e-02,
67,-4.00e-02,
68,4.00e-02,
69,-4.00e-02,
70,4.00e-02,
71,-4.00e-02,
72,-4.00e-02,
73,4.00e-02,
74,4.00e-02,
75,-4.00e-02,
76,4.00e-02,
77,-4.00e-02,
78,-4.00e-02,
79,4.00e-02,
80,4.00e-02,
81,-4.00e-02,
82,-4.00e-02,
83,4.00e-02,
84,4.00e-02,
85,-4.00e-02,
86,4.00e-02,
87,-4.00e-02,
88,4.00e-02,
89,-4.00e-02,
90,4.00e-02,
91,-4.00e-02,
92,-4.00e-02,
93,4.00e-02,
94,-4.00e-02,
95,4.00e-02,
96,-4.00e-02,
97,4.00e-02,
98,-4.00e-02,
99,4.00e-02,
100,-4.00e-02,
101,4.00e-02,
102,4.00e-02,
103,-4.00e-02,
104,-4.00e-02,
105,8.40e-01,
106,8.00e-01,
107,3.56e+00,
108,3.52e+00,
109,3.60e+00,
110,3.68e+00,
111,3.56e+00,
112,3.64e+00,
113,3.72e+00,
114,3.64e+00,
115,3.72e+00,
116,3.68e+00,
117,3.76e+00,
118,3.68e+00,
119,3.76e+00,
120,3.76e+00,
121,3.68e+00,
122,3.64e+00,
123,2.40e-01,
124,3.20e-01,
125,1.60e-01,
126,2.00e-01,
127,1.20e-01,
128,1.60e-01,
129,8.00e-02,
130,8.00e-02,
131,1.60e-01,
132,1.20e-01,
133,0.00e+00,
134,1.20e-01,
135,0.00e+00,
136,0.00e+00,
137,1.20e-01,
138,0.00e+00,
139,8.00e-02,
140,4.00e-02,
141,0.00e+00,
142,4.00e-02,
143,0.00e+00,
144,4.00e-02,
145,0.00e+00,
146,4.00e-02,
147,0.00e+00,
148,4.00e-02,
149,-4.00e-02,
150,0.00e+00,
151,3.52e+00,
152,3.48e+00,
153,3.60e+00,
154,3.56e+00,
155,3.68e+00,
156,3.64e+00,
157,3.72e+00,
158,3.64e+00,
159,3.72e+00,
160,3.68e+00,
161,3.76e+00,
162,3.68e+00,
163,3.76e+00,
164,3.76e+00,
165,3.72e+00,
166,3.76e+00,
167,3.72e+00,
168,3.76e+00,
169,3.72e+00,
170,3.76e+00,
171,3.72e+00,
172,3.76e+00,
173,3.72e+00,
174,3.72e+00,
175,3.84e+00,
176,3.72e+00,
177,3.80e+00,
178,3.76e+00,
179,3.72e+00,
180,3.76e+00,
181,3.44e+00,
182,3.40e+00,
183,2.40e-01,
184,3.20e-01,
185,1.60e-01,
186,2.00e-01,
187,1.20e-01,
188,2.00e-01,
189,8.00e-02,
190,8.00e-02,
191,1.60e-01,
192,1.20e-01,
193,0.00e+00,
194,0.00e+00,
195,1.64e+00,
196,1.64e+00,
197,3.60e+00,
198,3.52e+00,
199,3.68e+00,
200,3.64e+00,
201,3.72e+00,
202,3.64e+00,
203,3.72e+00,
204,3.68e+00,
205,3.76e+00,
206,3.76e+00,
207,3.68e+00,
208,3.76e+00,
209,3.72e+00,
210,3.76e+00,
211,3.72e+00,
212,3.76e+00,
213,3.72e+00,
214,3.76e+00,
215,3.72e+00,
216,3.72e+00,
217,3.80e+00,
218,3.72e+00,
219,3.84e+00,
220,3.72e+00,
221,3.84e+00,
222,3.84e+00,
223,3.72e+00,
224,3.72e+00,
225,3.84e+00,
226,3.80e+00,
227,2.80e-01,
228,3.60e-01,
229,1.60e-01,
230,2.80e-01,
231,1.20e-01,
232,2.00e-01,
233,8.00e-02,
234,1.60e-01,
235,8.00e-02,
236,8.00e-02,
237,1.60e-01,
238,1.20e-01,
239,0.00e+00,
240,0.00e+00,
241,3.56e+00,
242,3.52e+00,
243,3.60e+00,
244,3.56e+00,
245,3.68e+00,
246,3.64e+00,
247,3.72e+00,
248,3.68e+00,
249,3.76e+00,
250,3.68e+00,
251,3.76e+00,
252,3.76e+00,
253,3.72e+00,
254,3.76e+00,
255,3.72e+00,
256,3.76e+00,
257,2.40e-01,
258,3.20e-01,
259,1.60e-01,
260,2.80e-01,
261,1.20e-01,
262,2.00e-01,
263,8.00e-02,
264,8.00e-02,
265,1.60e-01,
266,1.20e-01,
267,4.00e-02,
268,0.00e+00,
269,1.20e-01,
270,0.00e+00,
271,1.20e-01,
272,0.00e+00,
273,1.20e-01,
274,0.00e+00,
275,1.20e-01,
276,0.00e+00,
277,1.20e-01,
278,0.00e+00,
279,1.20e-01,
280,0.00e+00,
281,1.20e-01,
282,0.00e+00,
283,1.20e-01,
284,0.00e+00,
285,2.48e+00,
286,2.56e+00,
287,3.56e+00,
288,3.52e+00,
289,3.68e+00,
290,3.60e+00,
291,3.72e+00,
292,3.64e+00,
293,3.72e+00,
294,3.68e+00,
295,3.76e+00,
296,3.68e+00,
297,3.76e+00,
298,3.76e+00,
299,3.68e+00,
300,3.76e+00,
301,5.20e-01,
302,4.80e-01,
303,2.00e-01,
304,2.80e-01,
305,1.20e-01,
306,2.00e-01,
307,8.00e-02,
308,8.00e-02,
309,1.60e-01,
310,1.20e-01,
311,4.00e-02,
312,0.00e+00,
313,1.20e-01,
314,1.20e-01,
315,0.00e+00,
316,1.20e-01,
317,0.00e+00,
318,0.00e+00,
319,1.20e-01,
320,4.00e-02,
321,0.00e+00,
322,4.00e-02,
323,0.00e+00,
324,4.00e-02,
325,0.00e+00,
326,4.00e-02,
327,-4.00e-02,
328,0.00e+00,
329,1.60e-01,
330,8.00e-02,
331,3.56e+00,
332,3.48e+00,
333,3.60e+00,
334,3.56e+00,
335,3.68e+00,
336,3.64e+00,
337,3.72e+00,
338,3.72e+00,
339,3.64e+00,
340,3.68e+00,
341,3.76e+00,
342,3.76e+00,
343,3.68e+00,
344,3.76e+00,
345,3.68e+00,
346,3.76e+00,
347,3.72e+00,
348,3.72e+00,
349,3.76e+00,
350,3.76e+00,
351,3.72e+00,
352,3.76e+00,
353,3.72e+00,
354,3.76e+00,
355,3.72e+00,
356,3.76e+00,
357,3.72e+00,
358,3.72e+00,
359,3.76e+00,
360,3.76e+00,
361,4.00e-01,
362,4.00e-01,
363,1.60e-01,
364,2.80e-01,
365,1.20e-01,
366,2.00e-01,
367,8.00e-02,
368,8.00e-02,
369,1.60e-01,
370,1.20e-01,
371,0.00e+00,
372,0.00e+00,
373,1.20e-01,
374,0.00e+00,
375,3.44e+00,
376,3.44e+00,
377,3.60e+00,
378,3.56e+00,
379,3.68e+00,
380,3.64e+00,
381,3.72e+00,
382,3.64e+00,
383,3.72e+00,
384,3.68e+00,
385,3.76e+00,
386,3.68e+00,
387,3.76e+00,
388,3.76e+00,
389,3.68e+00,
390,3.76e+00,
391,2.40e-01,
392,3.20e-01,
393,1.60e-01,
394,2.00e-01,
395,1.20e-01,
396,1.60e-01,
397,8.00e-02,
398,8.00e-02,
399,1.60e-01,
400,1.20e-01,
401,0.00e+00,
402,0.00e+00,
403,1.20e-01,
404,0.00e+00,
405,1.20e-01,
406,1.20e-01,
407,0.00e+00,
408,0.00e+00,
409,8.00e-02,
410,0.00e+00,
411,4.00e-02,
412,4.00e-02,
413,-4.00e-02,
414,4.00e-02,
415,-4.00e-02,
416,4.00e-02,
417,-4.00e-02,
418,-4.00e-02,
419,9.60e-01,
420,8.80e-01,
421,3.56e+00,
422,3.52e+00,
423,3.60e+00,
424,3.56e+00,
425,3.68e+00,
426,3.64e+00,
427,3.72e+00,
428,3.72e+00,
429,3.68e+00,
430,3.68e+00,
431,3.76e+00,
432,3.68e+00,
433,3.76e+00,
434,3.76e+00,
435,1.48e+00,
436,1.40e+00,
437,1.60e-01,
438,2.80e-01,
439,1.20e-01,
440,2.00e-01,
441,8.00e-02,
442,8.00e-02,
443,1.60e-01,
444,1.20e-01,
445,0.00e+00,
446,0.00e+00,
447,1.20e-01,
448,0.00e+00,
449,1.20e-01,
450,8.00e-02,
451,0.00e+00,
452,4.00e-02,
453,0.00e+00,
454,4.00e-02,
455,-4.00e-02,
456,4.00e-02,
457,-4.00e-02,
458,-4.00e-02,
459,4.00e-02,
460,4.00e-02,
461,-4.00e-02,
462,4.00e-02,
463,-4.00e-02,
464,-4.00e-02,
465,3.52e+00,
466,3.48e+00,
467,3.60e+00,
468,3.52e+00,
469,3.68e+00,
470,3.68e+00,
471,3.60e+00,
472,3.64e+00,
473,3.72e+00,
474,3.72e+00,
475,3.68e+00,
476,3.68e+00,
477,3.76e+00,
478,3.68e+00,
479,3.76e+00,
480,3.76e+00,
481,2.40e-01,
482,2.80e-01,
483,1.60e-01,
484,1.20e-01,
485,2.00e-01,
486,1.60e-01,
487,8.00e-02,
488,1.60e-01,
489,4.00e-02,
490,1.20e-01,
491,0.00e+00,
492,1.20e-01,
493,0.00e+00,
494,0.00e+00,
495,1.20e-01,
496,4.00e-02,
497,0.00e+00,
498,4.00e-02,
499,-4.00e-02,
500,4.00e-02,
501,-4.00e-02,
502,4.00e-02,
503,-4.00e-02,
504,4.00e-02,
505,-4.00e-02,
506,-4.00e-02,
507,4.00e-02,
508,-4.00e-02,
509,1.44e+00,
510,1.48e+00,
511,3.56e+00,
512,3.52e+00,
513,3.60e+00,
514,3.56e+00,
515,3.68e+00,
516,3.64e+00,
517,3.72e+00,
518,3.72e+00,
519,3.68e+00,
520,3.68e+00,
521,3.76e+00,
522,3.68e+00,
523,3.76e+00,
524,3.76e+00,
525,3.68e+00,
526,3.76e+00,
527,3.72e+00,
528,3.76e+00,
529,3.72e+00,
530,3.76e+00,
531,3.72e+00,
532,3.72e+00,
533,3.76e+00,
534,3.76e+00,
535,3.72e+00,
536,3.76e+00,
537,3.72e+00,
538,3.76e+00,
539,3.72e+00,
540,3.76e+00,
541,2.40e-01,
542,3.20e-01,
543,1.60e-01,
544,2.00e-01,
545,1.20e-01,
546,1.60e-01,
547,8.00e-02,
548,1.60e-01,
549,4.00e-02,
550,1.20e-01,
551,0.00e+00,
552,1.20e-01,
553,0.00e+00,
554,0.00e+00,
555,3.56e+00,
556,3.48e+00,
557,3.60e+00,
558,3.56e+00,
559,3.68e+00,
560,3.64e+00,
561,3.72e+00,
562,3.72e+00,
563,3.64e+00,
564,3.68e+00,
565,3.76e+00,
566,3.76e+00,
567,3.68e+00,
568,3.76e+00,
569,3.68e+00,
570,3.76e+00,
571,3.72e+00,
572,3.76e+00,
573,3.72e+00,
574,3.76e+00,
575,3.72e+00,
576,3.76e+00,
577,3.72e+00,
578,3.72e+00,
579,3.76e+00,
580,3.76e+00,
581,3.72e+00,
582,3.76e+00,
583,3.72e+00,
584,3.80e+00,
585,8.80e-01,
586,8.40e-01,
587,2.00e-01,
588,2.80e-01,
589,1.20e-01,
590,2.00e-01,
591,8.00e-02,
592,1.60e-01,
593,8.00e-02,
594,1.60e-01,
595,4.00e-02,
596,0.00e+00,
597,1.20e-01,
598,0.00e+00,
599,1.80e+00,
600,1.84e+00,
601,3.60e+00,
602,3.52e+00,
603,3.68e+00,
604,3.60e+00,
605,3.72e+00,
606,3.72e+00,
607,3.64e+00,
608,3.68e+00,
609,3.76e+00,
610,3.68e+00,
611,3.76e+00,
612,3.76e+00,
613,3.72e+00,
614,3.76e+00,
615,3.72e+00,
616,3.76e+00,
617,3.72e+00,
618,3.72e+00,
619,3.84e+00,
620,3.76e+00,
621,3.72e+00,
622,3.72e+00,
623,3.80e+00,
624,3.72e+00,
625,3.80e+00,
626,3.76e+00,
627,3.72e+00,
628,3.80e+00,
629,3.28e+00,
630,3.24e+00,
631,2.40e-01,
632,3.20e-01,
633,1.60e-01,
634,2.00e-01,
635,1.20e-01,
636,1.60e-01,
637,8.00e-02,
638,8.00e-02,
639,1.60e-01,
640,1.20e-01,
641,0.00e+00,
642,1.20e-01,
643,0.00e+00,
644,0.00e+00,
645,3.56e+00,
646,3.52e+00,
647,3.60e+00,
648,3.68e+00,
649,3.56e+00,
650,3.64e+00,
651,3.72e+00,
652,3.68e+00,
653,3.76e+00,
654,3.68e+00,
655,3.76e+00,
656,3.76e+00,
657,3.68e+00,
658,3.76e+00,
659,3.72e+00,
660,3.76e+00,
661,2.40e-01,
662,3.20e-01,
663,1.60e-01,
664,2.40e-01,
665,1.20e-01,
666,2.00e-01,
667,8.00e-02,
668,8.00e-02,
669,1.60e-01,
670,1.20e-01,
671,0.00e+00,
672,1.20e-01,
673,0.00e+00,
674,1.20e-01,
675,0.00e+00,
676,0.00e+00,
677,1.20e-01,
678,1.20e-01,
679,0.00e+00,
680,0.00e+00,
681,8.00e-02,
682,4.00e-02,
683,0.00e+00,
684,0.00e+00,
685,4.00e-02,
686,0.00e+00,
687,8.00e-02,
688,0.00e+00,
689,2.32e+00,
690,2.40e+00,
691,3.56e+00,
692,3.52e+00,
693,3.68e+00,
694,3.60e+00,
695,3.68e+00,
696,3.64e+00,
697,3.72e+00,
698,3.72e+00,
699,3.68e+00,
700,3.68e+00,
701,3.76e+00,
702,3.68e+00,
703,3.76e+00,
704,3.76e+00,
705,3.72e+00,
706,3.72e+00,
707,3.76e+00,
708,3.76e+00,
709,3.72e+00,
710,3.76e+00,
711,3.72e+00,
712,3.72e+00,
713,3.76e+00,
714,3.76e+00,
715,3.72e+00,
716,3.76e+00,
717,3.72e+00,
718,3.76e+00,
719,2.28e+00,
720,2.24e+00,
721,2.40e-01,
722,3.20e-01,
723,1.20e-01,
724,2.00e-01,
725,1.20e-01,
726,8.00e-02,
727,1.60e-01,
728,1.60e-01,
729,4.00e-02,
730,1.20e-01,
731,0.00e+00,
732,0.00e+00,
733,1.20e-01,
734,8.00e-02,
735,3.56e+00,
736,3.52e+00,
737,3.60e+00,
738,3.56e+00,
739,3.68e+00,
740,3.64e+00,
741,3.72e+00,
742,3.68e+00,
743,3.72e+00,
744,3.68e+00,
745,3.76e+00,
746,3.76e+00,
747,3.68e+00,
748,3.76e+00,
749,6.00e-01,
750,5.60e-01,
751,1.60e-01,
752,2.80e-01,
753,1.20e-01,
754,2.00e-01,
755,8.00e-02,
756,8.00e-02,
757,1.60e-01,
758,1.20e-01,
759,0.00e+00,
760,0.00e+00,
761,1.20e-01,
762,0.00e+00,
763,1.20e-01,
764,1.20e-01,
765,0.00e+00,
766,4.00e-02,
767,0.00e+00,
768,0.00e+00,
769,4.00e-02,
770,4.00e-02,
771,0.00e+00,
772,4.00e-02,
773,0.00e+00,
774,4.00e-02,
775,0.00e+00,
776,4.00e-02,
777,-4.00e-02,
778,-4.00e-02,
779,2.72e+00,
780,2.80e+00,
781,3.56e+00,
782,3.52e+00,
783,3.68e+00,
784,3.56e+00,
785,3.68e+00,
786,3.64e+00,
787,3.72e+00,
788,3.68e+00,
789,3.72e+00,
790,3.68e+00,
791,3.76e+00,
792,3.76e+00,
793,2.84e+00,
794,2.80e+00,
795,2.40e-01,
796,2.80e-01,
797,1.20e-01,
798,2.00e-01,
799,8.00e-02,
800,8.00e-02,
801,1.60e-01,
802,1.20e-01,
803,0.00e+00,
804,0.00e+00,
805,1.20e-01,
806,1.20e-01,
807,0.00e+00,
808,0.00e+00,
809,1.20e-01,
810,0.00e+00,
811,8.00e-02,
812,4.00e-02,
813,-4.00e-02,
814,4.00e-02,
815,-4.00e-02,
816,4.00e-02,
817,-4.00e-02,
818,4.00e-02,
819,-4.00e-02,
820,-4.00e-02,
821,4.00e-02,
822,-4.00e-02,
823,1.20e-01,
824,4.00e-02,
825,3.52e+00,
826,3.48e+00,
827,3.60e+00,
828,3.56e+00,
829,3.68e+00,
830,3.64e+00,
831,3.72e+00,
832,3.64e+00,
833,3.72e+00,
834,3.72e+00,
835,3.68e+00,
836,3.68e+00,
837,3.76e+00,
838,3.76e+00,
839,3.20e-01,
840,3.60e-01,
841,1.60e-01,
842,2.40e-01,
843,1.20e-01,
844,2.00e-01,
845,8.00e-02,
846,8.00e-02,
847,1.60e-01,
848,1.20e-01,
849,0.00e+00,
850,0.00e+00,
851,1.20e-01,
852,0.00e+00,
853,1.20e-01,
854,0.00e+00,
855,8.00e-02,
856,4.00e-02,
857,-4.00e-02,
858,4.00e-02,
859,-4.00e-02,
860,-4.00e-02,
861,4.00e-02,
862,-4.00e-02,
863,4.00e-02,
864,4.00e-02,
865,-4.00e-02,
866,-4.00e-02,
867,4.00e-02,
868,-4.00e-02,
869,3.40e+00,
870,3.40e+00,
871,3.56e+00,
872,3.52e+00,
873,3.64e+00,
874,3.60e+00,
875,3.68e+00,
876,3.64e+00,
877,3.72e+00,
878,3.68e+00,
879,3.72e+00,
880,3.68e+00,
881,3.76e+00,
882,3.68e+00,
883,3.76e+00,
884,3.76e+00,
885,3.68e+00,
886,3.76e+00,
887,3.72e+00,
888,3.76e+00,
889,3.72e+00,
890,3.72e+00,
891,3.76e+00,
892,3.76e+00,
893,3.72e+00,
894,3.76e+00,
895,3.72e+00,
896,3.76e+00,
897,3.72e+00,
898,3.76e+00,
899,2.80e-01,
900,3.20e-01,
901,1.60e-01,
902,2.80e-01,
903,1.20e-01,
904,2.00e-01,
905,8.00e-02,
906,8.00e-02,
907,1.60e-01,
908,1.20e-01,
909,0.00e+00,
910,0.00e+00,
911,1.20e-01,
912,0.00e+00,
913,6.40e-01,
914,6.00e-01,
915,3.56e+00,
916,3.52e+00,
917,3.60e+00,
918,3.56e+00,
919,3.68e+00,
920,3.64e+00,
921,3.72e+00,
922,3.72e+00,
923,3.68e+00,
924,3.68e+00,
925,3.76e+00,
926,3.76e+00,
927,3.68e+00,
928,3.76e+00,
929,3.72e+00,
930,3.72e+00,
931,3.76e+00,
932,3.76e+00,
933,3.72e+00,
934,3.72e+00,
935,3.76e+00,
936,3.72e+00,
937,3.76e+00,
938,3.76e+00,
939,3.72e+00,
940,3.76e+00,
941,3.72e+00,
942,3.76e+00,
943,3.12e+00,
944,3.08e+00,
945,2.40e-01,
946,3.20e-01,
947,1.60e-01,
948,2.00e-01,
949,1.20e-01,
950,2.00e-01,
951,8.00e-02,
952,8.00e-02,
953,1.60e-01,
954,1.20e-01,
955,0.00e+00,
956,1.20e-01,
957,0.00e+00,
958,0.00e+00,
959,3.52e+00,
960,3.48e+00,
961,3.60e+00,
962,3.56e+00,
963,3.68e+00,
964,3.64e+00,
965,3.72e+00,
966,3.72e+00,
967,3.64e+00,
968,3.68e+00,
969,3.76e+00,
970,3.76e+00,
971,3.68e+00,
972,3.76e+00,
973,3.72e+00,
974,3.76e+00,
975,3.72e+00,
976,3.76e+00,
977,3.72e+00,
978,3.76e+00,
979,3.72e+00,
980,3.76e+00,
981,3.72e+00,
982,3.72e+00,
983,3.80e+00,
984,3.76e+00,
985,3.72e+00,
986,3.76e+00,
987,3.72e+00,
988,3.76e+00,
989,2.80e-01,
990,3.20e-01,
991,1.60e-01,
992,2.80e-01,
993,1.20e-01,
994,2.00e-01,
995,8.00e-02,
996,8.00e-02,
997,1.60e-01,
998,1.20e-01,
999,0.00e+00,
1000,1.20e-01,
1001,0.00e+00,
1002,0.00e+00,
1003,1.20e+00,
1004,1.20e+00,
1005,3.56e+00,
1006,3.52e+00,
1007,3.68e+00,
1008,3.60e+00,
1009,3.72e+00,
1010,3.64e+00,
1011,3.72e+00,
1012,3.68e+00,
1013,3.76e+00,
1014,3.76e+00,
1015,3.68e+00,
1016,3.76e+00,
1017,3.68e+00,
1018,3.76e+00,
1019,3.60e-01,
1020,3.60e-01,
1021,1.60e-01,
1022,2.80e-01,
1023,1.20e-01,
1024,2.00e-01,
1025,8.00e-02,
1026,8.00e-02,
1027,1.60e-01,
1028,1.20e-01,
1029,0.00e+00,
1030,1.20e-01,
1031,0.00e+00,
1032,0.00e+00,
1033,1.20e-01,
1034,0.00e+00,
1035,1.20e-01,
1036,0.00e+00,
1037,1.20e-01,
1038,0.00e+00,
1039,8.00e-02,
1040,4.00e-02,
1041,0.00e+00,
1042,0.00e+00,
1043,8.00e-02,
1044,4.00e-02,
1045,0.00e+00,
1046,4.00e-02,
1047,-4.00e-02,
1048,0.00e+00,
1049,3.52e+00,
1050,3.48e+00,
1051,3.60e+00,
1052,3.56e+00,
1053,3.68e+00,
1054,3.64e+00,
1055,3.72e+00,
1056,3.72e+00,
1057,3.64e+00,
1058,3.68e+00,
1059,3.72e+00,
1060,3.76e+00,
1061,3.68e+00,
1062,3.76e+00,
1063,3.68e+00,
1064,3.76e+00,
1065,3.72e+00,
1066,3.76e+00,
1067,3.72e+00,
1068,3.76e+00,
1069,3.72e+00,
1070,3.76e+00,
1071,3.72e+00,
1072,3.76e+00,
1073,3.72e+00,
1074,3.76e+00,
1075,3.72e+00,
1076,3.76e+00,
1077,3.72e+00,
1078,3.76e+00,
1079,2.80e-01,
1080,3.20e-01,
1081,1.60e-01,
1082,2.40e-01,
1083,1.20e-01,
1084,2.00e-01,
1085,8.00e-02,
1086,8.00e-02,
1087,1.60e-01,
1088,1.20e-01,
1089,0.00e+00,
1090,1.20e-01,
1091,0.00e+00,
1092,0.00e+00,
1093,1.84e+00,
1094,1.92e+00,
1095,3.56e+00,
1096,3.52e+00,
1097,3.68e+00,
1098,3.60e+00,
1099,3.68e+00,
1100,3.64e+00,
1101,3.72e+00,
1102,3.72e+00,
1103,3.68e+00,
1104,3.68e+00,
1105,3.76e+00,
1106,3.76e+00,
1107,3.68e+00,
1108,3.76e+00,
1109,3.72e+00,
1110,3.76e+00,
1111,3.72e+00,
1112,3.76e+00,
1113,3.72e+00,
1114,3.76e+00,
1115,3.72e+00,
1116,3.76e+00,
1117,3.72e+00,
1118,3.76e+00,
1119,3.72e+00,
1120,3.76e+00,
1121,3.72e+00,
1122,3.76e+00,
1123,1.24e+00,
1124,1.20e+00,
1125,2.40e-01,
1126,2.80e-01,
1127,1.20e-01,
1128,2.00e-01,
1129,8.00e-02,
1130,8.00e-02,
1131,1.60e-01,
1132,1.20e-01,
1133,4.00e-02,
1134,1.20e-01,
1135,0.00e+00,
1136,1.20e-01,
1137,0.00e+00,
1138,0.00e+00,
1139,1.20e-01,
1140,0.00e+00,
1141,1.20e-01,
1142,0.00e+00,
1143,4.00e-02,
1144,4.00e-02,
1145,0.00e+00,
1146,4.00e-02,
1147,-4.00e-02,
1148,4.00e-02,
1149,-4.00e-02,
1150,-4.00e-02,
1151,8.00e-02,
1152,4.00e-02,
1153,-4.00e-02,
1154,4.00e-02,
1155,-4.00e-02,
1156,-4.00e-02,
1157,4.00e-02,
1158,4.00e-02,
1159,-4.00e-02,
1160,4.00e-02,
1161,-4.00e-02,
1162,-4.00e-02,
1163,4.00e-02,
1164,4.00e-02,
1165,-4.00e-02,
1166,-4.00e-02,
1167,4.00e-02,
1168,4.00e-02,
1169,-4.00e-02,
1170,4.00e-02,
1171,-4.00e-02,
1172,4.00e-02,
1173,-4.00e-02,
1174,4.00e-02,
1175,-4.00e-02,
1176,4.00e-02,
1177,-4.00e-02,
1178,-4.00e-02,
1179,4.00e-02,
1180,4.00e-02,
1181,-4.00e-02,
1182,4.00e-02,
1183,-4.00e-02,
1184,4.00e-02,
1185,-4.00e-02,
1186,4.00e-02,
1187,-4.00e-02,
1188,-4.00e-02,
1189,4.00e-02,
1190,-4.00e-02,
1191,4.00e-02,
1192,4.00e-02,
1193,-4.00e-02,
1194,4.00e-02,
1195,-4.00e-02,
1196,4.00e-02,
1197,-4.00e-02,
1198,-4.00e-02,
1199,4.00e-02,
