codes/on/on08.csv

X,CH1,Start,Increment,
Sequence,Volt,4.072400e-01,2.000000e-05
0,4.00e-02,
1,-4.00e-02,
2,-4.00e-02,
3,4.00e-02,
4,-4.00e-02,
5,4.00e-02,
6,-4.00e-02,
7,4.00e-02,
8,-4.00e-02,
9,4.00e-02,
10,-4.00e-02,
11,4.00e-02,
12,-4.00e-02,
13,4.00e-02,
14,-4.00e-02,
15,4.00e-02,
16,-4.00e-02,
17,4.00e-02,
18,-4.00e-02,
19,4.00e-02,
20,4.00e-02,
21,-4.00e-02,
22,4.00e-02,
23,-4.00e-02,
24,4.00e-02,
25,-4.00e-02,
26,-4.00e-02,
27,4.00e-02,
28,4.00e-02,
29,-4.00e-02,
30,4.00e-02,
31,-4.00e-02,
32,-4.00e-02,
33,4.00e-02,
34,4.00e-02,
35,-4.00e-02,
36,-4.00e-02,
37,4.00e-02,
38,-4.00e-02,
39,4.00e-02,
40,4.00e-02,
41,-4.00e-02,
42,4.00e-02,
43,-4.00e-02,
44,4.00e-02,
45,-4.00e-02,
46,4.00e-02,
47,-4.00e-02,
48,4.00e-02,
49,-4.00e-02,
50,4.00e-02,
51,-4.00e-02,
52,4.00e-02,
53,-4.00e-02,
54,4.00e-02,
55,-4.00e-02,
56,4.00e-02,
57,-4.00e-02,
58,4.00e-02,
59,-4.00e-02,
60,4.00e-02,
61,-4.00e-02,
62,-4.00e-02,
63,4.00e-02,
64,4.00e-02,
65,-4.00e-02,
66,4.00e-02,
67,-4.00e-02,
68,4.00e-02,
69,-4.00e-02,
70,4.00e-02,
71,-4.00e-02,
72,-4.00e-02,
73,4.00e-02,
74,4.00e-02,
75,-4.00e-02,
76,4.00e-02,
77,-4.00e-02,
78,-4.00e-02,
79,4.00e-02,
80,4.00e-02,
81,-4.00e-02,
82,-4.00e-02,
83,4.00e-02,
84,4.00e-02,
85,-4.00e-02,
86,4.00e-02,
87,-4.00e-02,
88,4.00e-02,
89,-4.00e-02,
90,4.00e-02,
91,-4.00e-02,
92,-4.00e-02,
93,4.00e-02,
94,-4.00e-02,
95,4.00e-02,
96,-4.00e-02,
97,4.00e-02,
98,-4.00e-02,
99,4.00e-02,
100,0.00e+00,
101,3.52e+00,
102,3.48e+00,
103,3.60e+00,
104,3.56e+00,
105,3.68e+00,
106,3.64e+00,
107,3.72e+00,
108,3.64e+00,
109,3.72e+00,
110,3.68e+00,
111,3.76e+00,
112,3.68e+00,
113,3.76e+00,
114,3.76e+00,
115,3.68e+00,
116,3.76e+00,
117,2.40e-01,
118,3.20e-01,
119,1.60e-01,
120,2.00e-01,
121,1.20e-01,
122,1.60e-01,
123,8.00e-02,
124,8.00e-02,
125,1.60e-01,
126,1.20e-01,
127,0.00e+00,
128,0.00e+00,
129,1.20e-01,
130,1.20e-01,
131,0.00e+00,
132,0.00e+00,
133,1.20e-01,
134,0.00e+00,
135,8.00e-02,
136,-4.00e-02,
137,8.00e-02,
138,4.00e-02,
139,0.00e+00,
140,4.00e-02,
141,-4.00e-02,
142,4.00e-02,
143,-4.00e-02,
144,-4.00e-02,
145,2.60e+00,
146,2.64e+00,
147,3.56e+00,
148,3.52e+00,
149,3.68e+00,
150,3.68e+00,
151,3.56e+00,
152,3.64e+00,
153,3.72e+00,
154,3.72e+00,
155,3.68e+00,
156,3.68e+00,
157,3.76e+00,
158,3.76e+00,
159,3.68e+00,
160,3.76e+00,
161,3.72e+00,
162,3.76e+00,
163,3.72e+00,
164,3.76e+00,
165,3.72e+00,
166,3.76e+00,
167,3.72e+00,
168,3.76e+00,
169,3.72e+00,
170,3.72e+00,
171,3.84e+00,
172,3.76e+00,
173,3.72e+00,
174,3.72e+00,
175,3.80e+00,
176,3.76e+00,
177,3.60e-01,
178,4.00e-01,
179,2.00e-01,
180,2.80e-01,
181,1.20e-01,
182,2.00e-01,
183,8.00e-02,
184,1.60e-01,
185,8.00e-02,
186,8.00e-02,
187,1.20e-01,
188,0.00e+00,
189,1.96e+00,
190,1.96e+00,
191,3.60e+00,
192,3.56e+00,
193,3.68e+00,
194,3.64e+00,
195,3.72e+00,
196,3.64e+00,
197,3.72e+00,
198,3.68e+00,
199,3.76e+00,
200,3.68e+00,
201,3.76e+00,
202,3.76e+00,
203,3.72e+00,
204,3.76e+00,
205,3.72e+00,
206,3.76e+00,
207,3.72e+00,
208,3.76e+00,
209,3.72e+00,
210,3.76e+00,
211,3.72e+00,
212,3.72e+00,
213,3.84e+00,
214,3.72e+00,
215,3.84e+00,
216,3.72e+00,
217,3.84e+00,
218,3.72e+00,
219,3.84e+00,
220,3.84e+00,
221,1.48e+00,
222,1.36e+00,
223,2.40e-01,
224,2.80e-01,
225,1.60e-01,
226,2.00e-01,
227,1.20e-01,
228,1.60e-01,
229,8.00e-02,
230,1.60e-01,
231,8.00e-02,
232,1.20e-01,
233,4.00e-02,
234,0.00e+00,
235,3.52e+00,
236,3.48e+00,
237,3.60e+00,
238,3.56e+00,
239,3.68e+00,
240,3.64e+00,
241,3.72e+00,
242,3.68e+00,
243,3.72e+00,
244,3.68e+00,
245,3.76e+00,
246,3.76e+00,
247,3.72e+00,
248,3.76e+00,
249,3.72e+00,
250,3.76e+00,
251,3.20e-01,
252,3.60e-01,
253,1.60e-01,
254,2.80e-01,
255,1.20e-01,
256,2.00e-01,
257,8.00e-02,
258,8.00e-02,
259,1.60e-01,
260,8.00e-02,
261,1.60e-01,
262,1.20e-01,
263,0.00e+00,
264,0.00e+00,
265,1.20e-01,
266,0.00e+00,
267,1.20e-01,
268,0.00e+00,
269,1.20e-01,
270,0.00e+00,
271,1.20e-01,
272,0.00e+00,
273,8.00e-02,
274,0.00e+00,
275,1.20e-01,
276,0.00e+00,
277,8.00e-02,
278,0.00e+00,
279,3.60e-01,
280,4.00e-01,
281,3.56e+00,
282,3.52e+00,
283,3.60e+00,
284,3.60e+00,
285,3.68e+00,
286,3.64e+00,
287,3.72e+00,
288,3.68e+00,
289,3.72e+00,
290,3.68e+00,
291,3.76e+00,
292,3.76e+00,
293,3.68e+00,
294,3.76e+00,
295,2.20e+00,
296,2.16e+00,
297,2.40e-01,
298,2.80e-01,
299,1.20e-01,
300,1.20e-01,
301,2.00e-01,
302,1.60e-01,
303,8.00e-02,
304,1.60e-01,
305,4.00e-02,
306,1.20e-01,
307,0.00e+00,
308,0.00e+00,
309,1.20e-01,
310,0.00e+00,
311,1.20e-01,
312,0.00e+00,
313,1.20e-01,
314,0.00e+00,
315,8.00e-02,
316,8.00e-02,
317,0.00e+00,
318,4.00e-02,
319,0.00e+00,
320,4.00e-02,
321,0.00e+00,
322,4.00e-02,
323,-4.00e-02,
324,0.00e+00,
325,3.52e+00,
326,3.48e+00,
327,3.60e+00,
328,3.52e+00,
329,3.68e+00,
330,3.64e+00,
331,3.72e+00,
332,3.72e+00,
333,3.64e+00,
334,3.68e+00,
335,3.72e+00,
336,3.76e+00,
337,3.68e+00,
338,3.76e+00,
339,3.68e+00,
340,3.76e+00,
341,3.72e+00,
342,3.76e+00,
343,3.72e+00,
344,3.76e+00,
345,3.72e+00,
346,3.76e+00,
347,3.72e+00,
348,3.72e+00,
349,3.76e+00,
350,3.76e+00,
351,3.72e+00,
352,3.76e+00,
353,3.72e+00,
354,3.76e+00,
355,3.24e+00,
356,3.16e+00,
357,2.40e-01,
358,3.20e-01,
359,1.60e-01,
360,2.00e-01,
361,1.20e-01,
362,1.60e-01,
363,8.00e-02,
364,1.60e-01,
365,4.00e-02,
366,1.20e-01,
367,0.00e+00,
368,0.00e+00,
369,1.08e+00,
370,1.08e+00,
371,3.56e+00,
372,3.52e+00,
373,3.64e+00,
374,3.60e+00,
375,3.68e+00,
376,3.64e+00,
377,3.72e+00,
378,3.68e+00,
379,3.72e+00,
380,3.68e+00,
381,3.76e+00,
382,3.76e+00,
383,3.68e+00,
384,3.76e+00,
385,1.16e+00,
386,1.08e+00,
387,1.60e-01,
388,2.80e-01,
389,1.20e-01,
390,2.00e-01,
391,8.00e-02,
392,8.00e-02,
393,1.60e-01,
394,1.20e-01,
395,0.00e+00,
396,1.20e-01,
397,0.00e+00,
398,0.00e+00,
399,1.20e-01,
400,0.00e+00,
401,1.20e-01,
402,0.00e+00,
403,8.00e-02,
404,8.00e-02,
405,0.00e+00,
406,4.00e-02,
407,-4.00e-02,
408,4.00e-02,
409,-4.00e-02,
410,4.00e-02,
411,-4.00e-02,
412,4.00e-02,
413,-4.00e-02,
414,0.00e+00,
415,3.52e+00,
416,3.48e+00,
417,3.60e+00,
418,3.52e+00,
419,3.68e+00,
420,3.64e+00,
421,3.72e+00,
422,3.64e+00,
423,3.72e+00,
424,3.68e+00,
425,3.72e+00,
426,3.68e+00,
427,3.76e+00,
428,3.76e+00,
429,3.68e+00,
430,3.76e+00,
431,2.40e-01,
432,3.20e-01,
433,1.60e-01,
434,2.00e-01,
435,1.20e-01,
436,1.60e-01,
437,8.00e-02,
438,1.60e-01,
439,0.00e+00,
440,0.00e+00,
441,1.20e-01,
442,0.00e+00,
443,1.20e-01,
444,0.00e+00,
445,1.20e-01,
446,0.00e+00,
447,4.00e-02,
448,4.00e-02,
449,0.00e+00,
450,4.00e-02,
451,0.00e+00,
452,4.00e-02,
453,-4.00e-02,
454,4.00e-02,
455,-4.00e-02,
456,4.00e-02,
457,-4.00e-02,
458,-4.00e-02,
459,1.76e+00,
460,1.76e+00,
461,3.56e+00,
462,3.52e+00,
463,3.60e+00,
464,3.56e+00,
465,3.68e+00,
466,3.64e+00,
467,3.72e+00,
468,3.68e+00,
469,3.72e+00,
470,3.68e+00,
471,3.76e+00,
472,3.68e+00,
473,3.76e+00,
474,3.76e+00,
475,3.60e-01,
476,3.60e-01,
477,1.60e-01,
478,2.40e-01,
479,1.20e-01,
480,2.00e-01,
481,8.00e-02,
482,1.60e-01,
483,8.00e-02,
484,1.20e-01,
485,0.00e+00,
486,1.20e-01,
487,0.00e+00,
488,1.20e-01,
489,0.00e+00,
490,0.00e+00,
491,8.00e-02,
492,4.00e-02,
493,0.00e+00,
494,4.00e-02,
495,-4.00e-02,
496,4.00e-02,
497,-4.00e-02,
498,4.00e-02,
499,-4.00e-02,
500,4.00e-02,
501,-4.00e-02,
502,-4.00e-02,
503,4.00e-02,
504,-4.00e-02,
505,3.52e+00,
506,3.48e+00,
507,3.60e+00,
508,3.56e+00,
509,3.68e+00,
510,3.64e+00,
511,3.72e+00,
512,3.72e+00,
513,3.64e+00,
514,3.68e+00,
515,3.72e+00,
516,3.68e+00,
517,3.76e+00,
518,3.76e+00,
519,3.68e+00,
520,3.76e+00,
521,3.68e+00,
522,3.76e+00,
523,3.72e+00,
524,3.72e+00,
525,3.76e+00,
526,3.76e+00,
527,3.72e+00,
528,3.76e+00,
529,3.72e+00,
530,3.76e+00,
531,3.72e+00,
532,3.72e+00,
533,3.76e+00,
534,3.76e+00,
535,2.80e-01,
536,3.20e-01,
537,1.60e-01,
538,2.40e-01,
539,1.20e-01,
540,2.00e-01,
541,8.00e-02,
542,8.00e-02,
543,1.60e-01,
544,1.20e-01,
545,0.00e+00,
546,0.00e+00,
547,1.20e-01,
548,0.00e+00,
549,2.36e+00,
550,2.44e+00,
551,3.60e+00,
552,3.52e+00,
553,3.68e+00,
554,3.56e+00,
555,3.72e+00,
556,3.64e+00,
557,3.72e+00,
558,3.72e+00,
559,3.68e+00,
560,3.68e+00,
561,3.76e+00,
562,3.76e+00,
563,3.68e+00,
564,3.76e+00,
565,3.72e+00,
566,3.76e+00,
567,3.72e+00,
568,3.76e+00,
569,3.72e+00,
570,3.76e+00,
571,3.72e+00,
572,3.76e+00,
573,3.72e+00,
574,3.72e+00,
575,3.80e+00,
576,3.76e+00,
577,3.72e+00,
578,3.76e+00,
579,3.40e+00,
580,3.36e+00,
581,2.40e-01,
582,3.20e-01,
583,1.60e-01,
584,2.00e-01,
585,1.20e-01,
586,1.60e-01,
587,8.00e-02,
588,8.00e-02,
589,1.60e-01,
590,1.20e-01,
591,0.00e+00,
592,0.00e+00,
593,1.20e-01,
594,0.00e+00,
595,3.56e+00,
596,3.52e+00,
597,3.60e+00,
598,3.56e+00,
599,3.68e+00,
600,3.64e+00,
601,3.72e+00,
602,3.72e+00,
603,3.68e+00,
604,3.68e+00,
605,3.76e+00,
606,3.76e+00,
607,3.68e+00,
608,3.76e+00,
609,3.72e+00,
610,3.76e+00,
611,3.72e+00,
612,3.76e+00,
613,3.72e+00,
614,3.76e+00,
615,3.72e+00,
616,3.76e+00,
617,3.72e+00,
618,3.72e+00,
619,3.80e+00,
620,3.76e+00,
621,3.72e+00,
622,3.76e+00,
623,3.72e+00,
624,3.76e+00,
625,2.80e-01,
626,3.20e-01,
627,1.60e-01,
628,2.80e-01,
629,1.20e-01,
630,2.00e-01,
631,8.00e-02,
632,8.00e-02,
633,1.60e-01,
634,1.60e-01,
635,0.00e+00,
636,1.20e-01,
637,0.00e+00,
638,0.00e+00,
639,2.60e+00,
640,2.64e+00,
641,3.60e+00,
642,3.56e+00,
643,3.68e+00,
644,3.64e+00,
645,3.72e+00,
646,3.64e+00,
647,3.72e+00,
648,3.68e+00,
649,3.76e+00,
650,3.76e+00,
651,3.68e+00,
652,3.76e+00,
653,3.68e+00,
654,3.76e+00,
655,2.40e-01,
656,3.20e-01,
657,1.60e-01,
658,2.00e-01,
659,1.20e-01,
660,1.60e-01,
661,8.00e-02,
662,8.00e-02,
663,1.60e-01,
664,1.20e-01,
665,0.00e+00,
666,1.20e-01,
667,0.00e+00,
668,0.00e+00,
669,1.20e-01,
670,0.00e+00,
671,1.20e-01,
672,1.20e-01,
673,0.00e+00,
674,4.00e-02,
675,0.00e+00,
676,0.00e+00,
677,4.00e-02,
678,4.00e-02,
679,0.00e+00,
680,4.00e-02,
681,0.00e+00,
682,4.00e-02,
683,-4.00e-02,
684,0.00e+00,
685,3.56e+00,
686,3.48e+00,
687,3.60e+00,
688,3.56e+00,
689,3.68e+00,
690,3.64e+00,
691,3.72e+00,
692,3.68e+00,
693,3.72e+00,
694,3.68e+00,
695,3.76e+00,
696,3.68e+00,
697,3.76e+00,
698,3.76e+00,
699,3.72e+00,
700,3.76e+00,
701,3.72e+00,
702,3.76e+00,
703,3.72e+00,
704,3.76e+00,
705,3.72e+00,
706,3.72e+00,
707,3.76e+00,
708,3.76e+00,
709,3.72e+00,
710,3.76e+00,
711,3.72e+00,
712,3.72e+00,
713,3.76e+00,
714,3.76e+00,
715,2.80e-01,
716,3.20e-01,
717,1.60e-01,
718,2.80e-01,
719,1.20e-01,
720,2.00e-01,
721,8.00e-02,
722,8.00e-02,
723,1.60e-01,
724,1.20e-01,
725,0.00e+00,
726,1.20e-01,
727,0.00e+00,
728,0.00e+00,
729,3.04e+00,
730,3.08e+00,
731,3.60e+00,
732,3.56e+00,
733,3.68e+00,
734,3.64e+00,
735,3.72e+00,
736,3.64e+00,
737,3.72e+00,
738,3.68e+00,
739,3.76e+00,
740,3.68e+00,
741,3.76e+00,
742,3.76e+00,
743,3.40e+00,
744,3.32e+00,
745,2.40e-01,
746,2.80e-01,
747,1.60e-01,
748,1.20e-01,
749,2.00e-01,
750,1.60e-01,
751,8.00e-02,
752,1.60e-01,
753,4.00e-02,
754,1.20e-01,
755,0.00e+00,
756,1.20e-01,
757,0.00e+00,
758,1.20e-01,
759,0.00e+00,
760,0.00e+00,
761,1.20e-01,
762,4.00e-02,
763,0.00e+00,
764,4.00e-02,
765,0.00e+00,
766,0.00e+00,
767,1.20e-01,
768,0.00e+00,
769,4.00e-02,
770,4.00e-02,
771,0.00e+00,
772,0.00e+00,
773,4.00e-01,
774,4.40e-01,
775,3.56e+00,
776,3.52e+00,
777,3.60e+00,
778,3.56e+00,
779,3.68e+00,
780,3.64e+00,
781,3.72e+00,
782,3.72e+00,
783,3.68e+00,
784,3.68e+00,
785,3.76e+00,
786,3.68e+00,
787,3.76e+00,
788,3.76e+00,
789,2.80e-01,
790,3.20e-01,
791,1.60e-01,
792,2.40e-01,
793,1.20e-01,
794,1.60e-01,
795,8.00e-02,
796,1.60e-01,
797,8.00e-02,
798,1.20e-01,
799,0.00e+00,
800,0.00e+00,
801,1.20e-01,
802,0.00e+00,
803,1.20e-01,
804,4.00e-02,
805,0.00e+00,
806,4.00e-02,
807,0.00e+00,
808,4.00e-02,
809,-4.00e-02,
810,4.00e-02,
811,-4.00e-02,
812,4.00e-02,
813,-4.00e-02,
814,-4.00e-02,
815,4.00e-02,
816,4.00e-02,
817,-4.00e-02,
818,-4.00e-02,
819,3.48e+00,
820,3.48e+00,
821,3.60e+00,
822,3.52e+00,
823,3.68e+00,
824,3.60e+00,
825,3.68e+00,
826,3.64e+00,
827,3.72e+00,
828,3.68e+00,
829,3.76e+00,
830,3.68e+00,
831,3.76e+00,
832,3.76e+00,
833,3.20e+00,
834,3.12e+00,
835,2.40e-01,
836,2.80e-01,
837,1.20e-01,
838,2.00e-01,
839,8.00e-02,
840,8.00e-02,
841,1.60e-01,
842,1.20e-01,
843,0.00e+00,
844,0.00e+00,
845,1.20e-01,
846,1.20e-01,
847,0.00e+00,
848,0.00e+00,
849,1.20e-01,
850,4.00e-02,
851,0.00e+00,
852,4.00e-02,
853,-4.00e-02,
854,4.00e-02,
855,-4.00e-02,
856,4.00e-02,
857,-4.00e-02,
858,-4.00e-02,
859,4.00e-02,
860,-4.00e-02,
861,4.00e-02,
862,-4.00e-02,
863,2.08e+00,
864,2.12e+00,
865,3.56e+00,
866,3.52e+00,
867,3.60e+00,
868,3.68e+00,
869,3.56e+00,
870,3.64e+00,
871,3.72e+00,
872,3.72e+00,
873,3.68e+00,
874,3.68e+00,
875,3.76e+00,
876,3.68e+00,
877,3.76e+00,
878,3.76e+00,
879,3.68e+00,
880,3.76e+00,
881,3.68e+00,
882,3.76e+00,
883,3.72e+00,
884,3.76e+00,
885,3.72e+00,
886,3.76e+00,
887,3.72e+00,
888,3.76e+00,
889,3.72e+00,
890,3.72e+00,
891,3.76e+00,
892,3.76e+00,
893,3.64e+00,
894,3.60e+00,
895,2.40e-01,
896,3.20e-01,
897,1.60e-01,
898,2.00e-01,
899,1.20e-01,
900,1.60e-01,
901,8.00e-02,
902,8.00e-02,
903,1.60e-01,
904,0.00e+00,
905,1.20e-01,
906,1.20e-01,
907,0.00e+00,
908,4.00e-02,
909,3.56e+00,
910,3.52e+00,
911,3.60e+00,
912,3.56e+00,
913,3.68e+00,
914,3.64e+00,
915,3.72e+00,
916,3.72e+00,
917,3.68e+00,
918,3.68e+00,
919,3.76e+00,
920,3.76e+00,
921,3.68e+00,
922,3.76e+00,
923,3.72e+00,
924,3.76e+00,
925,3.72e+00,
926,3.76e+00,
927,3.72e+00,
928,3.76e+00,
929,3.72e+00,
930,3.72e+00,
931,3.76e+00,
932,3.76e+00,
933,3.72e+00,
934,3.72e+00,
935,3.76e+00,
936,3.72e+00,
937,3.76e+00,
938,3.76e+00,
939,2.80e-01,
940,3.20e-01,
941,1.60e-01,
942,2.40e-01,
943,1.20e-01,
944,2.00e-01,
945,8.00e-02,
946,1.60e-01,
947,8.00e-02,
948,1.20e-01,
949,0.00e+00,
950,1.20e-01,
951,0.00e+00,
952,0.00e+00,
953,3.32e+00,
954,3.36e+00,
955,3.60e+00,
956,3.56e+00,
957,3.68e+00,
958,3.64e+00,
959,3.72e+00,
960,3.72e+00,
961,3.68e+00,
962,3.68e+00,
963,3.76e+00,
964,3.76e+00,
965,3.68e+00,
966,3.76e+00,
967,3.72e+00,
968,3.76e+00,
969,3.72e+00,
970,3.76e+00,
971,3.72e+00,
972,3.76e+00,
973,3.72e+00,
974,3.76e+00,
975,3.72e+00,
976,3.72e+00,
977,3.80e+00,
978,3.72e+00,
979,3.84e+00,
980,3.76e+00,
981,3.72e+00,
982,3.76e+00,
983,2.32e+00,
984,2.24e+00,
985,2.40e-01,
986,2.80e-01,
987,1.60e-01,
988,2.80e-01,
989,1.20e-01,
990,1.60e-01,
991,8.00e-02,
992,1.60e-01,
993,8.00e-02,
994,1.20e-01,
995,0.00e+00,
996,0.00e+00,
997,7.20e-01,
998,7.20e-01,
999,3.56e+00,
1000,3.52e+00,
1001,3.68e+00,
1002,3.68e+00,
1003,3.60e+00,
1004,3.64e+00,
1005,3.72e+00,
1006,3.68e+00,
1007,3.76e+00,
1008,3.68e+00,
1009,3.76e+00,
1010,3.76e+00,
1011,3.68e+00,
1012,3.76e+00,
1013,4.00e-01,
1014,4.00e-01,
1015,1.60e-01,
1016,2.80e-01,
1017,1.20e-01,
1018,2.00e-01,
1019,8.00e-02,
1020,8.00e-02,
1021,1.60e-01,
1022,1.20e-01,
1023,0.00e+00,
1024,1.20e-01,
1025,0.00e+00,
1026,0.00e+00,
1027,1.20e-01,
1028,0.00e+00,
1029,1.20e-01,
1030,1.20e-01,
1031,0.00e+00,
1032,0.00e+00,
1033,8.00e-02,
1034,4.00e-02,
1035,0.00e+00,
1036,4.00e-02,
1037,-4.00e-02,
1038,-4.00e-02,
1039,8.00e-02,
1040,4.00e-02,
1041,0.00e+00,
1042,0.00e+00,
1043,3.52e+00,
1044,3.48e+00,
1045,3.60e+00,
1046,3.56e+00,
1047,3.68e+00,
1048,3.64e+00,
1049,3.72e+00,
1050,3.72e+00,
1051,3.64e+00,
1052,3.68e+00,
1053,3.76e+00,
1054,3.68e+00,
1055,3.76e+00,
1056,3.76e+00,
1057,3.72e+00,
1058,3.72e+00,
1059,3.76e+00,
1060,3.76e+00,
1061,3.72e+00,
1062,3.76e+00,
1063,3.72e+00,
1064,3.76e+00,
1065,3.72e+00,
1066,3.76e+00,
1067,3.72e+00,
1068,3.76e+00,
1069,3.72e+00,
1070,3.76e+00,
1071,3.72e+00,
1072,3.76e+00,
1073,1.36e+00,
1074,1.32e+00,
1075,2.40e-01,
1076,2.80e-01,
1077,1.20e-01,
1078,2.00e-01,
1079,8.00e-02,
1080,1.60e-01,
1081,8.00e-02,
1082,1.20e-01,
1083,0.00e+00,
1084,1.20e-01,
1085,0.00e+00,
1086,0.00e+00,
1087,1.52e+00,
1088,1.52e+00,
1089,3.56e+00,
1090,3.52e+00,
1091,3.68e+00,
1092,3.56e+00,
1093,3.68e+00,
1094,3.64e+00,
1095,3.72e+00,
1096,3.68e+00,
1097,3.76e+00,
1098,3.68e+00,
1099,3.76e+00,
1100,3.76e+00,
1101,3.68e+00,
1102,3.76e+00,
1103,3.72e+00,
1104,3.76e+00,
1105,3.72e+00,
1106,3.76e+00,
1107,3.72e+00,
1108,3.72e+00,
1109,3.84e+00,
1110,3.76e+00,
1111,3.72e+00,
1112,3.72e+00,
1113,3.80e+00,
1114,3.76e+00,
1115,3.72e+00,
1116,3.76e+00,
1117,3.00e+00,
1118,2.96e+00,
1119,2.40e-01,
1120,3.20e-01,
1121,1.60e-01,
1122,2.00e-01,
1123,1.20e-01,
1124,1.60e-01,
1125,8.00e-02,
1126,8.00e-02,
1127,1.60e-01,
1128,1.20e-01,
1129,0.00e+00,
1130,0.00e+00,
1131,1.20e-01,
1132,0.00e+00,
1133,1.20e-01,
1134,1.20e-01,
1135,0.00e+00,
1136,8.00e-02,
1137,0.00e+00,
1138,4.00e-02,
1139,0.00e+00,
1140,8.00e-02,
1141,0.00e+00,
1142,4.00e-02,
1143,-4.00e-02,
1144,4.00e-02,
1145,-4.00e-02,
1146,4.00e-02,
1147,-4.00e-02,
1148,4.00e-02,
1149,-4.00e-02,
1150,4.00e-02,
1151,-4.00e-02,
1152,4.00e-02,
1153,-4.00e-02,
1154,4.00e-02,
1155,-4.00e-02,
1156,-4.00e-02,
1157,4.00e-02,
1158,4.00e-02,
1159,-4.00e-02,
1160,4.00e-02,
1161,-4.00e-02,
1162,-4.00e-02,
1163,4.00e-02,
1164,-4.00e-02,
1165,4.00e-02,
1166,4.00e-02,
1167,-4.00e-02,
1168,4.00e-02,
1169,-4.00e-02,
1170,-4.00e-02,
1171,4.00e-02,
1172,-4.00e-02,
1173,4.00e-02,
1174,4.00e-02,
1175,-4.00e-02,
1176,4.00e-02,
1177,-4.00e-02,
1178,-4.00e-02,
1179,4.00e-02,
1180,4.00e-02,
1181,-4.00e-02,
1182,-4.00e-02,
1183,4.00e-02,
1184,4.00e-02,
1185,-4.00e-02,
1186,4.00e-02,
1187,-4.00e-02,
1188,-4.00e-02,
1189,4.00e-02,
1190,-4.00e-02,
1191,4.00e-02,
1192,4.00e-02,
1193,-4.00e-02,
1194,4.00e-02,
1195,-4.00e-02,
1196,4.00e-02,
1197,-4.00e-02,
1198,-4.00e-02,
1199,4.00e-02,
