codes/on/on15.csv

X,CH1,Start,Increment,
Sequence,Volt,7.698400e-01,2.000000e-05
0,0.00e+00,
1,8.00e-02,
2,8.00e-02,
3,0.00e+00,
4,8.00e-02,
5,0.00e+00,
6,8.00e-02,
7,0.00e+00,
8,0.00e+00,
9,8.00e-02,
10,8.00e-02,
11,0.00e+00,
12,0.00e+00,
13,8.00e-02,
14,8.00e-02,
15,0.00e+00,
16,0.00e+00,
17,8.00e-02,
18,0.00e+00,
19,8.00e-02,
20,8.00e-02,
21,0.00e+00,
22,8.00e-02,
23,0.00e+00,
24,8.00e-02,
25,0.00e+00,
26,8.00e-02,
27,0.00e+00,
28,8.00e-02,
29,0.00e+00,
30,0.00e+00,
31,8.00e-02,
32,0.00e+00,
33,8.00e-02,
34,8.00e-02,
35,0.00e+00,
36,0.00e+00,
37,8.00e-02,
38,0.00e+00,
39,8.00e-02,
40,8.00e-02,
41,0.00e+00,
42,0.00e+00,
43,8.00e-02,
44,8.00e-02,
45,0.00e+00,
46,0.00e+00,
47,8.00e-02,
48,8.00e-02,
49,0.00e+00,
50,8.00e-02,
51,0.00e+00,
52,8.00e-02,
53,0.00e+00,
54,8.00e-02,
55,0.00e+00,
56,8.00e-02,
57,0.00e+00,
58,8.00e-02,
59,0.00e+00,
60,0.00e+00,
61,8.00e-02,
62,8.00e-02,
63,0.00e+00,
64,0.00e+00,
65,8.00e-02,
66,8.00e-02,
67,0.00e+00,
68,8.00e-02,
69,0.00e+00,
70,0.00e+00,
71,8.00e-02,
72,0.00e+00,
73,8.00e-02,
74,8.00e-02,
75,0.00e+00,
76,8.00e-02,
77,0.00e+00,
78,0.00e+00,
79,8.00e-02,
80,8.00e-02,
81,0.00e+00,
82,0.00e+00,
83,8.00e-02,
84,8.00e-02,
85,0.00e+00,
86,8.00e-02,
87,0.00e+00,
88,8.00e-02,
89,0.00e+00,
90,8.00e-02,
91,0.00e+00,
92,0.00e+00,
93,8.00e-02,
94,0.00e+00,
95,8.00e-02,
96,8.00e-02,
97,0.00e+00,
98,0.00e+00,
99,8.00e-02,
100,8.00e-02,
101,0.00e+00,
102,8.00e-02,
103,0.00e+00,
104,8.00e-02,
105,0.00e+00,
106,4.00e-02,
107,3.56e+00,
108,3.52e+00,
109,3.64e+00,
110,3.60e+00,
111,3.72e+00,
112,3.68e+00,
113,3.76e+00,
114,3.68e+00,
115,3.76e+00,
116,3.72e+00,
117,3.76e+00,
118,3.80e+00,
119,3.72e+00,
120,3.80e+00,
121,3.72e+00,
122,3.80e+00,
123,1.12e+00,
124,1.08e+00,
125,2.00e-01,
126,3.20e-01,
127,1.60e-01,
128,2.40e-01,
129,1.20e-01,
130,2.00e-01,
131,1.20e-01,
132,1.60e-01,
133,4.00e-02,
134,1.60e-01,
135,4.00e-02,
136,4.00e-02,
137,1.60e-01,
138,4.00e-02,
139,1.60e-01,
140,1.20e-01,
141,4.00e-02,
142,4.00e-02,
143,1.20e-01,
144,8.00e-02,
145,4.00e-02,
146,8.00e-02,
147,4.00e-02,
148,8.00e-02,
149,0.00e+00,
150,4.00e-02,
151,2.48e+00,
152,2.52e+00,
153,3.60e+00,
154,3.56e+00,
155,3.72e+00,
156,3.64e+00,
157,3.76e+00,
158,3.76e+00,
159,3.68e+00,
160,3.72e+00,
161,3.80e+00,
162,3.72e+00,
163,3.80e+00,
164,3.80e+00,
165,3.76e+00,
166,3.80e+00,
167,3.76e+00,
168,3.80e+00,
169,3.76e+00,
170,3.80e+00,
171,3.76e+00,
172,3.80e+00,
173,3.76e+00,
174,3.80e+00,
175,3.76e+00,
176,3.76e+00,
177,3.88e+00,
178,3.76e+00,
179,3.84e+00,
180,3.80e+00,
181,3.76e+00,
182,3.80e+00,
183,1.72e+00,
184,1.68e+00,
185,2.80e-01,
186,3.20e-01,
187,1.60e-01,
188,1.60e-01,
189,2.40e-01,
190,2.00e-01,
191,1.20e-01,
192,1.20e-01,
193,2.00e-01,
194,4.00e-02,
195,2.00e-01,
196,1.60e-01,
197,3.60e+00,
198,3.56e+00,
199,3.64e+00,
200,3.72e+00,
201,3.60e+00,
202,3.68e+00,
203,3.76e+00,
204,3.72e+00,
205,3.80e+00,
206,3.80e+00,
207,3.72e+00,
208,3.80e+00,
209,3.76e+00,
210,3.80e+00,
211,3.76e+00,
212,3.80e+00,
213,3.76e+00,
214,3.80e+00,
215,3.76e+00,
216,3.76e+00,
217,3.84e+00,
218,3.76e+00,
219,3.88e+00,
220,3.88e+00,
221,3.76e+00,
222,3.88e+00,
223,3.76e+00,
224,3.76e+00,
225,3.88e+00,
226,3.88e+00,
227,3.36e+00,
228,3.32e+00,
229,2.80e-01,
230,3.60e-01,
231,2.00e-01,
232,2.80e-01,
233,1.60e-01,
234,2.40e-01,
235,1.20e-01,
236,1.20e-01,
237,2.00e-01,
238,2.00e-01,
239,8.00e-02,
240,4.00e-02,
241,3.16e+00,
242,3.20e+00,
243,3.64e+00,
244,3.60e+00,
245,3.72e+00,
246,3.68e+00,
247,3.76e+00,
248,3.76e+00,
249,3.72e+00,
250,3.72e+00,
251,3.80e+00,
252,3.80e+00,
253,3.72e+00,
254,3.80e+00,
255,3.76e+00,
256,3.80e+00,
257,2.28e+00,
258,2.24e+00,
259,2.80e-01,
260,3.20e-01,
261,2.00e-01,
262,2.40e-01,
263,1.60e-01,
264,2.00e-01,
265,1.20e-01,
266,1.20e-01,
267,2.00e-01,
268,1.60e-01,
269,4.00e-02,
270,1.60e-01,
271,4.00e-02,
272,4.00e-02,
273,1.60e-01,
274,4.00e-02,
275,1.60e-01,
276,4.00e-02,
277,1.60e-01,
278,1.60e-01,
279,4.00e-02,
280,4.00e-02,
281,1.20e-01,
282,8.00e-02,
283,4.00e-02,
284,4.00e-02,
285,1.60e-01,
286,1.60e-01,
287,3.60e+00,
288,3.56e+00,
289,3.64e+00,
290,3.60e+00,
291,3.72e+00,
292,3.68e+00,
293,3.76e+00,
294,3.72e+00,
295,3.76e+00,
296,3.72e+00,
297,3.80e+00,
298,3.80e+00,
299,3.72e+00,
300,3.80e+00,
301,3.72e+00,
302,3.80e+00,
303,2.80e-01,
304,3.60e-01,
305,2.00e-01,
306,2.80e-01,
307,1.60e-01,
308,2.00e-01,
309,1.20e-01,
310,2.00e-01,
311,1.20e-01,
312,1.60e-01,
313,4.00e-02,
314,1.60e-01,
315,4.00e-02,
316,1.60e-01,
317,4.00e-02,
318,4.00e-02,
319,1.60e-01,
320,1.20e-01,
321,4.00e-02,
322,8.00e-02,
323,4.00e-02,
324,8.00e-02,
325,4.00e-02,
326,8.00e-02,
327,4.00e-02,
328,8.00e-02,
329,0.00e+00,
330,4.00e-02,
331,3.48e+00,
332,3.48e+00,
333,3.64e+00,
334,3.56e+00,
335,3.72e+00,
336,3.68e+00,
337,3.76e+00,
338,3.68e+00,
339,3.76e+00,
340,3.76e+00,
341,3.72e+00,
342,3.72e+00,
343,3.80e+00,
344,3.72e+00,
345,3.80e+00,
346,3.80e+00,
347,3.76e+00,
348,3.76e+00,
349,3.80e+00,
350,3.80e+00,
351,3.76e+00,
352,3.80e+00,
353,3.76e+00,
354,3.80e+00,
355,3.76e+00,
356,3.80e+00,
357,3.76e+00,
358,3.76e+00,
359,3.80e+00,
360,3.76e+00,
361,3.80e+00,
362,3.80e+00,
363,3.20e-01,
364,3.60e-01,
365,2.00e-01,
366,3.20e-01,
367,1.60e-01,
368,2.40e-01,
369,1.20e-01,
370,1.20e-01,
371,2.00e-01,
372,1.60e-01,
373,4.00e-02,
374,4.00e-02,
375,1.12e+00,
376,1.16e+00,
377,3.60e+00,
378,3.56e+00,
379,3.72e+00,
380,3.60e+00,
381,3.76e+00,
382,3.68e+00,
383,3.76e+00,
384,3.72e+00,
385,3.76e+00,
386,3.72e+00,
387,3.80e+00,
388,3.72e+00,
389,3.80e+00,
390,3.80e+00,
391,3.48e+00,
392,3.44e+00,
393,2.80e-01,
394,3.60e-01,
395,2.00e-01,
396,2.40e-01,
397,1.60e-01,
398,2.00e-01,
399,1.20e-01,
400,2.00e-01,
401,8.00e-02,
402,4.00e-02,
403,1.60e-01,
404,4.00e-02,
405,1.60e-01,
406,1.60e-01,
407,4.00e-02,
408,4.00e-02,
409,1.20e-01,
410,4.00e-02,
411,8.00e-02,
412,8.00e-02,
413,4.00e-02,
414,8.00e-02,
415,0.00e+00,
416,8.00e-02,
417,0.00e+00,
418,8.00e-02,
419,0.00e+00,
420,4.00e-02,
421,3.56e+00,
422,3.52e+00,
423,3.64e+00,
424,3.56e+00,
425,3.72e+00,
426,3.68e+00,
427,3.76e+00,
428,3.68e+00,
429,3.76e+00,
430,3.72e+00,
431,3.76e+00,
432,3.72e+00,
433,3.80e+00,
434,3.80e+00,
435,3.72e+00,
436,3.80e+00,
437,8.80e-01,
438,8.40e-01,
439,2.00e-01,
440,3.20e-01,
441,1.60e-01,
442,2.40e-01,
443,1.20e-01,
444,1.20e-01,
445,2.00e-01,
446,1.60e-01,
447,4.00e-02,
448,4.00e-02,
449,1.60e-01,
450,4.00e-02,
451,1.60e-01,
452,1.20e-01,
453,4.00e-02,
454,1.20e-01,
455,4.00e-02,
456,8.00e-02,
457,0.00e+00,
458,8.00e-02,
459,0.00e+00,
460,8.00e-02,
461,0.00e+00,
462,8.00e-02,
463,0.00e+00,
464,0.00e+00,
465,1.24e+00,
466,1.32e+00,
467,3.60e+00,
468,3.56e+00,
469,3.64e+00,
470,3.60e+00,
471,3.72e+00,
472,3.68e+00,
473,3.76e+00,
474,3.76e+00,
475,3.72e+00,
476,3.72e+00,
477,3.80e+00,
478,3.72e+00,
479,3.80e+00,
480,3.80e+00,
481,3.28e+00,
482,3.24e+00,
483,2.80e-01,
484,3.20e-01,
485,1.60e-01,
486,2.40e-01,
487,1.20e-01,
488,1.20e-01,
489,2.00e-01,
490,1.60e-01,
491,4.00e-02,
492,1.60e-01,
493,4.00e-02,
494,4.00e-02,
495,1.60e-01,
496,1.20e-01,
497,4.00e-02,
498,8.00e-02,
499,4.00e-02,
500,8.00e-02,
501,4.00e-02,
502,8.00e-02,
503,0.00e+00,
504,8.00e-02,
505,0.00e+00,
506,8.00e-02,
507,0.00e+00,
508,8.00e-02,
509,0.00e+00,
510,4.00e-02,
511,3.56e+00,
512,3.52e+00,
513,3.64e+00,
514,3.56e+00,
515,3.72e+00,
516,3.68e+00,
517,3.76e+00,
518,3.76e+00,
519,3.68e+00,
520,3.76e+00,
521,3.72e+00,
522,3.72e+00,
523,3.80e+00,
524,3.72e+00,
525,3.80e+00,
526,3.80e+00,
527,3.76e+00,
528,3.80e+00,
529,3.76e+00,
530,3.80e+00,
531,3.76e+00,
532,3.76e+00,
533,3.80e+00,
534,3.80e+00,
535,3.76e+00,
536,3.80e+00,
537,3.76e+00,
538,3.76e+00,
539,3.88e+00,
540,3.80e+00,
541,3.32e+00,
542,3.28e+00,
543,2.80e-01,
544,3.60e-01,
545,2.00e-01,
546,2.40e-01,
547,1.60e-01,
548,2.00e-01,
549,1.20e-01,
550,2.00e-01,
551,8.00e-02,
552,1.60e-01,
553,4.00e-02,
554,4.00e-02,
555,1.88e+00,
556,1.88e+00,
557,3.64e+00,
558,3.56e+00,
559,3.72e+00,
560,3.64e+00,
561,3.72e+00,
562,3.68e+00,
563,3.76e+00,
564,3.76e+00,
565,3.72e+00,
566,3.72e+00,
567,3.80e+00,
568,3.80e+00,
569,3.72e+00,
570,3.80e+00,
571,3.76e+00,
572,3.80e+00,
573,3.76e+00,
574,3.80e+00,
575,3.76e+00,
576,3.76e+00,
577,3.84e+00,
578,3.76e+00,
579,3.80e+00,
580,3.80e+00,
581,3.76e+00,
582,3.80e+00,
583,3.76e+00,
584,3.80e+00,
585,3.76e+00,
586,3.80e+00,
587,3.20e-01,
588,3.60e-01,
589,2.00e-01,
590,3.20e-01,
591,1.60e-01,
592,2.40e-01,
593,1.20e-01,
594,1.20e-01,
595,2.00e-01,
596,1.60e-01,
597,4.00e-02,
598,1.60e-01,
599,4.00e-02,
600,4.00e-02,
601,3.60e+00,
602,3.56e+00,
603,3.64e+00,
604,3.60e+00,
605,3.72e+00,
606,3.68e+00,
607,3.76e+00,
608,3.72e+00,
609,3.76e+00,
610,3.72e+00,
611,3.80e+00,
612,3.80e+00,
613,3.72e+00,
614,3.80e+00,
615,3.76e+00,
616,3.80e+00,
617,3.76e+00,
618,3.80e+00,
619,3.76e+00,
620,3.80e+00,
621,3.76e+00,
622,3.80e+00,
623,3.76e+00,
624,3.76e+00,
625,3.80e+00,
626,3.80e+00,
627,3.76e+00,
628,3.76e+00,
629,3.80e+00,
630,3.80e+00,
631,4.80e-01,
632,4.40e-01,
633,2.40e-01,
634,3.20e-01,
635,1.60e-01,
636,2.40e-01,
637,1.20e-01,
638,1.20e-01,
639,2.00e-01,
640,1.20e-01,
641,1.60e-01,
642,1.60e-01,
643,4.00e-02,
644,4.00e-02,
645,2.68e+00,
646,2.72e+00,
647,3.64e+00,
648,3.60e+00,
649,3.72e+00,
650,3.68e+00,
651,3.76e+00,
652,3.76e+00,
653,3.68e+00,
654,3.72e+00,
655,3.80e+00,
656,3.80e+00,
657,3.72e+00,
658,3.80e+00,
659,3.72e+00,
660,3.80e+00,
661,3.20e-01,
662,3.60e-01,
663,2.00e-01,
664,3.20e-01,
665,1.60e-01,
666,2.40e-01,
667,1.20e-01,
668,1.20e-01,
669,2.00e-01,
670,1.60e-01,
671,4.00e-02,
672,1.60e-01,
673,4.00e-02,
674,1.60e-01,
675,4.00e-02,
676,4.00e-02,
677,1.60e-01,
678,1.60e-01,
679,4.00e-02,
680,4.00e-02,
681,1.60e-01,
682,4.00e-02,
683,1.20e-01,
684,4.00e-02,
685,8.00e-02,
686,8.00e-02,
687,4.00e-02,
688,4.00e-02,
689,5.20e-01,
690,4.40e-01,
691,3.60e+00,
692,3.56e+00,
693,3.64e+00,
694,3.60e+00,
695,3.72e+00,
696,3.68e+00,
697,3.76e+00,
698,3.76e+00,
699,3.72e+00,
700,3.72e+00,
701,3.80e+00,
702,3.72e+00,
703,3.80e+00,
704,3.80e+00,
705,3.76e+00,
706,3.76e+00,
707,3.80e+00,
708,3.80e+00,
709,3.76e+00,
710,3.80e+00,
711,3.76e+00,
712,3.76e+00,
713,3.80e+00,
714,3.80e+00,
715,3.76e+00,
716,3.76e+00,
717,3.84e+00,
718,3.80e+00,
719,3.76e+00,
720,3.80e+00,
721,3.20e-01,
722,3.60e-01,
723,2.00e-01,
724,3.20e-01,
725,1.60e-01,
726,2.40e-01,
727,1.20e-01,
728,1.20e-01,
729,2.00e-01,
730,1.60e-01,
731,4.00e-02,
732,1.60e-01,
733,4.00e-02,
734,4.00e-02,
735,3.56e+00,
736,3.52e+00,
737,3.64e+00,
738,3.60e+00,
739,3.72e+00,
740,3.68e+00,
741,3.76e+00,
742,3.68e+00,
743,3.76e+00,
744,3.72e+00,
745,3.80e+00,
746,3.80e+00,
747,3.72e+00,
748,3.80e+00,
749,3.40e+00,
750,3.36e+00,
751,2.80e-01,
752,3.20e-01,
753,2.00e-01,
754,2.40e-01,
755,1.60e-01,
756,2.00e-01,
757,1.20e-01,
758,2.00e-01,
759,8.00e-02,
760,4.00e-02,
761,1.60e-01,
762,4.00e-02,
763,1.60e-01,
764,1.60e-01,
765,4.00e-02,
766,4.00e-02,
767,1.60e-01,
768,4.00e-02,
769,8.00e-02,
770,8.00e-02,
771,4.00e-02,
772,8.00e-02,
773,4.00e-02,
774,8.00e-02,
775,4.00e-02,
776,8.00e-02,
777,0.00e+00,
778,0.00e+00,
779,1.48e+00,
780,1.56e+00,
781,3.60e+00,
782,3.56e+00,
783,3.64e+00,
784,3.60e+00,
785,3.72e+00,
786,3.68e+00,
787,3.76e+00,
788,3.72e+00,
789,3.76e+00,
790,3.72e+00,
791,3.80e+00,
792,3.80e+00,
793,3.72e+00,
794,3.80e+00,
795,3.20e-01,
796,3.60e-01,
797,2.00e-01,
798,2.80e-01,
799,1.60e-01,
800,2.40e-01,
801,1.20e-01,
802,1.20e-01,
803,2.00e-01,
804,1.60e-01,
805,4.00e-02,
806,1.60e-01,
807,4.00e-02,
808,4.00e-02,
809,1.60e-01,
810,1.20e-01,
811,4.00e-02,
812,8.00e-02,
813,4.00e-02,
814,4.00e-02,
815,8.00e-02,
816,8.00e-02,
817,0.00e+00,
818,8.00e-02,
819,0.00e+00,
820,0.00e+00,
821,8.00e-02,
822,0.00e+00,
823,8.00e-02,
824,0.00e+00,
825,3.56e+00,
826,3.52e+00,
827,3.64e+00,
828,3.60e+00,
829,3.72e+00,
830,3.68e+00,
831,3.76e+00,
832,3.76e+00,
833,3.68e+00,
834,3.76e+00,
835,3.72e+00,
836,3.72e+00,
837,3.80e+00,
838,3.80e+00,
839,2.40e+00,
840,2.36e+00,
841,2.00e-01,
842,3.20e-01,
843,1.60e-01,
844,2.40e-01,
845,1.20e-01,
846,1.20e-01,
847,2.00e-01,
848,1.60e-01,
849,4.00e-02,
850,4.00e-02,
851,1.60e-01,
852,4.00e-02,
853,1.60e-01,
854,4.00e-02,
855,1.20e-01,
856,8.00e-02,
857,0.00e+00,
858,8.00e-02,
859,0.00e+00,
860,8.00e-02,
861,0.00e+00,
862,8.00e-02,
863,0.00e+00,
864,8.00e-02,
865,0.00e+00,
866,0.00e+00,
867,8.00e-02,
868,0.00e+00,
869,2.92e+00,
870,2.92e+00,
871,3.60e+00,
872,3.56e+00,
873,3.72e+00,
874,3.72e+00,
875,3.60e+00,
876,3.68e+00,
877,3.76e+00,
878,3.72e+00,
879,3.76e+00,
880,3.72e+00,
881,3.80e+00,
882,3.72e+00,
883,3.80e+00,
884,3.80e+00,
885,3.72e+00,
886,3.80e+00,
887,3.76e+00,
888,3.80e+00,
889,3.76e+00,
890,3.76e+00,
891,3.80e+00,
892,3.80e+00,
893,3.76e+00,
894,3.80e+00,
895,3.76e+00,
896,3.80e+00,
897,3.76e+00,
898,3.80e+00,
899,2.28e+00,
900,2.20e+00,
901,2.80e-01,
902,3.20e-01,
903,1.60e-01,
904,2.40e-01,
905,1.20e-01,
906,1.20e-01,
907,2.00e-01,
908,1.60e-01,
909,8.00e-02,
910,4.00e-02,
911,1.60e-01,
912,4.00e-02,
913,2.40e-01,
914,2.00e-01,
915,3.60e+00,
916,3.56e+00,
917,3.64e+00,
918,3.60e+00,
919,3.72e+00,
920,3.68e+00,
921,3.76e+00,
922,3.76e+00,
923,3.72e+00,
924,3.72e+00,
925,3.80e+00,
926,3.80e+00,
927,3.72e+00,
928,3.80e+00,
929,7.60e-01,
930,7.20e-01,
931,2.00e-01,
932,3.20e-01,
933,1.60e-01,
934,2.40e-01,
935,1.20e-01,
936,1.20e-01,
937,2.00e-01,
938,1.60e-01,
939,4.00e-02,
940,1.60e-01,
941,4.00e-02,
942,4.00e-02,
943,1.60e-01,
944,1.60e-01,
945,4.00e-02,
946,4.00e-02,
947,1.20e-01,
948,8.00e-02,
949,4.00e-02,
950,4.00e-02,
951,8.00e-02,
952,8.00e-02,
953,0.00e+00,
954,8.00e-02,
955,0.00e+00,
956,8.00e-02,
957,0.00e+00,
958,4.00e-02,
959,3.56e+00,
960,3.52e+00,
961,3.64e+00,
962,3.56e+00,
963,3.72e+00,
964,3.68e+00,
965,3.76e+00,
966,3.68e+00,
967,3.76e+00,
968,3.76e+00,
969,3.72e+00,
970,3.72e+00,
971,3.80e+00,
972,3.72e+00,
973,3.80e+00,
974,3.80e+00,
975,3.76e+00,
976,3.80e+00,
977,3.76e+00,
978,3.80e+00,
979,3.76e+00,
980,3.80e+00,
981,3.76e+00,
982,3.80e+00,
983,3.76e+00,
984,3.80e+00,
985,3.76e+00,
986,3.80e+00,
987,3.76e+00,
988,3.80e+00,
989,1.04e+00,
990,9.60e-01,
991,2.40e-01,
992,3.20e-01,
993,1.60e-01,
994,2.40e-01,
995,1.20e-01,
996,1.20e-01,
997,2.00e-01,
998,1.60e-01,
999,4.00e-02,
1000,1.60e-01,
1001,4.00e-02,
1002,4.00e-02,
1003,1.04e+00,
1004,1.08e+00,
1005,3.60e+00,
1006,3.56e+00,
1007,3.72e+00,
1008,3.60e+00,
1009,3.72e+00,
1010,3.68e+00,
1011,3.76e+00,
1012,3.76e+00,
1013,3.72e+00,
1014,3.72e+00,
1015,3.80e+00,
1016,3.72e+00,
1017,3.80e+00,
1018,3.80e+00,
1019,3.20e-01,
1020,3.60e-01,
1021,2.00e-01,
1022,3.20e-01,
1023,1.60e-01,
1024,2.40e-01,
1025,1.20e-01,
1026,1.20e-01,
1027,2.00e-01,
1028,1.60e-01,
1029,4.00e-02,
1030,1.60e-01,
1031,4.00e-02,
1032,4.00e-02,
1033,1.60e-01,
1034,4.00e-02,
1035,1.60e-01,
1036,1.20e-01,
1037,4.00e-02,
1038,4.00e-02,
1039,1.20e-01,
1040,8.00e-02,
1041,4.00e-02,
1042,8.00e-02,
1043,4.00e-02,
1044,8.00e-02,
1045,0.00e+00,
1046,8.00e-02,
1047,0.00e+00,
1048,4.00e-02,
1049,3.56e+00,
1050,3.52e+00,
1051,3.64e+00,
1052,3.60e+00,
1053,3.72e+00,
1054,3.68e+00,
1055,3.76e+00,
1056,3.76e+00,
1057,3.68e+00,
1058,3.72e+00,
1059,3.80e+00,
1060,3.80e+00,
1061,3.72e+00,
1062,3.80e+00,
1063,2.52e+00,
1064,2.44e+00,
1065,2.80e-01,
1066,3.20e-01,
1067,1.60e-01,
1068,2.40e-01,
1069,1.20e-01,
1070,1.20e-01,
1071,2.00e-01,
1072,1.60e-01,
1073,4.00e-02,
1074,4.00e-02,
1075,1.60e-01,
1076,4.00e-02,
1077,1.60e-01,
1078,4.00e-02,
1079,1.60e-01,
1080,4.00e-02,
1081,1.60e-01,
1082,4.00e-02,
1083,8.00e-02,
1084,8.00e-02,
1085,4.00e-02,
1086,8.00e-02,
1087,0.00e+00,
1088,8.00e-02,
1089,0.00e+00,
1090,8.00e-02,
1091,0.00e+00,
1092,0.00e+00,
1093,1.52e+00,
1094,1.52e+00,
1095,3.60e+00,
1096,3.56e+00,
1097,3.64e+00,
1098,3.72e+00,
1099,3.60e+00,
1100,3.68e+00,
1101,3.76e+00,
1102,3.76e+00,
1103,3.72e+00,
1104,3.72e+00,
1105,3.80e+00,
1106,3.80e+00,
1107,3.72e+00,
1108,3.80e+00,
1109,2.80e-01,
1110,3.60e-01,
1111,2.00e-01,
1112,2.80e-01,
1113,1.60e-01,
1114,2.40e-01,
1115,1.20e-01,
1116,1.20e-01,
1117,2.00e-01,
1118,4.00e-02,
1119,1.60e-01,
1120,1.60e-01,
1121,4.00e-02,
1122,1.60e-01,
1123,4.00e-02,
1124,4.00e-02,
1125,1.20e-01,
1126,4.00e-02,
1127,8.00e-02,
1128,4.00e-02,
1129,8.00e-02,
1130,8.00e-02,
1131,0.00e+00,
1132,8.00e-02,
1133,0.00e+00,
1134,8.00e-02,
1135,0.00e+00,
1136,8.00e-02,
1137,0.00e+00,
1138,8.00e-02,
1139,0.00e+00,
1140,8.00e-02,
1141,0.00e+00,
1142,8.00e-02,
1143,0.00e+00,
1144,8.00e-02,
1145,0.00e+00,
1146,8.00e-02,
1147,0.00e+00,
1148,0.00e+00,
1149,8.00e-02,
1150,8.00e-02,
1151,0.00e+00,
1152,0.00e+00,
1153,8.00e-02,
1154,8.00e-02,
1155,0.00e+00,
1156,0.00e+00,
1157,8.00e-02,
1158,0.00e+00,
1159,8.00e-02,
1160,0.00e+00,
1161,8.00e-02,
1162,0.00e+00,
1163,8.00e-02,
1164,0.00e+00,
1165,8.00e-02,
1166,8.00e-02,
1167,0.00e+00,
1168,8.00e-02,
1169,0.00e+00,
1170,0.00e+00,
1171,8.00e-02,
1172,0.00e+00,
1173,8.00e-02,
1174,0.00e+00,
1175,8.00e-02,
1176,8.00e-02,
1177,0.00e+00,
1178,0.00e+00,
1179,8.00e-02,
1180,8.00e-02,
1181,0.00e+00,
1182,0.00e+00,
1183,8.00e-02,
1184,8.00e-02,
1185,0.00e+00,
1186,8.00e-02,
1187,0.00e+00,
1188,0.00e+00,
1189,8.00e-02,
1190,0.00e+00,
1191,8.00e-02,
1192,8.00e-02,
1193,0.00e+00,
1194,8.00e-02,
1195,0.00e+00,
1196,8.00e-02,
1197,0.00e+00,
1198,0.00e+00,
1199,8.00e-02,
