codes/on/on16.csv

X,CH1,Start,Increment,
Sequence,Volt,8.210000e-01,2.000000e-05
0,8.00e-02,
1,0.00e+00,
2,0.00e+00,
3,8.00e-02,
4,0.00e+00,
5,8.00e-02,
6,0.00e+00,
7,8.00e-02,
8,0.00e+00,
9,8.00e-02,
10,0.00e+00,
11,8.00e-02,
12,0.00e+00,
13,8.00e-02,
14,0.00e+00,
15,8.00e-02,
16,0.00e+00,
17,8.00e-02,
18,0.00e+00,
19,8.00e-02,
20,8.00e-02,
21,0.00e+00,
22,0.00e+00,
23,8.00e-02,
24,8.00e-02,
25,0.00e+00,
26,8.00e-02,
27,0.00e+00,
28,8.00e-02,
29,0.00e+00,
30,8.00e-02,
31,0.00e+00,
32,0.00e+00,
33,8.00e-02,
34,8.00e-02,
35,0.00e+00,
36,0.00e+00,
37,8.00e-02,
38,0.00e+00,
39,8.00e-02,
40,8.00e-02,
41,0.00e+00,
42,0.00e+00,
43,8.00e-02,
44,8.00e-02,
45,0.00e+00,
46,8.00e-02,
47,0.00e+00,
48,8.00e-02,
49,0.00e+00,
50,8.00e-02,
51,0.00e+00,
52,8.00e-02,
53,0.00e+00,
54,8.00e-02,
55,0.00e+00,
56,8.00e-02,
57,0.00e+00,
58,8.00e-02,
59,0.00e+00,
60,0.00e+00,
61,8.00e-02,
62,0.00e+00,
63,8.00e-02,
64,0.00e+00,
65,8.00e-02,
66,0.00e+00,
67,8.00e-02,
68,8.00e-02,
69,0.00e+00,
70,8.00e-02,
71,0.00e+00,
72,0.00e+00,
73,8.00e-02,
74,8.00e-02,
75,0.00e+00,
76,8.00e-02,
77,0.00e+00,
78,0.00e+00,
79,8.00e-02,
80,8.00e-02,
81,0.00e+00,
82,0.00e+00,
83,8.00e-02,
84,8.00e-02,
85,0.00e+00,
86,8.00e-02,
87,0.00e+00,
88,8.00e-02,
89,0.00e+00,
90,0.00e+00,
91,8.00e-02,
92,0.00e+00,
93,8.00e-02,
94,0.00e+00,
95,8.00e-02,
96,0.00e+00,
97,8.00e-02,
98,0.00e+00,
99,8.00e-02,
100,8.00e-02,
101,0.00e+00,
102,8.00e-02,
103,0.00e+00,
104,0.00e+00,
105,2.96e+00,
106,2.96e+00,
107,3.60e+00,
108,3.56e+00,
109,3.72e+00,
110,3.64e+00,
111,3.72e+00,
112,3.68e+00,
113,3.76e+00,
114,3.72e+00,
115,3.76e+00,
116,3.72e+00,
117,3.80e+00,
118,3.80e+00,
119,3.72e+00,
120,3.80e+00,
121,3.32e+00,
122,3.28e+00,
123,2.80e-01,
124,3.20e-01,
125,1.60e-01,
126,2.40e-01,
127,1.60e-01,
128,2.00e-01,
129,1.20e-01,
130,2.00e-01,
131,4.00e-02,
132,1.60e-01,
133,4.00e-02,
134,1.60e-01,
135,4.00e-02,
136,4.00e-02,
137,1.60e-01,
138,4.00e-02,
139,1.60e-01,
140,4.00e-02,
141,1.20e-01,
142,8.00e-02,
143,4.00e-02,
144,1.20e-01,
145,0.00e+00,
146,8.00e-02,
147,0.00e+00,
148,4.00e-02,
149,4.00e-01,
150,3.20e-01,
151,3.60e+00,
152,3.56e+00,
153,3.64e+00,
154,3.60e+00,
155,3.72e+00,
156,3.68e+00,
157,3.76e+00,
158,3.72e+00,
159,3.76e+00,
160,3.72e+00,
161,3.80e+00,
162,3.72e+00,
163,3.80e+00,
164,3.80e+00,
165,3.76e+00,
166,3.80e+00,
167,3.76e+00,
168,3.80e+00,
169,3.76e+00,
170,3.80e+00,
171,3.76e+00,
172,3.80e+00,
173,3.76e+00,
174,3.80e+00,
175,3.76e+00,
176,3.76e+00,
177,3.84e+00,
178,3.84e+00,
179,3.76e+00,
180,3.80e+00,
181,3.76e+00,
182,3.80e+00,
183,2.80e-01,
184,3.60e-01,
185,2.00e-01,
186,2.80e-01,
187,1.60e-01,
188,2.40e-01,
189,1.20e-01,
190,1.20e-01,
191,2.00e-01,
192,1.20e-01,
193,1.60e-01,
194,1.20e-01,
195,3.60e+00,
196,3.56e+00,
197,3.72e+00,
198,3.60e+00,
199,3.76e+00,
200,3.68e+00,
201,3.76e+00,
202,3.72e+00,
203,3.80e+00,
204,3.80e+00,
205,3.72e+00,
206,3.80e+00,
207,3.76e+00,
208,3.80e+00,
209,3.76e+00,
210,3.76e+00,
211,3.88e+00,
212,3.80e+00,
213,3.76e+00,
214,3.76e+00,
215,3.88e+00,
216,3.76e+00,
217,3.88e+00,
218,3.76e+00,
219,3.88e+00,
220,3.76e+00,
221,3.88e+00,
222,3.88e+00,
223,3.76e+00,
224,3.88e+00,
225,3.76e+00,
226,3.84e+00,
227,3.20e-01,
228,3.60e-01,
229,2.00e-01,
230,3.20e-01,
231,1.60e-01,
232,2.40e-01,
233,1.20e-01,
234,1.20e-01,
235,2.00e-01,
236,1.20e-01,
237,2.00e-01,
238,4.00e-02,
239,1.56e+00,
240,1.48e+00,
241,3.64e+00,
242,3.56e+00,
243,3.72e+00,
244,3.68e+00,
245,3.76e+00,
246,3.76e+00,
247,3.68e+00,
248,3.72e+00,
249,3.80e+00,
250,3.80e+00,
251,3.72e+00,
252,3.80e+00,
253,3.76e+00,
254,3.80e+00,
255,2.60e+00,
256,2.56e+00,
257,2.80e-01,
258,3.60e-01,
259,2.00e-01,
260,2.40e-01,
261,1.60e-01,
262,2.00e-01,
263,1.20e-01,
264,1.20e-01,
265,2.00e-01,
266,1.60e-01,
267,4.00e-02,
268,4.00e-02,
269,1.60e-01,
270,1.60e-01,
271,4.00e-02,
272,4.00e-02,
273,1.60e-01,
274,1.60e-01,
275,4.00e-02,
276,1.20e-01,
277,4.00e-02,
278,1.60e-01,
279,4.00e-02,
280,4.00e-02,
281,1.60e-01,
282,4.00e-02,
283,1.60e-01,
284,4.00e-02,
285,3.56e+00,
286,3.52e+00,
287,3.64e+00,
288,3.60e+00,
289,3.72e+00,
290,3.68e+00,
291,3.76e+00,
292,3.76e+00,
293,3.72e+00,
294,3.72e+00,
295,3.80e+00,
296,3.80e+00,
297,3.72e+00,
298,3.80e+00,
299,3.76e+00,
300,3.80e+00,
301,6.00e-01,
302,5.60e-01,
303,2.40e-01,
304,3.20e-01,
305,1.60e-01,
306,2.40e-01,
307,1.20e-01,
308,1.20e-01,
309,2.00e-01,
310,1.60e-01,
311,8.00e-02,
312,4.00e-02,
313,1.60e-01,
314,1.60e-01,
315,4.00e-02,
316,1.60e-01,
317,4.00e-02,
318,4.00e-02,
319,1.60e-01,
320,1.20e-01,
321,4.00e-02,
322,8.00e-02,
323,4.00e-02,
324,8.00e-02,
325,4.00e-02,
326,8.00e-02,
327,4.00e-02,
328,4.00e-02,
329,2.68e+00,
330,2.68e+00,
331,3.60e+00,
332,3.56e+00,
333,3.72e+00,
334,3.60e+00,
335,3.76e+00,
336,3.68e+00,
337,3.76e+00,
338,3.72e+00,
339,3.76e+00,
340,3.72e+00,
341,3.80e+00,
342,3.80e+00,
343,3.72e+00,
344,3.80e+00,
345,3.76e+00,
346,3.80e+00,
347,3.76e+00,
348,3.76e+00,
349,3.80e+00,
350,3.80e+00,
351,3.76e+00,
352,3.80e+00,
353,3.76e+00,
354,3.80e+00,
355,3.76e+00,
356,3.80e+00,
357,3.76e+00,
358,3.76e+00,
359,3.80e+00,
360,3.80e+00,
361,8.40e-01,
362,7.60e-01,
363,2.00e-01,
364,3.20e-01,
365,1.60e-01,
366,2.40e-01,
367,1.20e-01,
368,1.20e-01,
369,2.00e-01,
370,1.60e-01,
371,4.00e-02,
372,4.00e-02,
373,1.60e-01,
374,1.20e-01,
375,3.60e+00,
376,3.56e+00,
377,3.64e+00,
378,3.72e+00,
379,3.60e+00,
380,3.68e+00,
381,3.76e+00,
382,3.72e+00,
383,3.76e+00,
384,3.72e+00,
385,3.80e+00,
386,3.72e+00,
387,3.80e+00,
388,3.80e+00,
389,3.76e+00,
390,3.80e+00,
391,2.80e-01,
392,3.60e-01,
393,2.00e-01,
394,2.40e-01,
395,1.60e-01,
396,2.00e-01,
397,1.20e-01,
398,2.00e-01,
399,4.00e-02,
400,1.60e-01,
401,4.00e-02,
402,4.00e-02,
403,1.60e-01,
404,4.00e-02,
405,1.60e-01,
406,1.60e-01,
407,4.00e-02,
408,4.00e-02,
409,1.60e-01,
410,4.00e-02,
411,8.00e-02,
412,8.00e-02,
413,0.00e+00,
414,8.00e-02,
415,0.00e+00,
416,8.00e-02,
417,0.00e+00,
418,0.00e+00,
419,3.12e+00,
420,3.12e+00,
421,3.60e+00,
422,3.56e+00,
423,3.72e+00,
424,3.72e+00,
425,3.60e+00,
426,3.68e+00,
427,3.76e+00,
428,3.76e+00,
429,3.72e+00,
430,3.72e+00,
431,3.80e+00,
432,3.72e+00,
433,3.80e+00,
434,3.80e+00,
435,6.00e-01,
436,5.60e-01,
437,2.00e-01,
438,3.20e-01,
439,1.60e-01,
440,2.40e-01,
441,1.20e-01,
442,1.20e-01,
443,2.00e-01,
444,1.60e-01,
445,4.00e-02,
446,4.00e-02,
447,1.60e-01,
448,4.00e-02,
449,1.60e-01,
450,4.00e-02,
451,1.20e-01,
452,8.00e-02,
453,0.00e+00,
454,8.00e-02,
455,0.00e+00,
456,8.00e-02,
457,0.00e+00,
458,8.00e-02,
459,0.00e+00,
460,0.00e+00,
461,8.00e-02,
462,0.00e+00,
463,6.40e-01,
464,6.80e-01,
465,3.60e+00,
466,3.56e+00,
467,3.64e+00,
468,3.60e+00,
469,3.72e+00,
470,3.68e+00,
471,3.76e+00,
472,3.76e+00,
473,3.72e+00,
474,3.72e+00,
475,3.80e+00,
476,3.72e+00,
477,3.80e+00,
478,3.80e+00,
479,3.00e+00,
480,2.96e+00,
481,2.80e-01,
482,3.20e-01,
483,1.60e-01,
484,2.40e-01,
485,1.20e-01,
486,1.20e-01,
487,2.00e-01,
488,2.00e-01,
489,4.00e-02,
490,1.60e-01,
491,4.00e-02,
492,1.60e-01,
493,4.00e-02,
494,4.00e-02,
495,1.20e-01,
496,8.00e-02,
497,4.00e-02,
498,8.00e-02,
499,0.00e+00,
500,8.00e-02,
501,0.00e+00,
502,0.00e+00,
503,8.00e-02,
504,8.00e-02,
505,0.00e+00,
506,0.00e+00,
507,8.00e-02,
508,0.00e+00,
509,3.56e+00,
510,3.52e+00,
511,3.64e+00,
512,3.60e+00,
513,3.72e+00,
514,3.64e+00,
515,3.76e+00,
516,3.68e+00,
517,3.76e+00,
518,3.76e+00,
519,3.72e+00,
520,3.72e+00,
521,3.80e+00,
522,3.80e+00,
523,3.72e+00,
524,3.76e+00,
525,3.80e+00,
526,3.80e+00,
527,3.76e+00,
528,3.80e+00,
529,3.76e+00,
530,3.80e+00,
531,3.76e+00,
532,3.76e+00,
533,3.80e+00,
534,3.80e+00,
535,3.76e+00,
536,3.80e+00,
537,3.76e+00,
538,3.80e+00,
539,2.60e+00,
540,2.60e+00,
541,2.80e-01,
542,3.20e-01,
543,1.60e-01,
544,2.40e-01,
545,1.60e-01,
546,2.00e-01,
547,1.20e-01,
548,1.60e-01,
549,4.00e-02,
550,4.00e-02,
551,1.60e-01,
552,4.00e-02,
553,1.48e+00,
554,1.56e+00,
555,3.60e+00,
556,3.56e+00,
557,3.68e+00,
558,3.64e+00,
559,3.72e+00,
560,3.68e+00,
561,3.76e+00,
562,3.72e+00,
563,3.76e+00,
564,3.72e+00,
565,3.80e+00,
566,3.80e+00,
567,3.72e+00,
568,3.80e+00,
569,3.76e+00,
570,3.80e+00,
571,3.76e+00,
572,3.80e+00,
573,3.76e+00,
574,3.80e+00,
575,3.76e+00,
576,3.80e+00,
577,3.76e+00,
578,3.76e+00,
579,3.84e+00,
580,3.80e+00,
581,3.76e+00,
582,3.84e+00,
583,3.76e+00,
584,3.80e+00,
585,3.20e-01,
586,3.60e-01,
587,2.00e-01,
588,3.20e-01,
589,1.60e-01,
590,2.40e-01,
591,1.20e-01,
592,1.20e-01,
593,2.00e-01,
594,1.60e-01,
595,4.00e-02,
596,4.00e-02,
597,1.60e-01,
598,4.00e-02,
599,3.60e+00,
600,3.56e+00,
601,3.64e+00,
602,3.60e+00,
603,3.72e+00,
604,3.68e+00,
605,3.76e+00,
606,3.76e+00,
607,3.72e+00,
608,3.72e+00,
609,3.80e+00,
610,3.80e+00,
611,3.72e+00,
612,3.80e+00,
613,3.76e+00,
614,3.80e+00,
615,3.76e+00,
616,3.80e+00,
617,3.76e+00,
618,3.80e+00,
619,3.76e+00,
620,3.80e+00,
621,3.76e+00,
622,3.80e+00,
623,3.76e+00,
624,3.76e+00,
625,3.80e+00,
626,3.80e+00,
627,3.76e+00,
628,3.80e+00,
629,1.24e+00,
630,1.20e+00,
631,2.80e-01,
632,3.20e-01,
633,1.60e-01,
634,2.40e-01,
635,1.60e-01,
636,2.00e-01,
637,1.20e-01,
638,1.20e-01,
639,2.00e-01,
640,1.60e-01,
641,4.00e-02,
642,4.00e-02,
643,2.32e+00,
644,2.36e+00,
645,3.64e+00,
646,3.56e+00,
647,3.72e+00,
648,3.68e+00,
649,3.76e+00,
650,3.76e+00,
651,3.68e+00,
652,3.72e+00,
653,3.80e+00,
654,3.72e+00,
655,3.80e+00,
656,3.80e+00,
657,3.76e+00,
658,3.80e+00,
659,3.20e-01,
660,4.00e-01,
661,2.00e-01,
662,3.20e-01,
663,1.60e-01,
664,2.40e-01,
665,1.20e-01,
666,1.20e-01,
667,2.00e-01,
668,1.60e-01,
669,4.00e-02,
670,4.00e-02,
671,1.60e-01,
672,1.60e-01,
673,4.00e-02,
674,1.60e-01,
675,4.00e-02,
676,4.00e-02,
677,1.60e-01,
678,1.20e-01,
679,4.00e-02,
680,8.00e-02,
681,4.00e-02,
682,8.00e-02,
683,4.00e-02,
684,4.00e-02,
685,8.00e-02,
686,4.00e-02,
687,3.60e-01,
688,2.80e-01,
689,3.60e+00,
690,3.56e+00,
691,3.64e+00,
692,3.60e+00,
693,3.72e+00,
694,3.68e+00,
695,3.76e+00,
696,3.72e+00,
697,3.76e+00,
698,3.72e+00,
699,3.80e+00,
700,3.80e+00,
701,3.72e+00,
702,3.80e+00,
703,3.76e+00,
704,3.80e+00,
705,3.76e+00,
706,3.76e+00,
707,3.80e+00,
708,3.80e+00,
709,3.76e+00,
710,3.80e+00,
711,3.76e+00,
712,3.76e+00,
713,3.80e+00,
714,3.80e+00,
715,3.76e+00,
716,3.80e+00,
717,3.76e+00,
718,3.80e+00,
719,3.20e-01,
720,3.60e-01,
721,2.00e-01,
722,3.20e-01,
723,1.60e-01,
724,2.40e-01,
725,1.20e-01,
726,1.20e-01,
727,2.00e-01,
728,1.60e-01,
729,4.00e-02,
730,4.00e-02,
731,1.60e-01,
732,4.00e-02,
733,2.88e+00,
734,2.88e+00,
735,3.64e+00,
736,3.60e+00,
737,3.72e+00,
738,3.68e+00,
739,3.76e+00,
740,3.76e+00,
741,3.68e+00,
742,3.72e+00,
743,3.80e+00,
744,3.72e+00,
745,3.80e+00,
746,3.80e+00,
747,3.72e+00,
748,3.80e+00,
749,2.80e-01,
750,3.60e-01,
751,2.00e-01,
752,2.40e-01,
753,1.60e-01,
754,2.00e-01,
755,1.20e-01,
756,2.00e-01,
757,1.20e-01,
758,1.60e-01,
759,4.00e-02,
760,4.00e-02,
761,1.60e-01,
762,1.60e-01,
763,4.00e-02,
764,1.60e-01,
765,4.00e-02,
766,8.00e-02,
767,4.00e-02,
768,4.00e-02,
769,8.00e-02,
770,8.00e-02,
771,0.00e+00,
772,8.00e-02,
773,0.00e+00,
774,8.00e-02,
775,0.00e+00,
776,4.00e-02,
777,4.40e-01,
778,4.40e-01,
779,3.60e+00,
780,3.56e+00,
781,3.64e+00,
782,3.60e+00,
783,3.72e+00,
784,3.68e+00,
785,3.76e+00,
786,3.72e+00,
787,3.76e+00,
788,3.72e+00,
789,3.80e+00,
790,3.80e+00,
791,3.72e+00,
792,3.80e+00,
793,1.16e+00,
794,1.08e+00,
795,2.00e-01,
796,3.20e-01,
797,1.60e-01,
798,2.40e-01,
799,1.20e-01,
800,1.20e-01,
801,2.00e-01,
802,1.60e-01,
803,4.00e-02,
804,4.00e-02,
805,1.60e-01,
806,1.60e-01,
807,4.00e-02,
808,4.00e-02,
809,1.60e-01,
810,8.00e-02,
811,4.00e-02,
812,8.00e-02,
813,4.00e-02,
814,8.00e-02,
815,0.00e+00,
816,8.00e-02,
817,0.00e+00,
818,0.00e+00,
819,8.00e-02,
820,0.00e+00,
821,8.00e-02,
822,0.00e+00,
823,3.56e+00,
824,3.52e+00,
825,3.64e+00,
826,3.56e+00,
827,3.72e+00,
828,3.68e+00,
829,3.76e+00,
830,3.76e+00,
831,3.68e+00,
832,3.76e+00,
833,3.72e+00,
834,3.72e+00,
835,3.80e+00,
836,3.80e+00,
837,3.16e+00,
838,3.12e+00,
839,2.80e-01,
840,3.20e-01,
841,1.60e-01,
842,2.40e-01,
843,1.20e-01,
844,1.20e-01,
845,2.00e-01,
846,1.60e-01,
847,4.00e-02,
848,4.00e-02,
849,1.60e-01,
850,4.00e-02,
851,1.60e-01,
852,1.20e-01,
853,4.00e-02,
854,8.00e-02,
855,4.00e-02,
856,8.00e-02,
857,0.00e+00,
858,8.00e-02,
859,0.00e+00,
860,8.00e-02,
861,0.00e+00,
862,0.00e+00,
863,8.00e-02,
864,8.00e-02,
865,0.00e+00,
866,0.00e+00,
867,2.04e+00,
868,2.08e+00,
869,3.60e+00,
870,3.56e+00,
871,3.64e+00,
872,3.60e+00,
873,3.72e+00,
874,3.68e+00,
875,3.76e+00,
876,3.72e+00,
877,3.76e+00,
878,3.72e+00,
879,3.80e+00,
880,3.80e+00,
881,3.72e+00,
882,3.80e+00,
883,3.72e+00,
884,3.80e+00,
885,3.76e+00,
886,3.80e+00,
887,3.76e+00,
888,3.80e+00,
889,3.76e+00,
890,3.76e+00,
891,3.80e+00,
892,3.80e+00,
893,3.76e+00,
894,3.80e+00,
895,3.76e+00,
896,3.80e+00,
897,3.08e+00,
898,3.04e+00,
899,2.80e-01,
900,3.60e-01,
901,1.60e-01,
902,2.40e-01,
903,1.60e-01,
904,2.00e-01,
905,1.20e-01,
906,2.00e-01,
907,4.00e-02,
908,1.60e-01,
909,4.00e-02,
910,4.00e-02,
911,1.60e-01,
912,4.00e-02,
913,3.60e+00,
914,3.56e+00,
915,3.64e+00,
916,3.60e+00,
917,3.72e+00,
918,3.68e+00,
919,3.76e+00,
920,3.72e+00,
921,3.76e+00,
922,3.72e+00,
923,3.80e+00,
924,3.72e+00,
925,3.80e+00,
926,3.80e+00,
927,1.48e+00,
928,1.40e+00,
929,2.00e-01,
930,3.20e-01,
931,1.60e-01,
932,2.40e-01,
933,1.20e-01,
934,1.20e-01,
935,2.00e-01,
936,1.60e-01,
937,4.00e-02,
938,1.60e-01,
939,4.00e-02,
940,1.60e-01,
941,4.00e-02,
942,4.00e-02,
943,1.60e-01,
944,1.20e-01,
945,4.00e-02,
946,4.00e-02,
947,8.00e-02,
948,8.00e-02,
949,4.00e-02,
950,8.00e-02,
951,0.00e+00,
952,8.00e-02,
953,0.00e+00,
954,8.00e-02,
955,0.00e+00,
956,4.00e-02,
957,3.52e+00,
958,3.52e+00,
959,3.64e+00,
960,3.56e+00,
961,3.72e+00,
962,3.64e+00,
963,3.76e+00,
964,3.76e+00,
965,3.68e+00,
966,3.72e+00,
967,3.76e+00,
968,3.72e+00,
969,3.80e+00,
970,3.80e+00,
971,3.72e+00,
972,3.80e+00,
973,3.76e+00,
974,3.80e+00,
975,3.76e+00,
976,3.80e+00,
977,3.76e+00,
978,3.80e+00,
979,3.76e+00,
980,3.80e+00,
981,3.76e+00,
982,3.80e+00,
983,3.76e+00,
984,3.80e+00,
985,3.76e+00,
986,3.80e+00,
987,1.36e+00,
988,1.32e+00,
989,2.80e-01,
990,3.20e-01,
991,1.60e-01,
992,2.40e-01,
993,1.20e-01,
994,1.20e-01,
995,2.00e-01,
996,1.60e-01,
997,4.00e-02,
998,4.00e-02,
999,1.60e-01,
1000,4.00e-02,
1001,1.36e+00,
1002,1.40e+00,
1003,3.60e+00,
1004,3.56e+00,
1005,3.72e+00,
1006,3.64e+00,
1007,3.72e+00,
1008,3.68e+00,
1009,3.76e+00,
1010,3.72e+00,
1011,3.80e+00,
1012,3.72e+00,
1013,3.80e+00,
1014,3.72e+00,
1015,3.80e+00,
1016,3.80e+00,
1017,2.80e-01,
1018,3.60e-01,
1019,2.00e-01,
1020,2.80e-01,
1021,1.60e-01,
1022,2.40e-01,
1023,1.20e-01,
1024,1.20e-01,
1025,2.00e-01,
1026,1.60e-01,
1027,4.00e-02,
1028,4.00e-02,
1029,1.60e-01,
1030,1.60e-01,
1031,4.00e-02,
1032,1.60e-01,
1033,4.00e-02,
1034,8.00e-02,
1035,4.00e-02,
1036,8.00e-02,
1037,4.00e-02,
1038,8.00e-02,
1039,4.00e-02,
1040,4.00e-02,
1041,1.20e-01,
1042,8.00e-02,
1043,0.00e+00,
1044,8.00e-02,
1045,4.00e-02,
1046,4.00e-02,
1047,3.56e+00,
1048,3.52e+00,
1049,3.64e+00,
1050,3.60e+00,
1051,3.72e+00,
1052,3.68e+00,
1053,3.76e+00,
1054,3.68e+00,
1055,3.76e+00,
1056,3.72e+00,
1057,3.80e+00,
1058,3.72e+00,
1059,3.80e+00,
1060,3.80e+00,
1061,2.04e+00,
1062,2.00e+00,
1063,2.00e-01,
1064,3.20e-01,
1065,1.60e-01,
1066,2.40e-01,
1067,1.20e-01,
1068,1.20e-01,
1069,2.00e-01,
1070,1.60e-01,
1071,4.00e-02,
1072,1.60e-01,
1073,4.00e-02,
1074,4.00e-02,
1075,1.60e-01,
1076,4.00e-02,
1077,1.60e-01,
1078,1.20e-01,
1079,4.00e-02,
1080,8.00e-02,
1081,4.00e-02,
1082,8.00e-02,
1083,0.00e+00,
1084,8.00e-02,
1085,0.00e+00,
1086,8.00e-02,
1087,0.00e+00,
1088,8.00e-02,
1089,0.00e+00,
1090,0.00e+00,
1091,2.72e+00,
1092,2.76e+00,
1093,3.60e+00,
1094,3.56e+00,
1095,3.72e+00,
1096,3.72e+00,
1097,3.60e+00,
1098,3.68e+00,
1099,3.76e+00,
1100,3.76e+00,
1101,3.72e+00,
1102,3.72e+00,
1103,3.80e+00,
1104,3.80e+00,
1105,3.16e+00,
1106,3.12e+00,
1107,2.80e-01,
1108,3.20e-01,
1109,1.60e-01,
1110,2.40e-01,
1111,1.20e-01,
1112,2.00e-01,
1113,1.20e-01,
1114,1.60e-01,
1115,4.00e-02,
1116,1.60e-01,
1117,4.00e-02,
1118,4.00e-02,
1119,1.60e-01,
1120,4.00e-02,
1121,1.60e-01,
1122,4.00e-02,
1123,1.20e-01,
1124,8.00e-02,
1125,0.00e+00,
1126,8.00e-02,
1127,0.00e+00,
1128,8.00e-02,
1129,0.00e+00,
1130,8.00e-02,
1131,0.00e+00,
1132,8.00e-02,
1133,0.00e+00,
1134,8.00e-02,
1135,0.00e+00,
1136,8.00e-02,
1137,0.00e+00,
1138,0.00e+00,
1139,8.00e-02,
1140,8.00e-02,
1141,0.00e+00,
1142,0.00e+00,
1143,8.00e-02,
1144,8.00e-02,
1145,0.00e+00,
1146,8.00e-02,
1147,0.00e+00,
1148,0.00e+00,
1149,8.00e-02,
1150,8.00e-02,
1151,0.00e+00,
1152,0.00e+00,
1153,8.00e-02,
1154,8.00e-02,
1155,0.00e+00,
1156,0.00e+00,
1157,8.00e-02,
1158,0.00e+00,
1159,8.00e-02,
1160,0.00e+00,
1161,8.00e-02,
1162,0.00e+00,
1163,8.00e-02,
1164,0.00e+00,
1165,8.00e-02,
1166,8.00e-02,
1167,0.00e+00,
1168,8.00e-02,
1169,0.00e+00,
1170,0.00e+00,
1171,8.00e-02,
1172,0.00e+00,
1173,8.00e-02,
1174,8.00e-02,
1175,0.00e+00,
1176,8.00e-02,
1177,0.00e+00,
1178,0.00e+00,
1179,8.00e-02,
1180,8.00e-02,
1181,0.00e+00,
1182,0.00e+00,
1183,8.00e-02,
1184,8.00e-02,
1185,0.00e+00,
1186,8.00e-02,
1187,0.00e+00,
1188,0.00e+00,
1189,8.00e-02,
1190,0.00e+00,
1191,8.00e-02,
1192,8.00e-02,
1193,0.00e+00,
1194,8.00e-02,
1195,0.00e+00,
1196,8.00e-02,
1197,0.00e+00,
1198,0.00e+00,
1199,8.00e-02,
