codes/down/down0.csv

X,CH1,Start,Increment,
Sequence,Volt,-2.120000e-03,2.000000e-05
0,8.00e-02,
1,0.00e+00,
2,8.00e-02,
3,0.00e+00,
4,8.00e-02,
5,0.00e+00,
6,0.00e+00,
7,8.00e-02,
8,8.00e-02,
9,0.00e+00,
10,8.00e-02,
11,0.00e+00,
12,8.00e-02,
13,0.00e+00,
14,8.00e-02,
15,0.00e+00,
16,8.00e-02,
17,0.00e+00,
18,8.00e-02,
19,0.00e+00,
20,8.00e-02,
21,0.00e+00,
22,8.00e-02,
23,0.00e+00,
24,8.00e-02,
25,0.00e+00,
26,8.00e-02,
27,0.00e+00,
28,8.00e-02,
29,0.00e+00,
30,8.00e-02,
31,0.00e+00,
32,8.00e-02,
33,0.00e+00,
34,8.00e-02,
35,0.00e+00,
36,8.00e-02,
37,0.00e+00,
38,8.00e-02,
39,0.00e+00,
40,8.00e-02,
41,0.00e+00,
42,8.00e-02,
43,0.00e+00,
44,0.00e+00,
45,8.00e-02,
46,0.00e+00,
47,8.00e-02,
48,8.00e-02,
49,0.00e+00,
50,8.00e-02,
51,0.00e+00,
52,8.00e-02,
53,0.00e+00,
54,8.00e-02,
55,0.00e+00,
56,8.00e-02,
57,0.00e+00,
58,8.00e-02,
59,0.00e+00,
60,8.00e-02,
61,0.00e+00,
62,0.00e+00,
63,8.00e-02,
64,8.00e-02,
65,0.00e+00,
66,8.00e-02,
67,0.00e+00,
68,8.00e-02,
69,0.00e+00,
70,8.00e-02,
71,0.00e+00,
72,8.00e-02,
73,0.00e+00,
74,8.00e-02,
75,0.00e+00,
76,8.00e-02,
77,0.00e+00,
78,8.00e-02,
79,0.00e+00,
80,8.00e-02,
81,0.00e+00,
82,0.00e+00,
83,8.00e-02,
84,8.00e-02,
85,0.00e+00,
86,8.00e-02,
87,0.00e+00,
88,8.00e-02,
89,0.00e+00,
90,8.00e-02,
91,0.00e+00,
92,0.00e+00,
93,8.00e-02,
94,0.00e+00,
95,8.00e-02,
96,8.00e-02,
97,0.00e+00,
98,8.00e-02,
99,0.00e+00,
100,8.00e-02,
101,0.00e+00,
102,8.00e-02,
103,0.00e+00,
104,0.00e+00,
105,1.80e+00,
106,1.84e+00,
107,3.60e+00,
108,3.56e+00,
109,3.72e+00,
110,3.64e+00,
111,3.76e+00,
112,3.68e+00,
113,3.76e+00,
114,3.72e+00,
115,3.80e+00,
116,3.80e+00,
117,3.72e+00,
118,3.80e+00,
119,3.76e+00,
120,3.80e+00,
121,3.76e+00,
122,3.80e+00,
123,3.76e+00,
124,3.80e+00,
125,3.76e+00,
126,3.80e+00,
127,3.76e+00,
128,3.76e+00,
129,3.88e+00,
130,3.76e+00,
131,3.84e+00,
132,3.76e+00,
133,3.88e+00,
134,3.80e+00,
135,5.20e-01,
136,4.80e-01,
137,2.00e-01,
138,3.20e-01,
139,1.60e-01,
140,2.40e-01,
141,1.20e-01,
142,2.00e-01,
143,1.20e-01,
144,1.60e-01,
145,4.00e-02,
146,1.60e-01,
147,4.00e-02,
148,4.00e-02,
149,1.60e-01,
150,1.20e-01,
151,3.60e+00,
152,3.56e+00,
153,3.72e+00,
154,3.64e+00,
155,3.76e+00,
156,3.68e+00,
157,3.76e+00,
158,3.72e+00,
159,3.80e+00,
160,3.80e+00,
161,3.72e+00,
162,3.80e+00,
163,3.76e+00,
164,3.76e+00,
165,3.84e+00,
166,3.88e+00,
167,3.76e+00,
168,3.88e+00,
169,3.76e+00,
170,3.88e+00,
171,3.76e+00,
172,3.88e+00,
173,3.76e+00,
174,3.88e+00,
175,3.76e+00,
176,3.80e+00,
177,3.88e+00,
178,3.88e+00,
179,3.76e+00,
180,3.88e+00,
181,3.80e+00,
182,3.88e+00,
183,3.76e+00,
184,3.76e+00,
185,3.88e+00,
186,3.76e+00,
187,3.88e+00,
188,3.88e+00,
189,3.76e+00,
190,3.88e+00,
191,3.76e+00,
192,3.88e+00,
193,3.08e+00,
194,3.88e+00,
195,3.76e+00,
196,3.88e+00,
197,3.76e+00,
198,3.88e+00,
199,3.76e+00,
200,3.84e+00,
201,3.88e+00,
202,3.88e+00,
203,3.76e+00,
204,3.88e+00,
205,3.84e+00,
206,3.84e+00,
207,3.88e+00,
208,3.84e+00,
209,3.88e+00,
210,3.84e+00,
211,3.88e+00,
212,3.84e+00,
213,3.88e+00,
214,3.88e+00,
215,3.84e+00,
216,3.88e+00,
217,3.84e+00,
218,3.84e+00,
219,3.88e+00,
220,3.84e+00,
221,3.88e+00,
222,3.88e+00,
223,3.84e+00,
224,3.84e+00,
225,3.88e+00,
226,3.84e+00,
227,3.88e+00,
228,3.84e+00,
229,3.88e+00,
230,3.88e+00,
231,3.80e+00,
232,3.88e+00,
233,3.80e+00,
234,3.88e+00,
235,3.80e+00,
236,3.88e+00,
237,8.00e-01,
238,6.40e-01,
239,3.80e+00,
240,3.80e+00,
241,3.76e+00,
242,3.76e+00,
243,3.88e+00,
244,3.88e+00,
245,3.76e+00,
246,3.88e+00,
247,3.76e+00,
248,3.88e+00,
249,3.80e+00,
250,3.88e+00,
251,3.84e+00,
252,3.84e+00,
253,3.88e+00,
254,3.84e+00,
255,3.88e+00,
256,3.84e+00,
257,3.88e+00,
258,3.88e+00,
259,3.80e+00,
260,3.88e+00,
261,3.84e+00,
262,3.88e+00,
263,3.80e+00,
264,3.88e+00,
265,1.04e+00,
266,1.00e+00,
267,2.80e-01,
268,3.20e-01,
269,2.00e-01,
270,2.40e-01,
271,1.60e-01,
272,2.00e-01,
273,1.20e-01,
274,1.20e-01,
275,2.00e-01,
276,1.60e-01,
277,4.00e-02,
278,1.60e-01,
279,4.00e-02,
280,4.00e-02,
281,1.60e-01,
282,4.00e-02,
283,1.60e-01,
284,4.00e-02,
285,3.56e+00,
286,3.52e+00,
287,3.64e+00,
288,3.60e+00,
289,3.72e+00,
290,3.68e+00,
291,3.76e+00,
292,3.72e+00,
293,3.80e+00,
294,3.72e+00,
295,3.80e+00,
296,3.80e+00,
297,3.76e+00,
298,3.76e+00,
299,3.88e+00,
300,3.76e+00,
301,3.88e+00,
302,3.88e+00,
303,3.76e+00,
304,3.88e+00,
305,3.76e+00,
306,3.88e+00,
307,3.76e+00,
308,3.88e+00,
309,3.24e+00,
310,3.20e+00,
311,2.80e-01,
312,3.60e-01,
313,2.00e-01,
314,3.20e-01,
315,1.60e-01,
316,2.40e-01,
317,1.20e-01,
318,2.00e-01,
319,1.20e-01,
320,1.60e-01,
321,4.00e-02,
322,1.60e-01,
323,4.00e-02,
324,4.00e-02,
325,1.60e-01,
326,1.60e-01,
327,4.00e-02,
328,4.00e-02,
329,8.80e-01,
330,9.60e-01,
331,3.64e+00,
332,3.56e+00,
333,3.72e+00,
334,3.68e+00,
335,3.76e+00,
336,3.76e+00,
337,3.68e+00,
338,3.80e+00,
339,3.72e+00,
340,3.80e+00,
341,3.72e+00,
342,3.80e+00,
343,3.76e+00,
344,3.80e+00,
345,3.76e+00,
346,3.76e+00,
347,3.88e+00,
348,3.76e+00,
349,3.88e+00,
350,3.88e+00,
351,3.76e+00,
352,3.88e+00,
353,3.76e+00,
354,3.88e+00,
355,3.76e+00,
356,3.88e+00,
357,3.76e+00,
358,3.76e+00,
359,3.88e+00,
360,3.76e+00,
361,3.88e+00,
362,3.76e+00,
363,3.88e+00,
364,3.88e+00,
365,3.76e+00,
366,3.88e+00,
367,3.64e+00,
368,3.64e+00,
369,2.80e-01,
370,3.60e-01,
371,2.00e-01,
372,2.80e-01,
373,1.60e-01,
374,2.00e-01,
375,3.64e+00,
376,3.64e+00,
377,3.72e+00,
378,3.68e+00,
379,3.76e+00,
380,3.72e+00,
381,3.80e+00,
382,3.72e+00,
383,3.80e+00,
384,3.76e+00,
385,3.80e+00,
386,3.80e+00,
387,3.76e+00,
388,3.80e+00,
389,3.76e+00,
390,3.76e+00,
391,3.84e+00,
392,3.76e+00,
393,3.84e+00,
394,3.80e+00,
395,3.76e+00,
396,3.88e+00,
397,3.60e+00,
398,3.56e+00,
399,2.80e-01,
400,3.60e-01,
401,2.00e-01,
402,2.80e-01,
403,1.60e-01,
404,2.00e-01,
405,1.20e-01,
406,2.00e-01,
407,1.20e-01,
408,1.60e-01,
409,4.00e-02,
410,4.00e-02,
411,1.60e-01,
412,1.60e-01,
413,4.00e-02,
414,4.00e-02,
415,1.60e-01,
416,1.20e-01,
417,4.00e-02,
418,4.00e-02,
419,1.96e+00,
420,2.00e+00,
421,3.60e+00,
422,3.56e+00,
423,3.72e+00,
424,3.68e+00,
425,3.76e+00,
426,3.76e+00,
427,3.68e+00,
428,3.72e+00,
429,3.80e+00,
430,3.80e+00,
431,3.72e+00,
432,3.80e+00,
433,3.76e+00,
434,3.80e+00,
435,3.76e+00,
436,3.80e+00,
437,3.76e+00,
438,3.76e+00,
439,3.84e+00,
440,3.80e+00,
441,3.76e+00,
442,3.80e+00,
443,2.80e-01,
444,3.60e-01,
445,2.00e-01,
446,2.80e-01,
447,1.60e-01,
448,2.40e-01,
449,1.20e-01,
450,1.20e-01,
451,2.00e-01,
452,4.00e-02,
453,1.60e-01,
454,4.00e-02,
455,1.60e-01,
456,1.60e-01,
457,4.00e-02,
458,4.00e-02,
459,1.60e-01,
460,8.00e-02,
461,4.00e-02,
462,8.00e-02,
463,0.00e+00,
464,4.00e-02,
465,3.60e+00,
466,3.56e+00,
467,3.64e+00,
468,3.60e+00,
469,3.72e+00,
470,3.68e+00,
471,3.76e+00,
472,3.76e+00,
473,3.72e+00,
474,3.72e+00,
475,3.80e+00,
476,3.80e+00,
477,3.72e+00,
478,3.80e+00,
479,3.76e+00,
480,3.80e+00,
481,3.76e+00,
482,3.80e+00,
483,3.76e+00,
484,3.76e+00,
485,3.80e+00,
486,3.80e+00,
487,3.20e-01,
488,3.60e-01,
489,2.00e-01,
490,3.20e-01,
491,1.60e-01,
492,2.40e-01,
493,1.20e-01,
494,1.20e-01,
495,2.00e-01,
496,1.60e-01,
497,4.00e-02,
498,1.60e-01,
499,4.00e-02,
500,1.60e-01,
501,4.00e-02,
502,4.00e-02,
503,1.20e-01,
504,8.00e-02,
505,4.00e-02,
506,8.00e-02,
507,0.00e+00,
508,0.00e+00,
509,3.16e+00,
510,3.24e+00,
511,3.64e+00,
512,3.60e+00,
513,3.72e+00,
514,3.68e+00,
515,3.76e+00,
516,3.76e+00,
517,3.72e+00,
518,3.72e+00,
519,3.80e+00,
520,3.80e+00,
521,3.72e+00,
522,3.80e+00,
523,3.76e+00,
524,3.76e+00,
525,3.80e+00,
526,3.80e+00,
527,3.76e+00,
528,3.80e+00,
529,3.76e+00,
530,3.76e+00,
531,3.84e+00,
532,3.76e+00,
533,3.88e+00,
534,3.76e+00,
535,3.88e+00,
536,3.76e+00,
537,3.88e+00,
538,3.84e+00,
539,3.76e+00,
540,3.80e+00,
541,3.76e+00,
542,3.76e+00,
543,3.84e+00,
544,3.88e+00,
545,3.64e+00,
546,3.64e+00,
547,2.80e-01,
548,3.60e-01,
549,2.00e-01,
550,2.40e-01,
551,1.60e-01,
552,1.20e-01,
553,1.80e+00,
554,1.80e+00,
555,3.64e+00,
556,3.60e+00,
557,3.72e+00,
558,3.68e+00,
559,3.76e+00,
560,3.72e+00,
561,3.80e+00,
562,3.80e+00,
563,3.72e+00,
564,3.80e+00,
565,3.76e+00,
566,3.80e+00,
567,3.76e+00,
568,3.80e+00,
569,3.76e+00,
570,3.76e+00,
571,3.88e+00,
572,3.88e+00,
573,3.76e+00,
574,3.88e+00,
575,3.76e+00,
576,3.76e+00,
577,3.88e+00,
578,3.76e+00,
579,3.88e+00,
580,3.88e+00,
581,3.76e+00,
582,3.88e+00,
583,3.76e+00,
584,3.88e+00,
585,3.76e+00,
586,3.76e+00,
587,3.88e+00,
588,3.76e+00,
589,3.88e+00,
590,3.80e+00,
591,2.80e-01,
592,3.60e-01,
593,2.00e-01,
594,2.80e-01,
595,1.60e-01,
596,2.40e-01,
597,1.20e-01,
598,1.20e-01,
599,3.64e+00,
600,3.60e+00,
601,3.72e+00,
602,3.68e+00,
603,3.76e+00,
604,3.72e+00,
605,3.80e+00,
606,3.72e+00,
607,3.80e+00,
608,3.80e+00,
609,3.76e+00,
610,3.80e+00,
611,3.76e+00,
612,3.76e+00,
613,3.88e+00,
614,3.76e+00,
615,3.88e+00,
616,3.88e+00,
617,3.76e+00,
618,3.88e+00,
619,3.76e+00,
620,3.88e+00,
621,3.76e+00,
622,3.88e+00,
623,3.76e+00,
624,3.76e+00,
625,3.88e+00,
626,3.76e+00,
627,3.88e+00,
628,3.88e+00,
629,3.76e+00,
630,3.88e+00,
631,3.76e+00,
632,3.88e+00,
633,3.76e+00,
634,3.88e+00,
635,1.20e+00,
636,1.20e+00,
637,2.80e-01,
638,3.20e-01,
639,1.60e-01,
640,2.40e-01,
641,1.60e-01,
642,1.20e-01,
643,2.76e+00,
644,2.84e+00,
645,3.72e+00,
646,3.60e+00,
647,3.76e+00,
648,3.76e+00,
649,3.68e+00,
650,3.72e+00,
651,3.80e+00,
652,3.80e+00,
653,3.72e+00,
654,3.76e+00,
655,3.80e+00,
656,3.84e+00,
657,3.76e+00,
658,3.84e+00,
659,3.76e+00,
660,3.76e+00,
661,3.88e+00,
662,3.76e+00,
663,3.88e+00,
664,3.88e+00,
665,6.00e-01,
666,5.60e-01,
667,2.00e-01,
668,3.20e-01,
669,1.60e-01,
670,2.40e-01,
671,1.20e-01,
672,1.20e-01,
673,2.00e-01,
674,2.00e-01,
675,4.00e-02,
676,4.00e-02,
677,1.60e-01,
678,1.60e-01,
679,4.00e-02,
680,1.60e-01,
681,4.00e-02,
682,4.00e-02,
683,1.60e-01,
684,4.00e-02,
685,1.60e-01,
686,4.00e-02,
687,1.20e-01,
688,4.00e-02,
689,3.60e+00,
690,3.52e+00,
691,3.64e+00,
692,3.60e+00,
693,3.72e+00,
694,3.68e+00,
695,3.76e+00,
696,3.72e+00,
697,3.76e+00,
698,3.80e+00,
699,3.72e+00,
700,3.80e+00,
701,3.76e+00,
702,3.80e+00,
703,3.76e+00,
704,3.80e+00,
705,3.76e+00,
706,3.76e+00,
707,3.88e+00,
708,3.76e+00,
709,3.88e+00,
710,3.76e+00,
711,3.88e+00,
712,3.76e+00,
713,3.88e+00,
714,3.88e+00,
715,3.76e+00,
716,3.76e+00,
717,3.88e+00,
718,3.76e+00,
719,3.88e+00,
720,3.76e+00,
721,3.88e+00,
722,3.88e+00,
723,3.52e+00,
724,3.48e+00,
725,2.80e-01,
726,3.60e-01,
727,2.00e-01,
728,2.40e-01,
729,1.60e-01,
730,2.00e-01,
731,1.20e-01,
732,1.20e-01,
733,2.84e+00,
734,2.88e+00,
735,3.64e+00,
736,3.72e+00,
737,3.60e+00,
738,3.68e+00,
739,3.76e+00,
740,3.72e+00,
741,3.80e+00,
742,3.72e+00,
743,3.80e+00,
744,3.80e+00,
745,3.76e+00,
746,3.80e+00,
747,3.76e+00,
748,3.80e+00,
749,3.76e+00,
750,3.76e+00,
751,3.80e+00,
752,3.84e+00,
753,3.64e+00,
754,3.60e+00,
755,2.80e-01,
756,3.60e-01,
757,2.00e-01,
758,2.40e-01,
759,1.60e-01,
760,2.00e-01,
761,1.20e-01,
762,2.00e-01,
763,1.20e-01,
764,1.60e-01,
765,4.00e-02,
766,1.60e-01,
767,4.00e-02,
768,4.00e-02,
769,1.60e-01,
770,1.60e-01,
771,4.00e-02,
772,4.00e-02,
773,1.60e-01,
774,8.00e-02,
775,4.00e-02,
776,8.00e-02,
777,0.00e+00,
778,4.00e-02,
779,3.60e+00,
780,3.56e+00,
781,3.64e+00,
782,3.60e+00,
783,3.72e+00,
784,3.68e+00,
785,3.76e+00,
786,3.72e+00,
787,3.80e+00,
788,3.72e+00,
789,3.80e+00,
790,3.80e+00,
791,3.76e+00,
792,3.80e+00,
793,3.76e+00,
794,3.80e+00,
795,3.76e+00,
796,3.80e+00,
797,3.76e+00,
798,3.80e+00,
799,2.80e-01,
800,3.60e-01,
801,2.00e-01,
802,2.40e-01,
803,1.60e-01,
804,2.00e-01,
805,1.20e-01,
806,2.00e-01,
807,1.20e-01,
808,4.00e-02,
809,1.60e-01,
810,4.00e-02,
811,1.60e-01,
812,4.00e-02,
813,1.60e-01,
814,4.00e-02,
815,1.20e-01,
816,8.00e-02,
817,4.00e-02,
818,8.00e-02,
819,0.00e+00,
820,8.00e-02,
821,0.00e+00,
822,0.00e+00,
823,2.64e+00,
824,2.68e+00,
825,3.64e+00,
826,3.56e+00,
827,3.72e+00,
828,3.68e+00,
829,3.76e+00,
830,3.76e+00,
831,3.68e+00,
832,3.72e+00,
833,3.80e+00,
834,3.80e+00,
835,3.72e+00,
836,3.80e+00,
837,3.76e+00,
838,3.80e+00,
839,3.76e+00,
840,3.80e+00,
841,3.76e+00,
842,3.80e+00,
843,3.20e-01,
844,4.00e-01,
845,2.00e-01,
846,3.20e-01,
847,1.60e-01,
848,2.40e-01,
849,1.20e-01,
850,2.00e-01,
851,1.20e-01,
852,1.60e-01,
853,4.00e-02,
854,1.60e-01,
855,4.00e-02,
856,1.60e-01,
857,4.00e-02,
858,4.00e-02,
859,1.60e-01,
860,8.00e-02,
861,4.00e-02,
862,8.00e-02,
863,0.00e+00,
864,8.00e-02,
865,0.00e+00,
866,0.00e+00,
867,2.40e-01,
868,2.40e-01,
869,3.60e+00,
870,3.56e+00,
871,3.64e+00,
872,3.60e+00,
873,3.72e+00,
874,3.68e+00,
875,3.76e+00,
876,3.72e+00,
877,3.76e+00,
878,3.72e+00,
879,3.80e+00,
880,3.80e+00,
881,3.72e+00,
882,3.80e+00,
883,3.76e+00,
884,3.80e+00,
885,3.76e+00,
886,3.80e+00,
887,3.76e+00,
888,3.80e+00,
889,2.80e-01,
890,3.60e-01,
891,2.00e-01,
892,2.40e-01,
893,1.60e-01,
894,2.00e-01,
895,1.20e-01,
896,2.00e-01,
897,8.00e-02,
898,1.60e-01,
899,4.00e-02,
900,4.00e-02,
901,1.60e-01,
902,1.60e-01,
903,4.00e-02,
904,8.00e-02,
905,0.00e+00,
906,8.00e-02,
907,0.00e+00,
908,8.00e-02,
909,0.00e+00,
910,8.00e-02,
911,0.00e+00,
912,0.00e+00,
913,3.48e+00,
914,3.52e+00,
915,3.64e+00,
916,3.60e+00,
917,3.72e+00,
918,3.68e+00,
919,3.76e+00,
920,3.68e+00,
921,3.76e+00,
922,3.72e+00,
923,3.80e+00,
924,3.80e+00,
925,3.72e+00,
926,3.80e+00,
927,3.76e+00,
928,3.80e+00,
929,3.76e+00,
930,3.76e+00,
931,3.80e+00,
932,3.80e+00,
933,4.40e-01,
934,4.40e-01,
935,2.00e-01,
936,3.20e-01,
937,1.60e-01,
938,2.40e-01,
939,1.20e-01,
940,2.00e-01,
941,1.20e-01,
942,1.60e-01,
943,4.00e-02,
944,1.60e-01,
945,4.00e-02,
946,4.00e-02,
947,1.60e-01,
948,1.60e-01,
949,4.00e-02,
950,4.00e-02,
951,8.00e-02,
952,8.00e-02,
953,0.00e+00,
954,8.00e-02,
955,0.00e+00,
956,0.00e+00,
957,9.60e-01,
958,1.04e+00,
959,3.60e+00,
960,3.56e+00,
961,3.68e+00,
962,3.72e+00,
963,3.60e+00,
964,3.76e+00,
965,3.68e+00,
966,3.72e+00,
967,3.80e+00,
968,3.80e+00,
969,3.72e+00,
970,3.80e+00,
971,3.76e+00,
972,3.80e+00,
973,3.76e+00,
974,3.80e+00,
975,3.76e+00,
976,3.80e+00,
977,3.40e+00,
978,3.44e+00,
979,2.80e-01,
980,3.60e-01,
981,2.00e-01,
982,1.60e-01,
983,2.40e-01,
984,2.00e-01,
985,1.20e-01,
986,2.00e-01,
987,8.00e-02,
988,1.60e-01,
989,4.00e-02,
990,1.60e-01,
991,4.00e-02,
992,1.60e-01,
993,4.00e-02,
994,4.00e-02,
995,1.60e-01,
996,8.00e-02,
997,0.00e+00,
998,8.00e-02,
999,0.00e+00,
1000,8.00e-02,
1001,0.00e+00,
1002,4.00e-02,
1003,3.56e+00,
1004,3.52e+00,
1005,3.64e+00,
1006,3.60e+00,
1007,3.72e+00,
1008,3.68e+00,
1009,3.76e+00,
1010,3.72e+00,
1011,3.76e+00,
1012,3.72e+00,
1013,3.80e+00,
1014,3.80e+00,
1015,3.72e+00,
1016,3.80e+00,
1017,3.76e+00,
1018,3.80e+00,
1019,3.76e+00,
1020,3.80e+00,
1021,3.76e+00,
1022,3.80e+00,
1023,3.20e-01,
1024,4.00e-01,
1025,2.00e-01,
1026,3.20e-01,
1027,1.60e-01,
1028,2.40e-01,
1029,1.20e-01,
1030,2.00e-01,
1031,1.20e-01,
1032,1.60e-01,
1033,4.00e-02,
1034,4.00e-02,
1035,1.60e-01,
1036,1.60e-01,
1037,4.00e-02,
1038,1.60e-01,
1039,4.00e-02,
1040,4.00e-02,
1041,1.20e-01,
1042,8.00e-02,
1043,0.00e+00,
1044,8.00e-02,
1045,0.00e+00,
1046,4.00e-02,
1047,2.28e+00,
1048,2.28e+00,
1049,3.64e+00,
1050,3.56e+00,
1051,3.72e+00,
1052,3.68e+00,
1053,3.76e+00,
1054,3.68e+00,
1055,3.76e+00,
1056,3.72e+00,
1057,3.80e+00,
1058,3.80e+00,
1059,3.72e+00,
1060,3.80e+00,
1061,3.76e+00,
1062,3.80e+00,
1063,3.76e+00,
1064,3.80e+00,
1065,3.76e+00,
1066,3.80e+00,
1067,3.76e+00,
1068,3.80e+00,
1069,2.80e-01,
1070,3.60e-01,
1071,2.00e-01,
1072,2.40e-01,
1073,1.60e-01,
1074,2.00e-01,
1075,1.20e-01,
1076,1.20e-01,
1077,2.00e-01,
1078,1.60e-01,
1079,4.00e-02,
1080,4.00e-02,
1081,1.60e-01,
1082,4.00e-02,
1083,1.60e-01,
1084,1.60e-01,
1085,4.00e-02,
1086,1.20e-01,
1087,4.00e-02,
1088,8.00e-02,
1089,0.00e+00,
1090,8.00e-02,
1091,0.00e+00,
1092,4.00e-02,
1093,3.60e+00,
1094,3.56e+00,
1095,3.64e+00,
1096,3.60e+00,
1097,3.72e+00,
1098,3.68e+00,
1099,3.76e+00,
1100,3.72e+00,
1101,3.80e+00,
1102,3.72e+00,
1103,3.80e+00,
1104,3.80e+00,
1105,3.76e+00,
1106,3.80e+00,
1107,3.76e+00,
1108,3.80e+00,
1109,3.76e+00,
1110,3.76e+00,
1111,3.84e+00,
1112,3.76e+00,
1113,2.80e-01,
1114,3.60e-01,
1115,2.00e-01,
1116,2.40e-01,
1117,1.60e-01,
1118,2.00e-01,
1119,1.20e-01,
1120,2.00e-01,
1121,1.20e-01,
1122,1.60e-01,
1123,4.00e-02,
1124,1.60e-01,
1125,4.00e-02,
1126,4.00e-02,
1127,1.60e-01,
1128,1.20e-01,
1129,4.00e-02,
1130,4.00e-02,
1131,1.20e-01,
1132,8.00e-02,
1133,4.00e-02,
1134,8.00e-02,
1135,0.00e+00,
1136,8.00e-02,
1137,0.00e+00,
1138,8.00e-02,
1139,0.00e+00,
1140,8.00e-02,
1141,0.00e+00,
1142,8.00e-02,
1143,0.00e+00,
1144,0.00e+00,
1145,8.00e-02,
1146,8.00e-02,
1147,0.00e+00,
1148,0.00e+00,
1149,8.00e-02,
1150,8.00e-02,
1151,0.00e+00,
1152,8.00e-02,
1153,0.00e+00,
1154,8.00e-02,
1155,0.00e+00,
1156,8.00e-02,
1157,0.00e+00,
1158,0.00e+00,
1159,1.20e-01,
1160,8.00e-02,
1161,0.00e+00,
1162,8.00e-02,
1163,0.00e+00,
1164,8.00e-02,
1165,0.00e+00,
1166,8.00e-02,
1167,0.00e+00,
1168,8.00e-02,
1169,0.00e+00,
1170,0.00e+00,
1171,8.00e-02,
1172,8.00e-02,
1173,0.00e+00,
1174,8.00e-02,
1175,0.00e+00,
1176,8.00e-02,
1177,0.00e+00,
1178,8.00e-02,
1179,0.00e+00,
1180,8.00e-02,
1181,0.00e+00,
1182,8.00e-02,
1183,0.00e+00,
1184,8.00e-02,
1185,0.00e+00,
1186,8.00e-02,
1187,0.00e+00,
1188,8.00e-02,
1189,0.00e+00,
1190,8.00e-02,
1191,0.00e+00,
1192,8.00e-02,
1193,0.00e+00,
1194,8.00e-02,
1195,0.00e+00,
1196,8.00e-02,
1197,0.00e+00,
1198,8.00e-02,
1199,0.00e+00,
