codes/down/down2.csv

X,CH1,Start,Increment,
Sequence,Volt,1.003200e-01,2.000000e-05
0,0.00e+00,
1,8.00e-02,
2,8.00e-02,
3,0.00e+00,
4,8.00e-02,
5,0.00e+00,
6,8.00e-02,
7,0.00e+00,
8,8.00e-02,
9,0.00e+00,
10,8.00e-02,
11,0.00e+00,
12,8.00e-02,
13,0.00e+00,
14,8.00e-02,
15,0.00e+00,
16,8.00e-02,
17,0.00e+00,
18,8.00e-02,
19,0.00e+00,
20,8.00e-02,
21,0.00e+00,
22,0.00e+00,
23,8.00e-02,
24,8.00e-02,
25,0.00e+00,
26,8.00e-02,
27,0.00e+00,
28,8.00e-02,
29,0.00e+00,
30,8.00e-02,
31,0.00e+00,
32,0.00e+00,
33,8.00e-02,
34,8.00e-02,
35,0.00e+00,
36,8.00e-02,
37,0.00e+00,
38,0.00e+00,
39,8.00e-02,
40,8.00e-02,
41,0.00e+00,
42,8.00e-02,
43,0.00e+00,
44,8.00e-02,
45,0.00e+00,
46,8.00e-02,
47,0.00e+00,
48,8.00e-02,
49,0.00e+00,
50,8.00e-02,
51,0.00e+00,
52,8.00e-02,
53,0.00e+00,
54,8.00e-02,
55,0.00e+00,
56,8.00e-02,
57,0.00e+00,
58,8.00e-02,
59,0.00e+00,
60,8.00e-02,
61,0.00e+00,
62,8.00e-02,
63,0.00e+00,
64,8.00e-02,
65,0.00e+00,
66,8.00e-02,
67,0.00e+00,
68,8.00e-02,
69,0.00e+00,
70,8.00e-02,
71,0.00e+00,
72,8.00e-02,
73,0.00e+00,
74,8.00e-02,
75,0.00e+00,
76,8.00e-02,
77,0.00e+00,
78,8.00e-02,
79,0.00e+00,
80,8.00e-02,
81,0.00e+00,
82,0.00e+00,
83,8.00e-02,
84,8.00e-02,
85,0.00e+00,
86,8.00e-02,
87,0.00e+00,
88,8.00e-02,
89,0.00e+00,
90,8.00e-02,
91,0.00e+00,
92,0.00e+00,
93,8.00e-02,
94,0.00e+00,
95,8.00e-02,
96,8.00e-02,
97,0.00e+00,
98,8.00e-02,
99,3.60e+00,
100,3.56e+00,
101,3.64e+00,
102,3.60e+00,
103,3.72e+00,
104,3.68e+00,
105,3.76e+00,
106,3.76e+00,
107,3.72e+00,
108,3.72e+00,
109,3.80e+00,
110,3.80e+00,
111,3.72e+00,
112,3.80e+00,
113,3.76e+00,
114,3.80e+00,
115,3.76e+00,
116,3.80e+00,
117,2.68e+00,
118,2.60e+00,
119,2.80e-01,
120,3.20e-01,
121,1.60e-01,
122,2.40e-01,
123,1.20e-01,
124,1.20e-01,
125,2.00e-01,
126,2.00e-01,
127,4.00e-02,
128,1.60e-01,
129,4.00e-02,
130,1.60e-01,
131,4.00e-02,
132,1.60e-01,
133,4.00e-02,
134,1.60e-01,
135,4.00e-02,
136,4.00e-02,
137,1.20e-01,
138,8.00e-02,
139,4.00e-02,
140,4.00e-02,
141,1.60e-01,
142,4.00e-02,
143,2.92e+00,
144,2.92e+00,
145,3.64e+00,
146,3.60e+00,
147,3.72e+00,
148,3.68e+00,
149,3.76e+00,
150,3.76e+00,
151,3.72e+00,
152,3.72e+00,
153,3.80e+00,
154,3.80e+00,
155,3.76e+00,
156,3.80e+00,
157,3.76e+00,
158,3.76e+00,
159,3.88e+00,
160,3.76e+00,
161,3.88e+00,
162,3.88e+00,
163,3.76e+00,
164,3.76e+00,
165,3.88e+00,
166,3.88e+00,
167,3.76e+00,
168,3.88e+00,
169,3.76e+00,
170,3.88e+00,
171,3.76e+00,
172,3.88e+00,
173,3.76e+00,
174,3.76e+00,
175,3.88e+00,
176,3.88e+00,
177,1.52e+00,
178,1.52e+00,
179,2.80e-01,
180,3.20e-01,
181,1.60e-01,
182,2.40e-01,
183,1.60e-01,
184,2.00e-01,
185,1.20e-01,
186,1.20e-01,
187,8.40e-01,
188,8.40e-01,
189,3.64e+00,
190,3.60e+00,
191,3.72e+00,
192,3.68e+00,
193,3.76e+00,
194,3.72e+00,
195,3.80e+00,
196,3.80e+00,
197,3.72e+00,
198,3.80e+00,
199,3.76e+00,
200,3.76e+00,
201,3.84e+00,
202,3.76e+00,
203,3.88e+00,
204,3.88e+00,
205,3.76e+00,
206,3.88e+00,
207,3.76e+00,
208,3.88e+00,
209,3.76e+00,
210,3.80e+00,
211,3.88e+00,
212,3.88e+00,
213,3.76e+00,
214,3.88e+00,
215,3.76e+00,
216,3.88e+00,
217,3.76e+00,
218,3.76e+00,
219,3.88e+00,
220,3.88e+00,
221,3.56e+00,
222,3.48e+00,
223,2.80e-01,
224,3.60e-01,
225,2.00e-01,
226,3.20e-01,
227,1.60e-01,
228,2.40e-01,
229,1.20e-01,
230,2.00e-01,
231,1.20e-01,
232,1.20e-01,
233,3.60e+00,
234,3.56e+00,
235,3.72e+00,
236,3.60e+00,
237,3.76e+00,
238,3.68e+00,
239,3.76e+00,
240,3.72e+00,
241,3.80e+00,
242,3.80e+00,
243,3.76e+00,
244,3.80e+00,
245,3.76e+00,
246,3.76e+00,
247,3.88e+00,
248,3.76e+00,
249,3.88e+00,
250,3.88e+00,
251,3.60e+00,
252,3.60e+00,
253,2.80e-01,
254,3.60e-01,
255,2.00e-01,
256,2.80e-01,
257,1.60e-01,
258,2.40e-01,
259,1.20e-01,
260,2.00e-01,
261,1.20e-01,
262,1.60e-01,
263,8.00e-02,
264,4.00e-02,
265,1.60e-01,
266,4.00e-02,
267,1.60e-01,
268,4.00e-02,
269,1.60e-01,
270,1.60e-01,
271,4.00e-02,
272,4.00e-02,
273,1.60e-01,
274,4.00e-02,
275,1.60e-01,
276,4.00e-02,
277,3.20e-01,
278,3.60e-01,
279,3.60e+00,
280,3.56e+00,
281,3.72e+00,
282,3.64e+00,
283,3.76e+00,
284,3.76e+00,
285,3.68e+00,
286,3.72e+00,
287,3.80e+00,
288,3.80e+00,
289,3.76e+00,
290,3.80e+00,
291,3.76e+00,
292,3.80e+00,
293,3.76e+00,
294,3.76e+00,
295,3.84e+00,
296,3.80e+00,
297,7.20e-01,
298,6.80e-01,
299,2.00e-01,
300,3.20e-01,
301,1.60e-01,
302,2.40e-01,
303,1.20e-01,
304,2.00e-01,
305,1.20e-01,
306,2.00e-01,
307,4.00e-02,
308,1.60e-01,
309,4.00e-02,
310,4.00e-02,
311,1.60e-01,
312,4.00e-02,
313,1.60e-01,
314,1.60e-01,
315,4.00e-02,
316,4.00e-02,
317,1.20e-01,
318,8.00e-02,
319,4.00e-02,
320,8.00e-02,
321,0.00e+00,
322,4.00e-02,
323,3.48e+00,
324,3.44e+00,
325,3.64e+00,
326,3.60e+00,
327,3.72e+00,
328,3.68e+00,
329,3.76e+00,
330,3.76e+00,
331,3.72e+00,
332,3.72e+00,
333,3.80e+00,
334,3.80e+00,
335,3.76e+00,
336,3.80e+00,
337,3.76e+00,
338,3.80e+00,
339,3.76e+00,
340,3.76e+00,
341,3.88e+00,
342,3.88e+00,
343,3.76e+00,
344,3.76e+00,
345,3.88e+00,
346,3.88e+00,
347,3.76e+00,
348,3.76e+00,
349,3.88e+00,
350,3.88e+00,
351,3.76e+00,
352,3.88e+00,
353,3.76e+00,
354,3.76e+00,
355,3.88e+00,
356,3.80e+00,
357,3.20e-01,
358,3.60e-01,
359,2.00e-01,
360,3.20e-01,
361,1.60e-01,
362,2.40e-01,
363,1.20e-01,
364,2.00e-01,
365,1.20e-01,
366,4.00e-02,
367,1.04e+00,
368,1.08e+00,
369,3.64e+00,
370,3.60e+00,
371,3.72e+00,
372,3.68e+00,
373,3.76e+00,
374,3.76e+00,
375,3.72e+00,
376,3.72e+00,
377,3.80e+00,
378,3.80e+00,
379,3.72e+00,
380,3.76e+00,
381,3.80e+00,
382,3.80e+00,
383,3.76e+00,
384,3.80e+00,
385,3.64e+00,
386,3.64e+00,
387,2.80e-01,
388,3.60e-01,
389,2.00e-01,
390,2.40e-01,
391,1.60e-01,
392,2.00e-01,
393,1.20e-01,
394,2.00e-01,
395,8.00e-02,
396,1.60e-01,
397,4.00e-02,
398,4.00e-02,
399,1.60e-01,
400,1.60e-01,
401,4.00e-02,
402,4.00e-02,
403,1.20e-01,
404,4.00e-02,
405,1.20e-01,
406,1.60e-01,
407,0.00e+00,
408,8.00e-02,
409,0.00e+00,
410,0.00e+00,
411,8.00e-02,
412,4.00e-02,
413,3.56e+00,
414,3.52e+00,
415,3.64e+00,
416,3.60e+00,
417,3.72e+00,
418,3.68e+00,
419,3.76e+00,
420,3.72e+00,
421,3.80e+00,
422,3.72e+00,
423,3.80e+00,
424,3.80e+00,
425,3.72e+00,
426,3.80e+00,
427,3.76e+00,
428,3.80e+00,
429,3.76e+00,
430,3.80e+00,
431,2.80e-01,
432,3.60e-01,
433,2.00e-01,
434,3.20e-01,
435,1.60e-01,
436,2.40e-01,
437,1.20e-01,
438,1.20e-01,
439,2.00e-01,
440,4.00e-02,
441,1.60e-01,
442,4.00e-02,
443,1.60e-01,
444,4.00e-02,
445,1.60e-01,
446,4.00e-02,
447,1.20e-01,
448,8.00e-02,
449,4.00e-02,
450,8.00e-02,
451,0.00e+00,
452,0.00e+00,
453,8.00e-02,
454,8.00e-02,
455,0.00e+00,
456,0.00e+00,
457,1.68e+00,
458,1.72e+00,
459,3.60e+00,
460,3.56e+00,
461,3.72e+00,
462,3.60e+00,
463,3.76e+00,
464,3.68e+00,
465,3.76e+00,
466,3.72e+00,
467,3.80e+00,
468,3.72e+00,
469,3.80e+00,
470,3.80e+00,
471,3.72e+00,
472,3.80e+00,
473,3.76e+00,
474,3.80e+00,
475,1.48e+00,
476,1.40e+00,
477,2.40e-01,
478,3.20e-01,
479,1.60e-01,
480,2.40e-01,
481,1.20e-01,
482,2.00e-01,
483,1.20e-01,
484,1.60e-01,
485,4.00e-02,
486,4.00e-02,
487,1.60e-01,
488,1.60e-01,
489,4.00e-02,
490,4.00e-02,
491,1.60e-01,
492,8.00e-02,
493,0.00e+00,
494,8.00e-02,
495,0.00e+00,
496,0.00e+00,
497,1.20e-01,
498,8.00e-02,
499,0.00e+00,
500,8.00e-02,
501,0.00e+00,
502,0.00e+00,
503,3.60e+00,
504,3.52e+00,
505,3.64e+00,
506,3.60e+00,
507,3.72e+00,
508,3.68e+00,
509,3.76e+00,
510,3.76e+00,
511,3.72e+00,
512,3.72e+00,
513,3.80e+00,
514,3.80e+00,
515,3.72e+00,
516,3.80e+00,
517,3.76e+00,
518,3.80e+00,
519,3.76e+00,
520,3.80e+00,
521,3.76e+00,
522,3.76e+00,
523,3.84e+00,
524,3.76e+00,
525,3.88e+00,
526,3.76e+00,
527,3.88e+00,
528,3.88e+00,
529,3.76e+00,
530,3.76e+00,
531,3.88e+00,
532,3.76e+00,
533,3.84e+00,
534,3.88e+00,
535,3.68e+00,
536,3.68e+00,
537,2.80e-01,
538,3.60e-01,
539,2.00e-01,
540,2.40e-01,
541,1.60e-01,
542,2.00e-01,
543,1.20e-01,
544,2.00e-01,
545,1.20e-01,
546,1.20e-01,
547,3.60e+00,
548,3.56e+00,
549,3.64e+00,
550,3.64e+00,
551,3.76e+00,
552,3.68e+00,
553,3.76e+00,
554,3.72e+00,
555,3.80e+00,
556,3.80e+00,
557,3.72e+00,
558,3.80e+00,
559,3.76e+00,
560,3.80e+00,
561,3.76e+00,
562,3.80e+00,
563,3.76e+00,
564,3.76e+00,
565,3.88e+00,
566,3.88e+00,
567,3.76e+00,
568,3.88e+00,
569,3.76e+00,
570,3.88e+00,
571,3.76e+00,
572,3.88e+00,
573,3.76e+00,
574,3.88e+00,
575,3.76e+00,
576,3.88e+00,
577,3.76e+00,
578,3.88e+00,
579,3.76e+00,
580,3.88e+00,
581,3.20e-01,
582,3.60e-01,
583,2.00e-01,
584,3.20e-01,
585,1.60e-01,
586,2.40e-01,
587,1.20e-01,
588,2.00e-01,
589,1.20e-01,
590,8.00e-02,
591,5.60e-01,
592,6.00e-01,
593,3.64e+00,
594,3.56e+00,
595,3.72e+00,
596,3.68e+00,
597,3.76e+00,
598,3.76e+00,
599,3.72e+00,
600,3.72e+00,
601,3.80e+00,
602,3.80e+00,
603,3.76e+00,
604,3.80e+00,
605,3.76e+00,
606,3.76e+00,
607,3.88e+00,
608,3.88e+00,
609,3.76e+00,
610,3.76e+00,
611,3.88e+00,
612,3.76e+00,
613,3.88e+00,
614,3.88e+00,
615,3.76e+00,
616,3.88e+00,
617,3.76e+00,
618,3.88e+00,
619,3.76e+00,
620,3.88e+00,
621,3.76e+00,
622,3.88e+00,
623,3.76e+00,
624,3.88e+00,
625,3.20e-01,
626,4.00e-01,
627,2.00e-01,
628,3.20e-01,
629,1.60e-01,
630,2.40e-01,
631,1.20e-01,
632,1.20e-01,
633,2.00e-01,
634,2.00e-01,
635,4.00e-02,
636,4.00e-02,
637,3.56e+00,
638,3.52e+00,
639,3.64e+00,
640,3.72e+00,
641,3.60e+00,
642,3.68e+00,
643,3.76e+00,
644,3.72e+00,
645,3.80e+00,
646,3.80e+00,
647,3.72e+00,
648,3.80e+00,
649,3.76e+00,
650,3.80e+00,
651,3.76e+00,
652,3.80e+00,
653,3.76e+00,
654,3.80e+00,
655,2.80e-01,
656,3.60e-01,
657,2.00e-01,
658,3.20e-01,
659,1.60e-01,
660,2.40e-01,
661,1.20e-01,
662,2.00e-01,
663,1.20e-01,
664,1.60e-01,
665,4.00e-02,
666,1.60e-01,
667,4.00e-02,
668,4.00e-02,
669,1.60e-01,
670,4.00e-02,
671,1.60e-01,
672,1.60e-01,
673,4.00e-02,
674,1.60e-01,
675,0.00e+00,
676,4.00e-02,
677,1.20e-01,
678,0.00e+00,
679,1.20e-01,
680,4.00e-02,
681,1.00e+00,
682,1.04e+00,
683,3.60e+00,
684,3.56e+00,
685,3.72e+00,
686,3.64e+00,
687,3.76e+00,
688,3.68e+00,
689,3.76e+00,
690,3.72e+00,
691,3.80e+00,
692,3.80e+00,
693,3.72e+00,
694,3.80e+00,
695,3.76e+00,
696,3.80e+00,
697,3.76e+00,
698,3.76e+00,
699,3.84e+00,
700,3.88e+00,
701,3.76e+00,
702,3.76e+00,
703,3.88e+00,
704,3.76e+00,
705,3.88e+00,
706,3.76e+00,
707,3.88e+00,
708,3.88e+00,
709,3.76e+00,
710,3.88e+00,
711,3.76e+00,
712,3.88e+00,
713,3.72e+00,
714,3.72e+00,
715,2.80e-01,
716,3.60e-01,
717,2.00e-01,
718,2.40e-01,
719,1.60e-01,
720,2.00e-01,
721,1.20e-01,
722,2.00e-01,
723,1.20e-01,
724,1.60e-01,
725,4.00e-02,
726,4.00e-02,
727,3.60e+00,
728,3.56e+00,
729,3.64e+00,
730,3.60e+00,
731,3.72e+00,
732,3.68e+00,
733,3.76e+00,
734,3.72e+00,
735,3.80e+00,
736,3.80e+00,
737,3.72e+00,
738,3.80e+00,
739,3.76e+00,
740,3.80e+00,
741,3.76e+00,
742,3.80e+00,
743,3.76e+00,
744,3.80e+00,
745,2.80e-01,
746,3.60e-01,
747,2.00e-01,
748,3.20e-01,
749,1.60e-01,
750,2.40e-01,
751,1.20e-01,
752,1.20e-01,
753,2.00e-01,
754,1.60e-01,
755,4.00e-02,
756,4.00e-02,
757,1.60e-01,
758,1.60e-01,
759,4.00e-02,
760,4.00e-02,
761,1.60e-01,
762,4.00e-02,
763,1.20e-01,
764,8.00e-02,
765,0.00e+00,
766,0.00e+00,
767,8.00e-02,
768,8.00e-02,
769,0.00e+00,
770,0.00e+00,
771,1.44e+00,
772,1.48e+00,
773,3.60e+00,
774,3.56e+00,
775,3.72e+00,
776,3.60e+00,
777,3.76e+00,
778,3.68e+00,
779,3.76e+00,
780,3.72e+00,
781,3.80e+00,
782,3.80e+00,
783,3.72e+00,
784,3.80e+00,
785,3.76e+00,
786,3.80e+00,
787,3.76e+00,
788,3.80e+00,
789,2.80e-01,
790,3.60e-01,
791,2.00e-01,
792,2.40e-01,
793,1.60e-01,
794,2.00e-01,
795,1.20e-01,
796,2.00e-01,
797,8.00e-02,
798,4.00e-02,
799,1.60e-01,
800,4.00e-02,
801,1.60e-01,
802,1.60e-01,
803,4.00e-02,
804,4.00e-02,
805,1.20e-01,
806,8.00e-02,
807,0.00e+00,
808,8.00e-02,
809,0.00e+00,
810,8.00e-02,
811,0.00e+00,
812,8.00e-02,
813,0.00e+00,
814,0.00e+00,
815,8.00e-02,
816,0.00e+00,
817,3.60e+00,
818,3.52e+00,
819,3.64e+00,
820,3.60e+00,
821,3.72e+00,
822,3.68e+00,
823,3.76e+00,
824,3.72e+00,
825,3.76e+00,
826,3.72e+00,
827,3.80e+00,
828,3.80e+00,
829,3.72e+00,
830,3.76e+00,
831,3.80e+00,
832,3.80e+00,
833,8.00e-01,
834,8.40e-01,
835,2.00e-01,
836,3.20e-01,
837,1.60e-01,
838,2.40e-01,
839,1.20e-01,
840,2.00e-01,
841,1.20e-01,
842,1.60e-01,
843,4.00e-02,
844,4.00e-02,
845,1.60e-01,
846,1.60e-01,
847,4.00e-02,
848,4.00e-02,
849,1.60e-01,
850,8.00e-02,
851,0.00e+00,
852,0.00e+00,
853,1.20e-01,
854,8.00e-02,
855,0.00e+00,
856,8.00e-02,
857,0.00e+00,
858,8.00e-02,
859,0.00e+00,
860,0.00e+00,
861,2.76e+00,
862,2.84e+00,
863,3.64e+00,
864,3.56e+00,
865,3.72e+00,
866,3.68e+00,
867,3.76e+00,
868,3.76e+00,
869,3.68e+00,
870,3.72e+00,
871,3.80e+00,
872,3.80e+00,
873,3.72e+00,
874,3.80e+00,
875,3.76e+00,
876,3.80e+00,
877,3.48e+00,
878,3.44e+00,
879,2.80e-01,
880,3.20e-01,
881,1.60e-01,
882,2.40e-01,
883,1.20e-01,
884,2.00e-01,
885,1.20e-01,
886,2.00e-01,
887,4.00e-02,
888,1.60e-01,
889,4.00e-02,
890,4.00e-02,
891,1.60e-01,
892,4.00e-02,
893,1.60e-01,
894,4.00e-02,
895,1.20e-01,
896,0.00e+00,
897,1.20e-01,
898,8.00e-02,
899,0.00e+00,
900,8.00e-02,
901,0.00e+00,
902,8.00e-02,
903,0.00e+00,
904,0.00e+00,
905,2.00e-01,
906,1.60e-01,
907,3.60e+00,
908,3.56e+00,
909,3.64e+00,
910,3.72e+00,
911,3.60e+00,
912,3.68e+00,
913,3.76e+00,
914,3.76e+00,
915,3.72e+00,
916,3.72e+00,
917,3.80e+00,
918,3.80e+00,
919,3.72e+00,
920,3.76e+00,
921,3.80e+00,
922,3.80e+00,
923,3.20e-01,
924,3.60e-01,
925,2.00e-01,
926,3.20e-01,
927,1.60e-01,
928,2.40e-01,
929,1.20e-01,
930,1.20e-01,
931,2.00e-01,
932,1.60e-01,
933,4.00e-02,
934,4.00e-02,
935,1.60e-01,
936,4.00e-02,
937,1.60e-01,
938,1.20e-01,
939,4.00e-02,
940,8.00e-02,
941,0.00e+00,
942,8.00e-02,
943,0.00e+00,
944,8.00e-02,
945,0.00e+00,
946,8.00e-02,
947,0.00e+00,
948,8.00e-02,
949,0.00e+00,
950,0.00e+00,
951,3.48e+00,
952,3.52e+00,
953,3.64e+00,
954,3.60e+00,
955,3.72e+00,
956,3.68e+00,
957,3.76e+00,
958,3.68e+00,
959,3.76e+00,
960,3.72e+00,
961,3.80e+00,
962,3.80e+00,
963,3.72e+00,
964,3.80e+00,
965,3.76e+00,
966,3.80e+00,
967,1.88e+00,
968,1.88e+00,
969,2.00e-01,
970,3.20e-01,
971,1.60e-01,
972,2.40e-01,
973,1.20e-01,
974,1.20e-01,
975,2.00e-01,
976,1.60e-01,
977,4.00e-02,
978,4.00e-02,
979,1.60e-01,
980,1.60e-01,
981,4.00e-02,
982,1.20e-01,
983,4.00e-02,
984,8.00e-02,
985,4.00e-02,
986,0.00e+00,
987,1.20e-01,
988,8.00e-02,
989,0.00e+00,
990,0.00e+00,
991,1.60e-01,
992,8.00e-02,
993,0.00e+00,
994,0.00e+00,
995,6.80e-01,
996,7.20e-01,
997,3.60e+00,
998,3.56e+00,
999,3.64e+00,
1000,3.64e+00,
1001,3.72e+00,
1002,3.68e+00,
1003,3.76e+00,
1004,3.72e+00,
1005,3.80e+00,
1006,3.80e+00,
1007,3.72e+00,
1008,3.80e+00,
1009,3.76e+00,
1010,3.80e+00,
1011,3.76e+00,
1012,3.80e+00,
1013,2.80e-01,
1014,3.60e-01,
1015,2.00e-01,
1016,2.40e-01,
1017,1.60e-01,
1018,2.00e-01,
1019,1.20e-01,
1020,1.20e-01,
1021,2.00e-01,
1022,1.60e-01,
1023,4.00e-02,
1024,1.60e-01,
1025,4.00e-02,
1026,4.00e-02,
1027,1.60e-01,
1028,4.00e-02,
1029,1.60e-01,
1030,8.00e-02,
1031,4.00e-02,
1032,1.20e-01,
1033,0.00e+00,
1034,8.00e-02,
1035,0.00e+00,
1036,8.00e-02,
1037,0.00e+00,
1038,8.00e-02,
1039,0.00e+00,
1040,0.00e+00,
1041,3.56e+00,
1042,3.52e+00,
1043,3.64e+00,
1044,3.60e+00,
1045,3.72e+00,
1046,3.68e+00,
1047,3.76e+00,
1048,3.72e+00,
1049,3.76e+00,
1050,3.72e+00,
1051,3.80e+00,
1052,3.80e+00,
1053,3.72e+00,
1054,3.80e+00,
1055,3.76e+00,
1056,3.80e+00,
1057,2.08e+00,
1058,2.08e+00,
1059,2.40e-01,
1060,3.20e-01,
1061,1.60e-01,
1062,2.40e-01,
1063,1.20e-01,
1064,1.20e-01,
1065,2.00e-01,
1066,1.60e-01,
1067,4.00e-02,
1068,1.60e-01,
1069,4.00e-02,
1070,4.00e-02,
1071,1.60e-01,
1072,1.60e-01,
1073,4.00e-02,
1074,8.00e-02,
1075,4.00e-02,
1076,8.00e-02,
1077,4.00e-02,
1078,8.00e-02,
1079,0.00e+00,
1080,0.00e+00,
1081,1.20e-01,
1082,8.00e-02,
1083,0.00e+00,
1084,0.00e+00,
1085,1.36e+00,
1086,1.40e+00,
1087,3.60e+00,
1088,3.56e+00,
1089,3.72e+00,
1090,3.64e+00,
1091,3.76e+00,
1092,3.68e+00,
1093,3.76e+00,
1094,3.72e+00,
1095,3.80e+00,
1096,3.80e+00,
1097,3.72e+00,
1098,3.80e+00,
1099,3.76e+00,
1100,3.80e+00,
1101,3.76e+00,
1102,3.80e+00,
1103,2.80e-01,
1104,3.60e-01,
1105,2.00e-01,
1106,2.80e-01,
1107,1.60e-01,
1108,2.40e-01,
1109,1.20e-01,
1110,1.20e-01,
1111,2.00e-01,
1112,1.60e-01,
1113,4.00e-02,
1114,1.60e-01,
1115,4.00e-02,
1116,4.00e-02,
1117,1.60e-01,
1118,4.00e-02,
1119,1.60e-01,
1120,4.00e-02,
1121,1.20e-01,
1122,8.00e-02,
1123,0.00e+00,
1124,0.00e+00,
1125,8.00e-02,
1126,8.00e-02,
1127,0.00e+00,
1128,8.00e-02,
1129,0.00e+00,
1130,8.00e-02,
1131,0.00e+00,
1132,8.00e-02,
1133,0.00e+00,
1134,8.00e-02,
1135,0.00e+00,
1136,8.00e-02,
1137,0.00e+00,
1138,8.00e-02,
1139,0.00e+00,
1140,8.00e-02,
1141,0.00e+00,
1142,0.00e+00,
1143,8.00e-02,
1144,8.00e-02,
1145,0.00e+00,
1146,8.00e-02,
1147,0.00e+00,
1148,0.00e+00,
1149,8.00e-02,
1150,8.00e-02,
1151,0.00e+00,
1152,8.00e-02,
1153,0.00e+00,
1154,8.00e-02,
1155,0.00e+00,
1156,8.00e-02,
1157,0.00e+00,
1158,8.00e-02,
1159,0.00e+00,
1160,8.00e-02,
1161,0.00e+00,
1162,8.00e-02,
1163,0.00e+00,
1164,8.00e-02,
1165,0.00e+00,
1166,8.00e-02,
1167,0.00e+00,
1168,8.00e-02,
1169,0.00e+00,
1170,0.00e+00,
1171,8.00e-02,
1172,8.00e-02,
1173,0.00e+00,
1174,8.00e-02,
1175,0.00e+00,
1176,8.00e-02,
1177,0.00e+00,
1178,8.00e-02,
1179,0.00e+00,
1180,8.00e-02,
1181,0.00e+00,
1182,8.00e-02,
1183,0.00e+00,
1184,8.00e-02,
1185,0.00e+00,
1186,8.00e-02,
1187,0.00e+00,
1188,0.00e+00,
1189,8.00e-02,
1190,8.00e-02,
1191,0.00e+00,
1192,8.00e-02,
1193,0.00e+00,
1194,8.00e-02,
1195,0.00e+00,
1196,8.00e-02,
1197,0.00e+00,
1198,8.00e-02,
1199,0.00e+00,
