codes/up/up5.csv

X,CH1,Start,Increment,
Sequence,Volt,2.536000e-01,2.000000e-05
0,1.20e-01,
1,4.00e-02,
2,4.00e-02,
3,1.20e-01,
4,4.00e-02,
5,1.20e-01,
6,4.00e-02,
7,1.20e-01,
8,4.00e-02,
9,1.20e-01,
10,4.00e-02,
11,1.20e-01,
12,4.00e-02,
13,1.20e-01,
14,4.00e-02,
15,1.20e-01,
16,4.00e-02,
17,1.20e-01,
18,4.00e-02,
19,1.20e-01,
20,1.20e-01,
21,4.00e-02,
22,4.00e-02,
23,1.20e-01,
24,1.20e-01,
25,4.00e-02,
26,4.00e-02,
27,1.20e-01,
28,1.20e-01,
29,4.00e-02,
30,4.00e-02,
31,1.20e-01,
32,4.00e-02,
33,1.20e-01,
34,1.20e-01,
35,4.00e-02,
36,4.00e-02,
37,1.20e-01,
38,4.00e-02,
39,1.20e-01,
40,1.20e-01,
41,4.00e-02,
42,1.20e-01,
43,4.00e-02,
44,1.20e-01,
45,4.00e-02,
46,1.20e-01,
47,4.00e-02,
48,1.20e-01,
49,4.00e-02,
50,1.20e-01,
51,4.00e-02,
52,4.00e-02,
53,1.20e-01,
54,1.20e-01,
55,4.00e-02,
56,1.20e-01,
57,4.00e-02,
58,4.00e-02,
59,1.20e-01,
60,4.00e-02,
61,1.20e-01,
62,4.00e-02,
63,1.20e-01,
64,4.00e-02,
65,1.20e-01,
66,1.20e-01,
67,4.00e-02,
68,1.20e-01,
69,4.00e-02,
70,1.20e-01,
71,4.00e-02,
72,4.00e-02,
73,1.20e-01,
74,1.20e-01,
75,4.00e-02,
76,1.20e-01,
77,4.00e-02,
78,4.00e-02,
79,1.20e-01,
80,1.20e-01,
81,4.00e-02,
82,4.00e-02,
83,1.20e-01,
84,1.20e-01,
85,4.00e-02,
86,1.20e-01,
87,4.00e-02,
88,1.20e-01,
89,4.00e-02,
90,1.20e-01,
91,4.00e-02,
92,4.00e-02,
93,1.20e-01,
94,4.00e-02,
95,1.20e-01,
96,4.00e-02,
97,1.20e-01,
98,4.00e-02,
99,1.20e-01,
100,4.00e-02,
101,1.20e-01,
102,1.20e-01,
103,4.00e-02,
104,4.00e-02,
105,3.60e+00,
106,3.52e+00,
107,3.64e+00,
108,3.60e+00,
109,3.72e+00,
110,3.68e+00,
111,3.76e+00,
112,3.72e+00,
113,3.80e+00,
114,3.76e+00,
115,3.80e+00,
116,3.76e+00,
117,3.80e+00,
118,3.76e+00,
119,3.84e+00,
120,3.84e+00,
121,3.60e-01,
122,4.00e-01,
123,2.40e-01,
124,3.60e-01,
125,2.00e-01,
126,2.40e-01,
127,1.60e-01,
128,2.00e-01,
129,8.00e-02,
130,2.00e-01,
131,8.00e-02,
132,2.00e-01,
133,8.00e-02,
134,1.60e-01,
135,4.00e-02,
136,1.20e-01,
137,4.00e-02,
138,4.00e-02,
139,1.20e-01,
140,1.20e-01,
141,4.00e-02,
142,4.00e-02,
143,1.20e-01,
144,4.00e-02,
145,1.20e-01,
146,4.00e-02,
147,1.20e-01,
148,4.00e-02,
149,1.52e+00,
150,1.48e+00,
151,3.64e+00,
152,3.60e+00,
153,3.68e+00,
154,3.64e+00,
155,3.76e+00,
156,3.72e+00,
157,3.80e+00,
158,3.72e+00,
159,3.80e+00,
160,3.76e+00,
161,3.84e+00,
162,3.76e+00,
163,3.84e+00,
164,3.76e+00,
165,3.84e+00,
166,3.84e+00,
167,3.80e+00,
168,3.84e+00,
169,3.80e+00,
170,3.80e+00,
171,3.88e+00,
172,3.84e+00,
173,3.80e+00,
174,3.84e+00,
175,3.80e+00,
176,3.84e+00,
177,3.80e+00,
178,3.84e+00,
179,3.80e+00,
180,3.84e+00,
181,2.80e+00,
182,2.72e+00,
183,2.80e-01,
184,3.60e-01,
185,2.00e-01,
186,2.80e-01,
187,1.60e-01,
188,1.60e-01,
189,2.40e-01,
190,2.00e-01,
191,8.00e-02,
192,8.00e-02,
193,2.00e-01,
194,1.60e-01,
195,3.64e+00,
196,3.60e+00,
197,3.68e+00,
198,3.64e+00,
199,3.76e+00,
200,3.72e+00,
201,3.80e+00,
202,3.72e+00,
203,3.80e+00,
204,3.76e+00,
205,3.84e+00,
206,3.84e+00,
207,3.76e+00,
208,3.84e+00,
209,3.76e+00,
210,3.84e+00,
211,3.80e+00,
212,3.84e+00,
213,3.80e+00,
214,3.84e+00,
215,3.80e+00,
216,3.80e+00,
217,3.88e+00,
218,3.80e+00,
219,3.88e+00,
220,3.80e+00,
221,3.88e+00,
222,3.84e+00,
223,3.80e+00,
224,3.84e+00,
225,2.48e+00,
226,2.44e+00,
227,3.20e-01,
228,3.60e-01,
229,2.00e-01,
230,2.80e-01,
231,1.60e-01,
232,1.60e-01,
233,2.40e-01,
234,2.40e-01,
235,8.00e-02,
236,8.00e-02,
237,2.00e-01,
238,8.00e-02,
239,2.20e+00,
240,2.16e+00,
241,3.68e+00,
242,3.60e+00,
243,3.76e+00,
244,3.68e+00,
245,3.76e+00,
246,3.80e+00,
247,3.72e+00,
248,3.80e+00,
249,3.76e+00,
250,3.76e+00,
251,3.84e+00,
252,3.84e+00,
253,3.76e+00,
254,3.84e+00,
255,4.00e-01,
256,4.40e-01,
257,2.40e-01,
258,3.60e-01,
259,2.00e-01,
260,2.80e-01,
261,1.60e-01,
262,1.60e-01,
263,2.40e-01,
264,2.00e-01,
265,8.00e-02,
266,8.00e-02,
267,2.00e-01,
268,8.00e-02,
269,2.00e-01,
270,8.00e-02,
271,1.60e-01,
272,1.60e-01,
273,4.00e-02,
274,4.00e-02,
275,2.00e-01,
276,1.20e-01,
277,4.00e-02,
278,1.20e-01,
279,4.00e-02,
280,4.00e-02,
281,1.20e-01,
282,1.20e-01,
283,4.00e-02,
284,4.00e-02,
285,3.60e+00,
286,3.56e+00,
287,3.68e+00,
288,3.64e+00,
289,3.76e+00,
290,3.72e+00,
291,3.80e+00,
292,3.72e+00,
293,3.80e+00,
294,3.76e+00,
295,3.80e+00,
296,3.76e+00,
297,3.84e+00,
298,3.84e+00,
299,3.24e+00,
300,3.16e+00,
301,3.20e-01,
302,3.60e-01,
303,2.00e-01,
304,2.80e-01,
305,1.60e-01,
306,1.60e-01,
307,2.40e-01,
308,2.00e-01,
309,8.00e-02,
310,8.00e-02,
311,2.00e-01,
312,8.00e-02,
313,2.00e-01,
314,2.00e-01,
315,4.00e-02,
316,1.20e-01,
317,4.00e-02,
318,1.20e-01,
319,4.00e-02,
320,4.00e-02,
321,1.20e-01,
322,1.20e-01,
323,4.00e-02,
324,4.00e-02,
325,1.20e-01,
326,4.00e-02,
327,1.20e-01,
328,4.00e-02,
329,3.00e+00,
330,3.00e+00,
331,3.64e+00,
332,3.60e+00,
333,3.68e+00,
334,3.64e+00,
335,3.76e+00,
336,3.72e+00,
337,3.80e+00,
338,3.76e+00,
339,3.80e+00,
340,3.76e+00,
341,3.84e+00,
342,3.76e+00,
343,3.84e+00,
344,3.76e+00,
345,3.84e+00,
346,3.84e+00,
347,3.76e+00,
348,3.84e+00,
349,3.76e+00,
350,3.84e+00,
351,3.80e+00,
352,3.84e+00,
353,3.80e+00,
354,3.84e+00,
355,3.80e+00,
356,3.84e+00,
357,3.80e+00,
358,3.84e+00,
359,3.36e+00,
360,3.24e+00,
361,3.20e-01,
362,3.60e-01,
363,2.00e-01,
364,2.80e-01,
365,1.60e-01,
366,1.60e-01,
367,2.40e-01,
368,8.00e-02,
369,2.00e-01,
370,2.00e-01,
371,8.00e-02,
372,8.00e-02,
373,1.32e+00,
374,1.40e+00,
375,3.64e+00,
376,3.60e+00,
377,3.68e+00,
378,3.76e+00,
379,3.64e+00,
380,3.72e+00,
381,3.80e+00,
382,3.76e+00,
383,3.80e+00,
384,3.76e+00,
385,3.84e+00,
386,3.76e+00,
387,3.84e+00,
388,3.84e+00,
389,3.68e+00,
390,3.64e+00,
391,3.20e-01,
392,3.60e-01,
393,2.00e-01,
394,2.80e-01,
395,1.60e-01,
396,1.60e-01,
397,2.40e-01,
398,2.00e-01,
399,8.00e-02,
400,2.00e-01,
401,8.00e-02,
402,1.60e-01,
403,4.00e-02,
404,1.20e-01,
405,4.00e-02,
406,1.20e-01,
407,4.00e-02,
408,1.20e-01,
409,4.00e-02,
410,4.00e-02,
411,1.20e-01,
412,1.20e-01,
413,4.00e-02,
414,4.00e-02,
415,1.20e-01,
416,1.20e-01,
417,4.00e-02,
418,4.00e-02,
419,3.52e+00,
420,3.48e+00,
421,3.64e+00,
422,3.60e+00,
423,3.76e+00,
424,3.64e+00,
425,3.76e+00,
426,3.72e+00,
427,3.80e+00,
428,3.80e+00,
429,3.76e+00,
430,3.76e+00,
431,3.84e+00,
432,3.76e+00,
433,3.84e+00,
434,3.84e+00,
435,3.20e-01,
436,3.60e-01,
437,2.00e-01,
438,2.80e-01,
439,1.60e-01,
440,1.60e-01,
441,2.40e-01,
442,2.00e-01,
443,8.00e-02,
444,8.00e-02,
445,2.00e-01,
446,1.20e-01,
447,4.00e-02,
448,1.20e-01,
449,4.00e-02,
450,4.00e-02,
451,1.20e-01,
452,4.00e-02,
453,1.20e-01,
454,1.20e-01,
455,4.00e-02,
456,4.00e-02,
457,1.20e-01,
458,4.00e-02,
459,1.20e-01,
460,4.00e-02,
461,1.20e-01,
462,4.00e-02,
463,6.80e-01,
464,7.20e-01,
465,3.60e+00,
466,3.56e+00,
467,3.68e+00,
468,3.64e+00,
469,3.76e+00,
470,3.72e+00,
471,3.80e+00,
472,3.80e+00,
473,3.72e+00,
474,3.80e+00,
475,3.76e+00,
476,3.80e+00,
477,3.76e+00,
478,3.84e+00,
479,1.20e+00,
480,1.16e+00,
481,2.40e-01,
482,3.60e-01,
483,2.00e-01,
484,2.40e-01,
485,1.60e-01,
486,2.00e-01,
487,8.00e-02,
488,2.00e-01,
489,8.00e-02,
490,8.00e-02,
491,2.00e-01,
492,1.20e-01,
493,4.00e-02,
494,4.00e-02,
495,1.20e-01,
496,4.00e-02,
497,1.20e-01,
498,4.00e-02,
499,1.20e-01,
500,1.20e-01,
501,4.00e-02,
502,4.00e-02,
503,1.20e-01,
504,1.20e-01,
505,4.00e-02,
506,4.00e-02,
507,1.20e-01,
508,4.00e-02,
509,3.60e+00,
510,3.48e+00,
511,3.64e+00,
512,3.60e+00,
513,3.76e+00,
514,3.64e+00,
515,3.76e+00,
516,3.72e+00,
517,3.80e+00,
518,3.80e+00,
519,3.76e+00,
520,3.80e+00,
521,3.76e+00,
522,3.84e+00,
523,3.76e+00,
524,3.76e+00,
525,3.84e+00,
526,3.84e+00,
527,3.76e+00,
528,3.80e+00,
529,3.92e+00,
530,3.84e+00,
531,3.76e+00,
532,3.80e+00,
533,3.84e+00,
534,3.84e+00,
535,3.80e+00,
536,3.84e+00,
537,3.80e+00,
538,3.84e+00,
539,3.76e+00,
540,3.84e+00,
541,3.20e-01,
542,4.00e-01,
543,2.00e-01,
544,2.80e-01,
545,1.60e-01,
546,1.60e-01,
547,2.40e-01,
548,2.00e-01,
549,8.00e-02,
550,8.00e-02,
551,2.00e-01,
552,8.00e-02,
553,1.76e+00,
554,1.80e+00,
555,3.64e+00,
556,3.60e+00,
557,3.68e+00,
558,3.64e+00,
559,3.76e+00,
560,3.72e+00,
561,3.80e+00,
562,3.76e+00,
563,3.80e+00,
564,3.76e+00,
565,3.84e+00,
566,3.76e+00,
567,3.84e+00,
568,3.84e+00,
569,3.76e+00,
570,3.84e+00,
571,3.80e+00,
572,3.84e+00,
573,3.80e+00,
574,3.84e+00,
575,3.80e+00,
576,3.84e+00,
577,3.80e+00,
578,3.80e+00,
579,3.84e+00,
580,3.84e+00,
581,3.80e+00,
582,3.84e+00,
583,3.80e+00,
584,3.84e+00,
585,3.20e-01,
586,4.00e-01,
587,2.40e-01,
588,3.60e-01,
589,2.00e-01,
590,2.40e-01,
591,1.60e-01,
592,2.40e-01,
593,8.00e-02,
594,2.00e-01,
595,8.00e-02,
596,8.00e-02,
597,2.00e-01,
598,8.00e-02,
599,3.60e+00,
600,3.56e+00,
601,3.68e+00,
602,3.64e+00,
603,3.76e+00,
604,3.72e+00,
605,3.80e+00,
606,3.80e+00,
607,3.72e+00,
608,3.76e+00,
609,3.84e+00,
610,3.76e+00,
611,3.84e+00,
612,3.76e+00,
613,3.84e+00,
614,3.84e+00,
615,3.76e+00,
616,3.84e+00,
617,3.80e+00,
618,3.84e+00,
619,3.80e+00,
620,3.84e+00,
621,3.80e+00,
622,3.84e+00,
623,3.80e+00,
624,3.80e+00,
625,3.88e+00,
626,3.80e+00,
627,3.88e+00,
628,3.84e+00,
629,7.20e-01,
630,6.80e-01,
631,2.40e-01,
632,3.60e-01,
633,2.00e-01,
634,2.80e-01,
635,1.60e-01,
636,2.40e-01,
637,1.60e-01,
638,8.00e-02,
639,2.00e-01,
640,8.00e-02,
641,2.00e-01,
642,8.00e-02,
643,2.44e+00,
644,2.44e+00,
645,3.64e+00,
646,3.60e+00,
647,3.76e+00,
648,3.68e+00,
649,3.76e+00,
650,3.72e+00,
651,3.80e+00,
652,3.80e+00,
653,3.76e+00,
654,3.76e+00,
655,3.84e+00,
656,3.76e+00,
657,3.84e+00,
658,3.84e+00,
659,3.20e-01,
660,4.00e-01,
661,2.40e-01,
662,2.80e-01,
663,2.00e-01,
664,2.40e-01,
665,1.60e-01,
666,2.40e-01,
667,8.00e-02,
668,8.00e-02,
669,2.00e-01,
670,8.00e-02,
671,2.00e-01,
672,1.60e-01,
673,4.00e-02,
674,1.20e-01,
675,4.00e-02,
676,4.00e-02,
677,1.20e-01,
678,4.00e-02,
679,1.20e-01,
680,4.00e-02,
681,1.20e-01,
682,1.20e-01,
683,4.00e-02,
684,4.00e-02,
685,1.20e-01,
686,4.00e-02,
687,1.20e-01,
688,1.20e-01,
689,3.60e+00,
690,3.56e+00,
691,3.68e+00,
692,3.64e+00,
693,3.76e+00,
694,3.72e+00,
695,3.80e+00,
696,3.72e+00,
697,3.80e+00,
698,3.80e+00,
699,3.76e+00,
700,3.76e+00,
701,3.84e+00,
702,3.76e+00,
703,3.84e+00,
704,3.76e+00,
705,3.84e+00,
706,3.84e+00,
707,3.76e+00,
708,3.84e+00,
709,3.80e+00,
710,3.84e+00,
711,3.80e+00,
712,3.80e+00,
713,3.88e+00,
714,3.84e+00,
715,3.80e+00,
716,3.84e+00,
717,3.80e+00,
718,3.84e+00,
719,3.20e-01,
720,4.00e-01,
721,2.40e-01,
722,2.80e-01,
723,1.60e-01,
724,1.60e-01,
725,2.40e-01,
726,2.00e-01,
727,8.00e-02,
728,8.00e-02,
729,2.00e-01,
730,2.00e-01,
731,8.00e-02,
732,8.00e-02,
733,3.52e+00,
734,3.52e+00,
735,3.68e+00,
736,3.60e+00,
737,3.76e+00,
738,3.64e+00,
739,3.76e+00,
740,3.72e+00,
741,3.80e+00,
742,3.76e+00,
743,3.80e+00,
744,3.76e+00,
745,3.84e+00,
746,3.84e+00,
747,2.56e+00,
748,2.52e+00,
749,2.40e-01,
750,3.60e-01,
751,2.00e-01,
752,2.80e-01,
753,1.60e-01,
754,2.40e-01,
755,1.20e-01,
756,2.00e-01,
757,8.00e-02,
758,2.00e-01,
759,8.00e-02,
760,1.60e-01,
761,8.00e-02,
762,1.20e-01,
763,4.00e-02,
764,1.20e-01,
765,4.00e-02,
766,4.00e-02,
767,1.20e-01,
768,4.00e-02,
769,1.20e-01,
770,1.20e-01,
771,4.00e-02,
772,4.00e-02,
773,1.20e-01,
774,1.20e-01,
775,4.00e-02,
776,4.00e-02,
777,1.60e+00,
778,1.64e+00,
779,3.64e+00,
780,3.60e+00,
781,3.68e+00,
782,3.64e+00,
783,3.76e+00,
784,3.72e+00,
785,3.80e+00,
786,3.72e+00,
787,3.80e+00,
788,3.76e+00,
789,3.80e+00,
790,3.80e+00,
791,3.76e+00,
792,3.84e+00,
793,3.20e-01,
794,4.00e-01,
795,2.40e-01,
796,2.80e-01,
797,1.60e-01,
798,1.60e-01,
799,2.80e-01,
800,2.00e-01,
801,8.00e-02,
802,2.00e-01,
803,8.00e-02,
804,1.60e-01,
805,8.00e-02,
806,1.20e-01,
807,4.00e-02,
808,4.00e-02,
809,1.20e-01,
810,4.00e-02,
811,1.20e-01,
812,4.00e-02,
813,1.20e-01,
814,4.00e-02,
815,1.20e-01,
816,1.20e-01,
817,4.00e-02,
818,4.00e-02,
819,1.20e-01,
820,4.00e-02,
821,1.20e-01,
822,4.00e-02,
823,3.60e+00,
824,3.52e+00,
825,3.68e+00,
826,3.60e+00,
827,3.68e+00,
828,3.64e+00,
829,3.76e+00,
830,3.72e+00,
831,3.80e+00,
832,3.80e+00,
833,3.72e+00,
834,3.80e+00,
835,3.76e+00,
836,3.80e+00,
837,2.40e+00,
838,2.36e+00,
839,2.40e-01,
840,3.60e-01,
841,2.00e-01,
842,2.40e-01,
843,1.60e-01,
844,2.40e-01,
845,8.00e-02,
846,2.00e-01,
847,8.00e-02,
848,8.00e-02,
849,2.00e-01,
850,1.20e-01,
851,4.00e-02,
852,1.20e-01,
853,4.00e-02,
854,1.20e-01,
855,4.00e-02,
856,4.00e-02,
857,1.20e-01,
858,4.00e-02,
859,1.20e-01,
860,4.00e-02,
861,1.20e-01,
862,4.00e-02,
863,1.20e-01,
864,1.20e-01,
865,4.00e-02,
866,4.00e-02,
867,1.44e+00,
868,1.40e+00,
869,3.64e+00,
870,3.56e+00,
871,3.68e+00,
872,3.64e+00,
873,3.76e+00,
874,3.72e+00,
875,3.80e+00,
876,3.72e+00,
877,3.80e+00,
878,3.76e+00,
879,3.80e+00,
880,3.76e+00,
881,3.84e+00,
882,3.76e+00,
883,3.84e+00,
884,3.76e+00,
885,3.84e+00,
886,3.84e+00,
887,3.76e+00,
888,3.84e+00,
889,3.76e+00,
890,3.84e+00,
891,3.76e+00,
892,3.84e+00,
893,3.76e+00,
894,3.84e+00,
895,3.76e+00,
896,3.84e+00,
897,2.08e+00,
898,2.04e+00,
899,2.40e-01,
900,3.20e-01,
901,2.00e-01,
902,2.80e-01,
903,1.60e-01,
904,2.40e-01,
905,8.00e-02,
906,2.00e-01,
907,8.00e-02,
908,2.00e-01,
909,8.00e-02,
910,2.00e-01,
911,4.00e-02,
912,8.00e-02,
913,3.60e+00,
914,3.56e+00,
915,3.68e+00,
916,3.64e+00,
917,3.76e+00,
918,3.72e+00,
919,3.80e+00,
920,3.72e+00,
921,3.80e+00,
922,3.80e+00,
923,3.76e+00,
924,3.76e+00,
925,3.84e+00,
926,3.76e+00,
927,3.84e+00,
928,3.84e+00,
929,3.76e+00,
930,3.84e+00,
931,3.76e+00,
932,3.84e+00,
933,3.80e+00,
934,3.80e+00,
935,3.84e+00,
936,3.80e+00,
937,3.84e+00,
938,3.88e+00,
939,3.80e+00,
940,3.84e+00,
941,3.80e+00,
942,3.84e+00,
943,3.20e-01,
944,4.00e-01,
945,2.40e-01,
946,2.80e-01,
947,1.60e-01,
948,2.40e-01,
949,1.60e-01,
950,2.00e-01,
951,8.00e-02,
952,8.00e-02,
953,2.00e-01,
954,8.00e-02,
955,2.00e-01,
956,4.00e-02,
957,1.60e+00,
958,1.64e+00,
959,3.64e+00,
960,3.60e+00,
961,3.68e+00,
962,3.64e+00,
963,3.76e+00,
964,3.72e+00,
965,3.80e+00,
966,3.76e+00,
967,3.80e+00,
968,3.76e+00,
969,3.84e+00,
970,3.76e+00,
971,3.84e+00,
972,3.84e+00,
973,3.76e+00,
974,3.84e+00,
975,3.80e+00,
976,3.84e+00,
977,3.80e+00,
978,3.84e+00,
979,3.80e+00,
980,3.84e+00,
981,3.80e+00,
982,3.84e+00,
983,3.80e+00,
984,3.84e+00,
985,3.80e+00,
986,3.84e+00,
987,2.24e+00,
988,2.20e+00,
989,2.80e-01,
990,3.60e-01,
991,2.00e-01,
992,2.80e-01,
993,1.60e-01,
994,1.60e-01,
995,2.40e-01,
996,2.00e-01,
997,8.00e-02,
998,8.00e-02,
999,2.00e-01,
1000,2.00e-01,
1001,8.00e-02,
1002,8.00e-02,
1003,3.60e+00,
1004,3.56e+00,
1005,3.68e+00,
1006,3.64e+00,
1007,3.76e+00,
1008,3.72e+00,
1009,3.80e+00,
1010,3.80e+00,
1011,3.72e+00,
1012,3.76e+00,
1013,3.84e+00,
1014,3.76e+00,
1015,3.84e+00,
1016,3.84e+00,
1017,3.60e-01,
1018,4.00e-01,
1019,2.40e-01,
1020,2.80e-01,
1021,2.00e-01,
1022,2.40e-01,
1023,1.60e-01,
1024,2.40e-01,
1025,1.20e-01,
1026,8.00e-02,
1027,2.00e-01,
1028,8.00e-02,
1029,2.00e-01,
1030,8.00e-02,
1031,1.60e-01,
1032,4.00e-02,
1033,1.60e-01,
1034,1.20e-01,
1035,4.00e-02,
1036,1.20e-01,
1037,4.00e-02,
1038,1.20e-01,
1039,4.00e-02,
1040,1.20e-01,
1041,4.00e-02,
1042,1.20e-01,
1043,4.00e-02,
1044,1.20e-01,
1045,4.00e-02,
1046,4.00e-02,
1047,2.96e+00,
1048,2.96e+00,
1049,3.64e+00,
1050,3.60e+00,
1051,3.68e+00,
1052,3.64e+00,
1053,3.76e+00,
1054,3.72e+00,
1055,3.80e+00,
1056,3.80e+00,
1057,3.72e+00,
1058,3.76e+00,
1059,3.80e+00,
1060,3.76e+00,
1061,3.84e+00,
1062,3.76e+00,
1063,3.84e+00,
1064,3.76e+00,
1065,3.84e+00,
1066,3.84e+00,
1067,3.76e+00,
1068,3.84e+00,
1069,3.80e+00,
1070,3.84e+00,
1071,3.80e+00,
1072,3.84e+00,
1073,3.80e+00,
1074,3.80e+00,
1075,3.88e+00,
1076,3.84e+00,
1077,5.60e-01,
1078,5.60e-01,
1079,2.40e-01,
1080,3.60e-01,
1081,2.00e-01,
1082,2.40e-01,
1083,1.60e-01,
1084,2.40e-01,
1085,8.00e-02,
1086,8.00e-02,
1087,2.00e-01,
1088,8.00e-02,
1089,2.00e-01,
1090,1.60e-01,
1091,4.00e-02,
1092,8.00e-02,
1093,3.60e+00,
1094,3.56e+00,
1095,3.68e+00,
1096,3.64e+00,
1097,3.76e+00,
1098,3.72e+00,
1099,3.80e+00,
1100,3.72e+00,
1101,3.80e+00,
1102,3.76e+00,
1103,3.84e+00,
1104,3.76e+00,
1105,3.84e+00,
1106,3.84e+00,
1107,3.76e+00,
1108,3.76e+00,
1109,3.84e+00,
1110,3.84e+00,
1111,3.80e+00,
1112,3.84e+00,
1113,3.76e+00,
1114,3.84e+00,
1115,3.80e+00,
1116,3.84e+00,
1117,3.80e+00,
1118,3.84e+00,
1119,3.80e+00,
1120,3.84e+00,
1121,2.72e+00,
1122,2.68e+00,
1123,3.20e-01,
1124,3.60e-01,
1125,2.00e-01,
1126,2.80e-01,
1127,1.60e-01,
1128,1.60e-01,
1129,2.40e-01,
1130,2.00e-01,
1131,8.00e-02,
1132,8.00e-02,
1133,2.00e-01,
1134,2.00e-01,
1135,8.00e-02,
1136,4.00e-02,
1137,1.60e-01,
1138,1.20e-01,
1139,4.00e-02,
1140,1.20e-01,
1141,4.00e-02,
1142,4.00e-02,
1143,1.20e-01,
1144,4.00e-02,
1145,1.20e-01,
1146,1.20e-01,
1147,4.00e-02,
1148,4.00e-02,
1149,1.20e-01,
1150,1.20e-01,
1151,4.00e-02,
1152,4.00e-02,
1153,1.20e-01,
1154,1.20e-01,
1155,4.00e-02,
1156,1.20e-01,
1157,4.00e-02,
1158,4.00e-02,
1159,1.20e-01,
1160,4.00e-02,
1161,1.20e-01,
1162,4.00e-02,
1163,1.20e-01,
1164,4.00e-02,
1165,1.20e-01,
1166,1.20e-01,
1167,4.00e-02,
1168,1.20e-01,
1169,4.00e-02,
1170,4.00e-02,
1171,1.20e-01,
1172,4.00e-02,
1173,1.20e-01,
1174,1.20e-01,
1175,4.00e-02,
1176,1.20e-01,
1177,4.00e-02,
1178,4.00e-02,
1179,1.20e-01,
1180,1.20e-01,
1181,4.00e-02,
1182,4.00e-02,
1183,1.20e-01,
1184,1.20e-01,
1185,4.00e-02,
1186,1.20e-01,
1187,4.00e-02,
1188,1.20e-01,
1189,4.00e-02,
1190,4.00e-02,
1191,1.20e-01,
1192,1.20e-01,
1193,4.00e-02,
1194,1.20e-01,
1195,4.00e-02,
1196,1.20e-01,
1197,4.00e-02,
1198,1.20e-01,
1199,4.00e-02,
