codes/up/up8.csv

X,CH1,Start,Increment,
Sequence,Volt,4.072000e-01,2.000000e-05
0,1.20e-01,
1,4.00e-02,
2,4.00e-02,
3,1.20e-01,
4,4.00e-02,
5,1.20e-01,
6,4.00e-02,
7,1.20e-01,
8,4.00e-02,
9,1.20e-01,
10,4.00e-02,
11,1.20e-01,
12,4.00e-02,
13,1.20e-01,
14,4.00e-02,
15,1.20e-01,
16,4.00e-02,
17,1.20e-01,
18,1.20e-01,
19,4.00e-02,
20,1.20e-01,
21,4.00e-02,
22,1.20e-01,
23,4.00e-02,
24,4.00e-02,
25,1.20e-01,
26,4.00e-02,
27,1.20e-01,
28,1.20e-01,
29,4.00e-02,
30,4.00e-02,
31,1.20e-01,
32,4.00e-02,
33,1.20e-01,
34,1.20e-01,
35,4.00e-02,
36,4.00e-02,
37,1.20e-01,
38,4.00e-02,
39,1.20e-01,
40,1.20e-01,
41,4.00e-02,
42,1.20e-01,
43,4.00e-02,
44,1.20e-01,
45,4.00e-02,
46,1.20e-01,
47,4.00e-02,
48,1.20e-01,
49,4.00e-02,
50,1.20e-01,
51,4.00e-02,
52,4.00e-02,
53,1.20e-01,
54,1.20e-01,
55,4.00e-02,
56,1.20e-01,
57,4.00e-02,
58,1.20e-01,
59,4.00e-02,
60,4.00e-02,
61,1.20e-01,
62,4.00e-02,
63,1.20e-01,
64,4.00e-02,
65,1.20e-01,
66,1.20e-01,
67,4.00e-02,
68,4.00e-02,
69,1.20e-01,
70,1.20e-01,
71,4.00e-02,
72,4.00e-02,
73,1.20e-01,
74,1.20e-01,
75,4.00e-02,
76,1.20e-01,
77,4.00e-02,
78,4.00e-02,
79,1.20e-01,
80,1.20e-01,
81,4.00e-02,
82,4.00e-02,
83,1.20e-01,
84,1.20e-01,
85,4.00e-02,
86,1.20e-01,
87,4.00e-02,
88,4.00e-02,
89,1.20e-01,
90,1.20e-01,
91,4.00e-02,
92,4.00e-02,
93,1.20e-01,
94,4.00e-02,
95,1.20e-01,
96,4.00e-02,
97,1.20e-01,
98,4.00e-02,
99,2.76e+00,
100,2.80e+00,
101,3.64e+00,
102,3.60e+00,
103,3.68e+00,
104,3.64e+00,
105,3.76e+00,
106,3.80e+00,
107,3.72e+00,
108,3.72e+00,
109,3.80e+00,
110,3.80e+00,
111,3.76e+00,
112,3.76e+00,
113,3.84e+00,
114,3.84e+00,
115,6.40e-01,
116,6.00e-01,
117,2.40e-01,
118,2.80e-01,
119,2.00e-01,
120,2.40e-01,
121,1.60e-01,
122,2.00e-01,
123,8.00e-02,
124,8.00e-02,
125,2.00e-01,
126,8.00e-02,
127,2.00e-01,
128,1.20e-01,
129,4.00e-02,
130,1.20e-01,
131,4.00e-02,
132,1.20e-01,
133,4.00e-02,
134,1.20e-01,
135,4.00e-02,
136,4.00e-02,
137,1.20e-01,
138,4.00e-02,
139,1.20e-01,
140,4.00e-02,
141,1.20e-01,
142,1.20e-01,
143,4.00e-02,
144,4.00e-02,
145,3.60e+00,
146,3.56e+00,
147,3.68e+00,
148,3.64e+00,
149,3.76e+00,
150,3.72e+00,
151,3.76e+00,
152,3.72e+00,
153,3.80e+00,
154,3.80e+00,
155,3.76e+00,
156,3.76e+00,
157,3.84e+00,
158,3.76e+00,
159,3.84e+00,
160,3.84e+00,
161,3.76e+00,
162,3.84e+00,
163,3.80e+00,
164,3.84e+00,
165,3.80e+00,
166,3.84e+00,
167,3.80e+00,
168,3.84e+00,
169,3.80e+00,
170,3.84e+00,
171,3.80e+00,
172,3.84e+00,
173,3.80e+00,
174,3.84e+00,
175,1.48e+00,
176,1.44e+00,
177,2.40e-01,
178,3.60e-01,
179,2.00e-01,
180,2.80e-01,
181,1.60e-01,
182,1.60e-01,
183,2.40e-01,
184,8.00e-02,
185,2.00e-01,
186,8.00e-02,
187,2.00e-01,
188,8.00e-02,
189,2.84e+00,
190,2.88e+00,
191,3.68e+00,
192,3.60e+00,
193,3.76e+00,
194,3.76e+00,
195,3.68e+00,
196,3.72e+00,
197,3.80e+00,
198,3.80e+00,
199,3.76e+00,
200,3.76e+00,
201,3.84e+00,
202,3.76e+00,
203,3.84e+00,
204,3.84e+00,
205,3.80e+00,
206,3.84e+00,
207,3.80e+00,
208,3.84e+00,
209,3.80e+00,
210,3.84e+00,
211,3.80e+00,
212,3.84e+00,
213,3.80e+00,
214,3.84e+00,
215,3.80e+00,
216,3.84e+00,
217,3.80e+00,
218,3.84e+00,
219,3.80e+00,
220,3.84e+00,
221,3.20e-01,
222,4.00e-01,
223,2.40e-01,
224,2.80e-01,
225,2.00e-01,
226,1.60e-01,
227,2.80e-01,
228,2.40e-01,
229,8.00e-02,
230,2.00e-01,
231,8.00e-02,
232,8.00e-02,
233,1.08e+00,
234,1.12e+00,
235,3.64e+00,
236,3.60e+00,
237,3.76e+00,
238,3.64e+00,
239,3.76e+00,
240,3.72e+00,
241,3.80e+00,
242,3.76e+00,
243,3.84e+00,
244,3.76e+00,
245,3.84e+00,
246,3.84e+00,
247,3.76e+00,
248,3.84e+00,
249,3.76e+00,
250,3.84e+00,
251,3.20e-01,
252,4.00e-01,
253,2.40e-01,
254,2.80e-01,
255,2.00e-01,
256,2.40e-01,
257,1.60e-01,
258,2.40e-01,
259,1.20e-01,
260,2.00e-01,
261,8.00e-02,
262,2.00e-01,
263,8.00e-02,
264,8.00e-02,
265,2.00e-01,
266,1.20e-01,
267,4.00e-02,
268,1.20e-01,
269,4.00e-02,
270,1.20e-01,
271,4.00e-02,
272,4.00e-02,
273,1.20e-01,
274,4.00e-02,
275,1.20e-01,
276,4.00e-02,
277,1.20e-01,
278,4.00e-02,
279,3.52e+00,
280,3.48e+00,
281,3.68e+00,
282,3.60e+00,
283,3.76e+00,
284,3.68e+00,
285,3.80e+00,
286,3.80e+00,
287,3.72e+00,
288,3.76e+00,
289,3.80e+00,
290,3.76e+00,
291,3.84e+00,
292,3.84e+00,
293,3.76e+00,
294,3.84e+00,
295,1.60e+00,
296,1.56e+00,
297,2.40e-01,
298,3.60e-01,
299,2.00e-01,
300,2.80e-01,
301,1.60e-01,
302,1.60e-01,
303,2.40e-01,
304,2.00e-01,
305,8.00e-02,
306,2.00e-01,
307,8.00e-02,
308,8.00e-02,
309,2.00e-01,
310,1.20e-01,
311,4.00e-02,
312,4.00e-02,
313,1.20e-01,
314,4.00e-02,
315,1.20e-01,
316,1.20e-01,
317,4.00e-02,
318,1.20e-01,
319,4.00e-02,
320,4.00e-02,
321,1.20e-01,
322,4.00e-02,
323,2.40e-01,
324,2.00e-01,
325,3.60e+00,
326,3.56e+00,
327,3.68e+00,
328,3.64e+00,
329,3.76e+00,
330,3.72e+00,
331,3.80e+00,
332,3.72e+00,
333,3.80e+00,
334,3.76e+00,
335,3.80e+00,
336,3.76e+00,
337,3.84e+00,
338,3.76e+00,
339,3.84e+00,
340,3.84e+00,
341,3.76e+00,
342,3.84e+00,
343,3.76e+00,
344,3.84e+00,
345,3.80e+00,
346,3.84e+00,
347,3.80e+00,
348,3.80e+00,
349,3.84e+00,
350,3.84e+00,
351,3.80e+00,
352,3.84e+00,
353,3.80e+00,
354,3.84e+00,
355,6.80e-01,
356,6.40e-01,
357,2.40e-01,
358,3.20e-01,
359,2.00e-01,
360,2.80e-01,
361,1.60e-01,
362,2.40e-01,
363,8.00e-02,
364,2.00e-01,
365,8.00e-02,
366,2.00e-01,
367,8.00e-02,
368,8.00e-02,
369,3.60e+00,
370,3.56e+00,
371,3.68e+00,
372,3.64e+00,
373,3.76e+00,
374,3.68e+00,
375,3.80e+00,
376,3.72e+00,
377,3.80e+00,
378,3.76e+00,
379,3.80e+00,
380,3.76e+00,
381,3.84e+00,
382,3.76e+00,
383,3.84e+00,
384,3.84e+00,
385,3.20e-01,
386,4.00e-01,
387,2.00e-01,
388,2.80e-01,
389,1.60e-01,
390,1.60e-01,
391,2.40e-01,
392,2.00e-01,
393,8.00e-02,
394,8.00e-02,
395,2.00e-01,
396,2.00e-01,
397,8.00e-02,
398,1.20e-01,
399,4.00e-02,
400,1.20e-01,
401,4.00e-02,
402,4.00e-02,
403,1.20e-01,
404,1.20e-01,
405,4.00e-02,
406,1.20e-01,
407,4.00e-02,
408,1.20e-01,
409,4.00e-02,
410,4.00e-02,
411,1.20e-01,
412,4.00e-02,
413,1.40e+00,
414,1.40e+00,
415,3.64e+00,
416,3.60e+00,
417,3.68e+00,
418,3.64e+00,
419,3.76e+00,
420,3.72e+00,
421,3.80e+00,
422,3.80e+00,
423,3.72e+00,
424,3.76e+00,
425,3.80e+00,
426,3.76e+00,
427,3.84e+00,
428,3.84e+00,
429,1.44e+00,
430,1.40e+00,
431,2.40e-01,
432,3.60e-01,
433,2.00e-01,
434,2.40e-01,
435,1.60e-01,
436,2.40e-01,
437,8.00e-02,
438,8.00e-02,
439,2.00e-01,
440,8.00e-02,
441,2.00e-01,
442,2.00e-01,
443,4.00e-02,
444,4.00e-02,
445,1.20e-01,
446,4.00e-02,
447,1.20e-01,
448,1.20e-01,
449,4.00e-02,
450,4.00e-02,
451,1.20e-01,
452,1.20e-01,
453,4.00e-02,
454,1.20e-01,
455,4.00e-02,
456,4.00e-02,
457,1.20e-01,
458,4.00e-02,
459,3.60e+00,
460,3.56e+00,
461,3.64e+00,
462,3.60e+00,
463,3.72e+00,
464,3.76e+00,
465,3.64e+00,
466,3.72e+00,
467,3.80e+00,
468,3.76e+00,
469,3.80e+00,
470,3.76e+00,
471,3.84e+00,
472,3.84e+00,
473,3.12e+00,
474,3.12e+00,
475,2.40e-01,
476,3.60e-01,
477,2.00e-01,
478,2.80e-01,
479,1.60e-01,
480,2.40e-01,
481,1.20e-01,
482,8.00e-02,
483,2.00e-01,
484,8.00e-02,
485,2.00e-01,
486,1.60e-01,
487,4.00e-02,
488,1.20e-01,
489,4.00e-02,
490,1.20e-01,
491,4.00e-02,
492,1.20e-01,
493,4.00e-02,
494,4.00e-02,
495,1.20e-01,
496,4.00e-02,
497,1.20e-01,
498,4.00e-02,
499,1.20e-01,
500,1.20e-01,
501,4.00e-02,
502,4.00e-02,
503,2.52e+00,
504,2.56e+00,
505,3.64e+00,
506,3.60e+00,
507,3.68e+00,
508,3.64e+00,
509,3.76e+00,
510,3.72e+00,
511,3.80e+00,
512,3.80e+00,
513,3.72e+00,
514,3.76e+00,
515,3.84e+00,
516,3.76e+00,
517,3.84e+00,
518,3.76e+00,
519,3.84e+00,
520,3.84e+00,
521,3.76e+00,
522,3.84e+00,
523,3.76e+00,
524,3.84e+00,
525,3.76e+00,
526,3.84e+00,
527,3.76e+00,
528,3.84e+00,
529,3.76e+00,
530,3.84e+00,
531,3.80e+00,
532,3.84e+00,
533,3.44e+00,
534,3.40e+00,
535,3.20e-01,
536,3.60e-01,
537,2.00e-01,
538,2.80e-01,
539,1.60e-01,
540,2.40e-01,
541,1.20e-01,
542,8.00e-02,
543,2.00e-01,
544,8.00e-02,
545,2.00e-01,
546,8.00e-02,
547,2.00e-01,
548,1.20e-01,
549,3.64e+00,
550,3.56e+00,
551,3.68e+00,
552,3.64e+00,
553,3.76e+00,
554,3.72e+00,
555,3.80e+00,
556,3.80e+00,
557,3.72e+00,
558,3.76e+00,
559,3.84e+00,
560,3.76e+00,
561,3.84e+00,
562,3.76e+00,
563,3.84e+00,
564,3.84e+00,
565,3.80e+00,
566,3.84e+00,
567,3.80e+00,
568,3.84e+00,
569,3.80e+00,
570,3.84e+00,
571,3.80e+00,
572,3.84e+00,
573,3.80e+00,
574,3.84e+00,
575,3.80e+00,
576,3.84e+00,
577,3.80e+00,
578,3.84e+00,
579,3.20e-01,
580,4.00e-01,
581,2.40e-01,
582,3.20e-01,
583,2.00e-01,
584,2.80e-01,
585,1.60e-01,
586,2.40e-01,
587,8.00e-02,
588,2.00e-01,
589,8.00e-02,
590,8.00e-02,
591,2.00e-01,
592,8.00e-02,
593,3.28e+00,
594,3.32e+00,
595,3.68e+00,
596,3.60e+00,
597,3.76e+00,
598,3.76e+00,
599,3.68e+00,
600,3.72e+00,
601,3.80e+00,
602,3.80e+00,
603,3.76e+00,
604,3.76e+00,
605,3.84e+00,
606,3.84e+00,
607,3.76e+00,
608,3.76e+00,
609,3.84e+00,
610,3.84e+00,
611,3.80e+00,
612,3.84e+00,
613,3.80e+00,
614,3.84e+00,
615,3.80e+00,
616,3.84e+00,
617,3.80e+00,
618,3.84e+00,
619,3.80e+00,
620,3.80e+00,
621,3.88e+00,
622,3.84e+00,
623,3.60e+00,
624,3.56e+00,
625,3.20e-01,
626,4.00e-01,
627,2.00e-01,
628,2.80e-01,
629,1.60e-01,
630,2.40e-01,
631,1.60e-01,
632,2.00e-01,
633,8.00e-02,
634,8.00e-02,
635,2.00e-01,
636,8.00e-02,
637,1.60e+00,
638,1.68e+00,
639,3.64e+00,
640,3.60e+00,
641,3.72e+00,
642,3.68e+00,
643,3.76e+00,
644,3.72e+00,
645,3.80e+00,
646,3.76e+00,
647,3.80e+00,
648,3.84e+00,
649,3.76e+00,
650,3.84e+00,
651,3.76e+00,
652,3.84e+00,
653,3.20e-01,
654,4.00e-01,
655,2.00e-01,
656,2.80e-01,
657,1.60e-01,
658,2.40e-01,
659,1.60e-01,
660,2.40e-01,
661,8.00e-02,
662,2.00e-01,
663,8.00e-02,
664,8.00e-02,
665,2.00e-01,
666,2.00e-01,
667,4.00e-02,
668,1.20e-01,
669,4.00e-02,
670,4.00e-02,
671,1.20e-01,
672,4.00e-02,
673,1.20e-01,
674,2.00e-01,
675,4.00e-02,
676,1.20e-01,
677,4.00e-02,
678,4.00e-02,
679,1.20e-01,
680,4.00e-02,
681,1.20e-01,
682,4.00e-02,
683,3.60e+00,
684,3.56e+00,
685,3.64e+00,
686,3.60e+00,
687,3.76e+00,
688,3.76e+00,
689,3.64e+00,
690,3.72e+00,
691,3.80e+00,
692,3.76e+00,
693,3.80e+00,
694,3.76e+00,
695,3.84e+00,
696,3.76e+00,
697,3.84e+00,
698,3.84e+00,
699,3.80e+00,
700,3.84e+00,
701,3.80e+00,
702,3.84e+00,
703,3.76e+00,
704,3.84e+00,
705,3.80e+00,
706,3.80e+00,
707,3.84e+00,
708,3.84e+00,
709,3.80e+00,
710,3.80e+00,
711,3.88e+00,
712,3.84e+00,
713,3.20e-01,
714,4.00e-01,
715,2.40e-01,
716,3.20e-01,
717,2.00e-01,
718,2.40e-01,
719,1.60e-01,
720,2.40e-01,
721,8.00e-02,
722,2.00e-01,
723,8.00e-02,
724,8.00e-02,
725,2.00e-01,
726,8.00e-02,
727,1.60e+00,
728,1.60e+00,
729,3.64e+00,
730,3.60e+00,
731,3.68e+00,
732,3.64e+00,
733,3.76e+00,
734,3.72e+00,
735,3.80e+00,
736,3.72e+00,
737,3.84e+00,
738,3.80e+00,
739,3.76e+00,
740,3.76e+00,
741,3.84e+00,
742,3.84e+00,
743,3.20e-01,
744,4.00e-01,
745,2.40e-01,
746,2.80e-01,
747,1.60e-01,
748,2.40e-01,
749,1.60e-01,
750,2.00e-01,
751,8.00e-02,
752,2.00e-01,
753,8.00e-02,
754,2.00e-01,
755,8.00e-02,
756,1.20e-01,
757,4.00e-02,
758,1.20e-01,
759,4.00e-02,
760,1.20e-01,
761,4.00e-02,
762,4.00e-02,
763,1.20e-01,
764,1.20e-01,
765,4.00e-02,
766,1.20e-01,
767,4.00e-02,
768,4.00e-02,
769,1.20e-01,
770,1.20e-01,
771,4.00e-02,
772,4.00e-02,
773,3.60e+00,
774,3.56e+00,
775,3.68e+00,
776,3.60e+00,
777,3.76e+00,
778,3.64e+00,
779,3.80e+00,
780,3.72e+00,
781,3.80e+00,
782,3.80e+00,
783,3.76e+00,
784,3.76e+00,
785,3.84e+00,
786,3.84e+00,
787,1.64e+00,
788,1.60e+00,
789,2.40e-01,
790,3.60e-01,
791,2.00e-01,
792,2.40e-01,
793,1.60e-01,
794,2.40e-01,
795,8.00e-02,
796,8.00e-02,
797,2.00e-01,
798,8.00e-02,
799,2.00e-01,
800,1.20e-01,
801,4.00e-02,
802,1.20e-01,
803,4.00e-02,
804,1.20e-01,
805,4.00e-02,
806,1.20e-01,
807,4.00e-02,
808,4.00e-02,
809,1.20e-01,
810,4.00e-02,
811,1.20e-01,
812,4.00e-02,
813,1.20e-01,
814,4.00e-02,
815,1.20e-01,
816,4.00e-02,
817,1.80e+00,
818,1.84e+00,
819,3.64e+00,
820,3.60e+00,
821,3.68e+00,
822,3.64e+00,
823,3.76e+00,
824,3.72e+00,
825,3.80e+00,
826,3.72e+00,
827,3.80e+00,
828,3.76e+00,
829,3.80e+00,
830,3.80e+00,
831,3.68e+00,
832,3.68e+00,
833,2.80e-01,
834,3.60e-01,
835,2.00e-01,
836,2.80e-01,
837,1.60e-01,
838,2.40e-01,
839,8.00e-02,
840,2.00e-01,
841,8.00e-02,
842,8.00e-02,
843,2.00e-01,
844,1.20e-01,
845,4.00e-02,
846,4.00e-02,
847,1.20e-01,
848,4.00e-02,
849,1.60e-01,
850,1.20e-01,
851,4.00e-02,
852,4.00e-02,
853,1.20e-01,
854,1.20e-01,
855,4.00e-02,
856,4.00e-02,
857,1.20e-01,
858,4.00e-02,
859,1.20e-01,
860,4.00e-02,
861,1.20e-01,
862,4.00e-02,
863,3.60e+00,
864,3.56e+00,
865,3.68e+00,
866,3.60e+00,
867,3.76e+00,
868,3.76e+00,
869,3.64e+00,
870,3.72e+00,
871,3.80e+00,
872,3.80e+00,
873,3.76e+00,
874,3.80e+00,
875,3.76e+00,
876,3.76e+00,
877,3.84e+00,
878,3.84e+00,
879,3.76e+00,
880,3.76e+00,
881,3.84e+00,
882,3.84e+00,
883,3.76e+00,
884,3.84e+00,
885,3.80e+00,
886,3.84e+00,
887,3.80e+00,
888,3.84e+00,
889,3.80e+00,
890,3.84e+00,
891,3.76e+00,
892,3.84e+00,
893,3.20e-01,
894,4.00e-01,
895,2.00e-01,
896,2.80e-01,
897,1.60e-01,
898,1.60e-01,
899,2.40e-01,
900,8.00e-02,
901,2.00e-01,
902,2.00e-01,
903,8.00e-02,
904,8.00e-02,
905,2.00e-01,
906,8.00e-02,
907,3.60e+00,
908,3.56e+00,
909,3.68e+00,
910,3.60e+00,
911,3.76e+00,
912,3.68e+00,
913,3.76e+00,
914,3.72e+00,
915,3.80e+00,
916,3.80e+00,
917,3.76e+00,
918,3.76e+00,
919,3.84e+00,
920,3.76e+00,
921,3.84e+00,
922,3.84e+00,
923,3.76e+00,
924,3.84e+00,
925,3.76e+00,
926,3.84e+00,
927,3.76e+00,
928,3.84e+00,
929,3.80e+00,
930,3.80e+00,
931,3.84e+00,
932,3.84e+00,
933,3.80e+00,
934,3.80e+00,
935,3.84e+00,
936,3.84e+00,
937,3.20e-01,
938,4.00e-01,
939,2.40e-01,
940,2.80e-01,
941,2.00e-01,
942,2.40e-01,
943,1.60e-01,
944,2.40e-01,
945,8.00e-02,
946,8.00e-02,
947,2.00e-01,
948,2.00e-01,
949,8.00e-02,
950,8.00e-02,
951,4.80e-01,
952,4.80e-01,
953,3.64e+00,
954,3.60e+00,
955,3.68e+00,
956,3.64e+00,
957,3.76e+00,
958,3.72e+00,
959,3.80e+00,
960,3.72e+00,
961,3.80e+00,
962,3.76e+00,
963,3.84e+00,
964,3.76e+00,
965,3.84e+00,
966,3.76e+00,
967,3.84e+00,
968,3.84e+00,
969,3.80e+00,
970,3.84e+00,
971,3.76e+00,
972,3.84e+00,
973,3.80e+00,
974,3.84e+00,
975,3.80e+00,
976,3.84e+00,
977,3.80e+00,
978,3.84e+00,
979,3.80e+00,
980,3.84e+00,
981,2.56e+00,
982,2.48e+00,
983,3.20e-01,
984,3.60e-01,
985,2.00e-01,
986,2.80e-01,
987,1.60e-01,
988,2.40e-01,
989,1.60e-01,
990,2.00e-01,
991,8.00e-02,
992,2.00e-01,
993,8.00e-02,
994,8.00e-02,
995,2.00e-01,
996,8.00e-02,
997,3.20e+00,
998,3.28e+00,
999,3.68e+00,
1000,3.60e+00,
1001,3.76e+00,
1002,3.68e+00,
1003,3.76e+00,
1004,3.72e+00,
1005,3.80e+00,
1006,3.76e+00,
1007,3.80e+00,
1008,3.76e+00,
1009,3.84e+00,
1010,3.84e+00,
1011,1.08e+00,
1012,1.00e+00,
1013,2.40e-01,
1014,3.60e-01,
1015,2.00e-01,
1016,2.80e-01,
1017,1.60e-01,
1018,2.40e-01,
1019,1.20e-01,
1020,2.00e-01,
1021,8.00e-02,
1022,2.00e-01,
1023,8.00e-02,
1024,8.00e-02,
1025,2.00e-01,
1026,1.20e-01,
1027,4.00e-02,
1028,1.20e-01,
1029,4.00e-02,
1030,1.20e-01,
1031,4.00e-02,
1032,4.00e-02,
1033,1.20e-01,
1034,1.20e-01,
1035,4.00e-02,
1036,1.20e-01,
1037,4.00e-02,
1038,1.20e-01,
1039,4.00e-02,
1040,4.00e-02,
1041,8.80e-01,
1042,9.20e-01,
1043,3.64e+00,
1044,3.60e+00,
1045,3.68e+00,
1046,3.64e+00,
1047,3.76e+00,
1048,3.72e+00,
1049,3.80e+00,
1050,3.72e+00,
1051,3.80e+00,
1052,3.76e+00,
1053,3.80e+00,
1054,3.76e+00,
1055,3.84e+00,
1056,3.84e+00,
1057,3.76e+00,
1058,3.84e+00,
1059,3.76e+00,
1060,3.84e+00,
1061,3.76e+00,
1062,3.84e+00,
1063,3.80e+00,
1064,3.84e+00,
1065,3.80e+00,
1066,3.84e+00,
1067,3.80e+00,
1068,3.84e+00,
1069,3.80e+00,
1070,3.84e+00,
1071,2.52e+00,
1072,2.48e+00,
1073,2.80e-01,
1074,3.60e-01,
1075,2.00e-01,
1076,2.80e-01,
1077,1.60e-01,
1078,1.60e-01,
1079,2.40e-01,
1080,2.00e-01,
1081,8.00e-02,
1082,8.00e-02,
1083,2.00e-01,
1084,2.00e-01,
1085,8.00e-02,
1086,8.00e-02,
1087,3.60e+00,
1088,3.56e+00,
1089,3.68e+00,
1090,3.64e+00,
1091,3.76e+00,
1092,3.72e+00,
1093,3.80e+00,
1094,3.80e+00,
1095,3.72e+00,
1096,3.80e+00,
1097,3.76e+00,
1098,3.76e+00,
1099,3.84e+00,
1100,3.84e+00,
1101,3.76e+00,
1102,3.84e+00,
1103,3.76e+00,
1104,3.84e+00,
1105,3.76e+00,
1106,3.84e+00,
1107,3.76e+00,
1108,3.84e+00,
1109,3.80e+00,
1110,3.84e+00,
1111,3.80e+00,
1112,3.84e+00,
1113,3.80e+00,
1114,3.84e+00,
1115,3.68e+00,
1116,3.60e+00,
1117,3.20e-01,
1118,3.60e-01,
1119,2.00e-01,
1120,2.80e-01,
1121,1.60e-01,
1122,2.40e-01,
1123,1.60e-01,
1124,2.00e-01,
1125,8.00e-02,
1126,8.00e-02,
1127,2.00e-01,
1128,8.00e-02,
1129,2.00e-01,
1130,1.60e-01,
1131,4.00e-02,
1132,1.20e-01,
1133,4.00e-02,
1134,1.20e-01,
1135,4.00e-02,
1136,1.20e-01,
1137,4.00e-02,
1138,4.00e-02,
1139,2.00e-01,
1140,1.20e-01,
1141,4.00e-02,
1142,4.00e-02,
1143,1.20e-01,
1144,4.00e-02,
1145,1.20e-01,
1146,4.00e-02,
1147,1.20e-01,
1148,4.00e-02,
1149,1.20e-01,
1150,1.20e-01,
1151,4.00e-02,
1152,4.00e-02,
1153,1.20e-01,
1154,1.20e-01,
1155,4.00e-02,
1156,4.00e-02,
1157,1.20e-01,
1158,4.00e-02,
1159,1.20e-01,
1160,4.00e-02,
1161,1.20e-01,
1162,4.00e-02,
1163,1.20e-01,
1164,4.00e-02,
1165,1.20e-01,
1166,1.20e-01,
1167,4.00e-02,
1168,1.20e-01,
1169,4.00e-02,
1170,4.00e-02,
1171,1.20e-01,
1172,4.00e-02,
1173,1.20e-01,
1174,1.20e-01,
1175,4.00e-02,
1176,1.20e-01,
1177,4.00e-02,
1178,4.00e-02,
1179,1.20e-01,
1180,1.20e-01,
1181,4.00e-02,
1182,4.00e-02,
1183,1.20e-01,
1184,1.20e-01,
1185,4.00e-02,
1186,1.20e-01,
1187,4.00e-02,
1188,4.00e-02,
1189,1.20e-01,
1190,1.20e-01,
1191,4.00e-02,
1192,1.20e-01,
1193,4.00e-02,
1194,1.20e-01,
1195,4.00e-02,
1196,1.20e-01,
1197,4.00e-02,
1198,4.00e-02,
1199,1.20e-01,
