codes/low/low05.csv

X,CH1,Start,Increment,
Sequence,Volt,2.538400e-01,2.000000e-05
0,4.00e-02,
1,1.20e-01,
2,4.00e-02,
3,1.20e-01,
4,4.00e-02,
5,1.20e-01,
6,4.00e-02,
7,1.20e-01,
8,4.00e-02,
9,1.20e-01,
10,4.00e-02,
11,1.20e-01,
12,4.00e-02,
13,1.20e-01,
14,4.00e-02,
15,1.20e-01,
16,4.00e-02,
17,1.20e-01,
18,4.00e-02,
19,1.20e-01,
20,4.00e-02,
21,1.20e-01,
22,4.00e-02,
23,1.20e-01,
24,4.00e-02,
25,1.20e-01,
26,4.00e-02,
27,1.20e-01,
28,4.00e-02,
29,1.20e-01,
30,4.00e-02,
31,1.20e-01,
32,4.00e-02,
33,1.20e-01,
34,1.20e-01,
35,0.00e+00,
36,4.00e-02,
37,1.20e-01,
38,4.00e-02,
39,1.20e-01,
40,4.00e-02,
41,1.20e-01,
42,4.00e-02,
43,8.00e-02,
44,4.00e-02,
45,8.00e-02,
46,4.00e-02,
47,1.20e-01,
48,4.00e-02,
49,1.20e-01,
50,8.00e-02,
51,4.00e-02,
52,4.00e-02,
53,1.20e-01,
54,4.00e-02,
55,1.20e-01,
56,4.00e-02,
57,1.20e-01,
58,1.20e-01,
59,0.00e+00,
60,4.00e-02,
61,1.20e-01,
62,4.00e-02,
63,1.20e-01,
64,4.00e-02,
65,8.00e-02,
66,4.00e-02,
67,1.20e-01,
68,4.00e-02,
69,1.20e-01,
70,4.00e-02,
71,1.20e-01,
72,4.00e-02,
73,1.20e-01,
74,4.00e-02,
75,1.20e-01,
76,1.20e-01,
77,4.00e-02,
78,4.00e-02,
79,1.20e-01,
80,0.00e+00,
81,1.20e-01,
82,4.00e-02,
83,1.20e-01,
84,4.00e-02,
85,8.00e-02,
86,4.00e-02,
87,1.20e-01,
88,4.00e-02,
89,1.20e-01,
90,4.00e-02,
91,1.20e-01,
92,4.00e-02,
93,1.20e-01,
94,1.20e-01,
95,0.00e+00,
96,4.00e-02,
97,1.20e-01,
98,4.00e-02,
99,1.20e-01,
100,4.00e-02,
101,1.20e-01,
102,1.20e-01,
103,-4.00e-02,
104,4.00e-02,
105,2.56e+00,
106,2.60e+00,
107,3.72e+00,
108,3.68e+00,
109,3.84e+00,
110,3.76e+00,
111,3.88e+00,
112,3.88e+00,
113,3.80e+00,
114,3.84e+00,
115,3.96e+00,
116,3.84e+00,
117,3.96e+00,
118,3.96e+00,
119,3.84e+00,
120,3.92e+00,
121,3.96e+00,
122,3.96e+00,
123,8.00e-01,
124,8.40e-01,
125,2.00e-01,
126,2.80e-01,
127,1.20e-01,
128,1.20e-01,
129,2.40e-01,
130,1.60e-01,
131,8.00e-02,
132,1.60e-01,
133,8.00e-02,
134,1.60e-01,
135,4.00e-02,
136,4.00e-02,
137,1.20e-01,
138,4.00e-02,
139,1.20e-01,
140,4.00e-02,
141,1.20e-01,
142,1.20e-01,
143,4.00e-02,
144,4.00e-02,
145,1.20e-01,
146,4.00e-02,
147,1.20e-01,
148,1.20e-01,
149,4.00e-02,
150,4.00e-02,
151,3.72e+00,
152,3.64e+00,
153,3.80e+00,
154,3.76e+00,
155,3.88e+00,
156,3.80e+00,
157,3.88e+00,
158,3.84e+00,
159,3.96e+00,
160,3.84e+00,
161,3.96e+00,
162,3.88e+00,
163,3.96e+00,
164,3.92e+00,
165,3.96e+00,
166,3.92e+00,
167,3.96e+00,
168,3.92e+00,
169,4.00e+00,
170,3.92e+00,
171,4.00e+00,
172,3.92e+00,
173,4.00e+00,
174,3.92e+00,
175,4.00e+00,
176,3.92e+00,
177,4.00e+00,
178,3.92e+00,
179,4.00e+00,
180,3.92e+00,
181,4.00e+00,
182,4.00e+00,
183,1.52e+00,
184,1.48e+00,
185,2.40e-01,
186,3.20e-01,
187,2.00e-01,
188,2.80e-01,
189,1.20e-01,
190,2.40e-01,
191,8.00e-02,
192,1.60e-01,
193,8.00e-02,
194,8.00e-02,
195,3.72e+00,
196,3.64e+00,
197,3.80e+00,
198,3.76e+00,
199,3.84e+00,
200,3.80e+00,
201,3.88e+00,
202,3.84e+00,
203,3.96e+00,
204,3.96e+00,
205,3.84e+00,
206,3.92e+00,
207,3.96e+00,
208,3.92e+00,
209,4.00e+00,
210,3.92e+00,
211,4.00e+00,
212,3.92e+00,
213,4.00e+00,
214,4.00e+00,
215,3.92e+00,
216,4.00e+00,
217,3.92e+00,
218,3.92e+00,
219,4.00e+00,
220,3.92e+00,
221,4.00e+00,
222,4.00e+00,
223,3.92e+00,
224,3.92e+00,
225,4.00e+00,
226,4.00e+00,
227,3.20e-01,
228,3.60e-01,
229,2.40e-01,
230,2.80e-01,
231,1.20e-01,
232,2.40e-01,
233,1.20e-01,
234,2.00e-01,
235,8.00e-02,
236,8.00e-02,
237,1.60e-01,
238,8.00e-02,
239,4.00e-01,
240,4.00e-01,
241,3.76e+00,
242,3.68e+00,
243,3.84e+00,
244,3.76e+00,
245,3.88e+00,
246,3.84e+00,
247,3.92e+00,
248,3.84e+00,
249,3.96e+00,
250,3.88e+00,
251,3.96e+00,
252,3.92e+00,
253,3.96e+00,
254,3.92e+00,
255,4.00e+00,
256,4.00e+00,
257,6.80e-01,
258,6.00e-01,
259,2.40e-01,
260,3.20e-01,
261,2.00e-01,
262,2.80e-01,
263,1.20e-01,
264,2.40e-01,
265,8.00e-02,
266,8.00e-02,
267,1.60e-01,
268,1.60e-01,
269,8.00e-02,
270,1.60e-01,
271,4.00e-02,
272,1.20e-01,
273,4.00e-02,
274,4.00e-02,
275,1.20e-01,
276,4.00e-02,
277,1.20e-01,
278,1.20e-01,
279,4.00e-02,
280,4.00e-02,
281,1.20e-01,
282,1.20e-01,
283,4.00e-02,
284,4.00e-02,
285,3.68e+00,
286,3.64e+00,
287,3.80e+00,
288,3.76e+00,
289,3.84e+00,
290,3.80e+00,
291,3.88e+00,
292,3.84e+00,
293,3.96e+00,
294,3.96e+00,
295,3.84e+00,
296,3.96e+00,
297,3.84e+00,
298,3.92e+00,
299,3.96e+00,
300,3.96e+00,
301,2.64e+00,
302,2.68e+00,
303,2.40e-01,
304,3.20e-01,
305,2.00e-01,
306,2.80e-01,
307,1.20e-01,
308,2.40e-01,
309,8.00e-02,
310,1.60e-01,
311,8.00e-02,
312,8.00e-02,
313,1.60e-01,
314,1.20e-01,
315,4.00e-02,
316,4.00e-02,
317,1.20e-01,
318,1.20e-01,
319,4.00e-02,
320,4.00e-02,
321,1.20e-01,
322,1.20e-01,
323,4.00e-02,
324,4.00e-02,
325,1.20e-01,
326,1.20e-01,
327,4.00e-02,
328,4.00e-02,
329,1.24e+00,
330,1.28e+00,
331,3.72e+00,
332,3.68e+00,
333,3.84e+00,
334,3.76e+00,
335,3.88e+00,
336,3.88e+00,
337,3.80e+00,
338,3.84e+00,
339,3.96e+00,
340,3.96e+00,
341,3.84e+00,
342,3.96e+00,
343,3.88e+00,
344,3.92e+00,
345,3.96e+00,
346,3.92e+00,
347,3.96e+00,
348,3.92e+00,
349,4.00e+00,
350,3.92e+00,
351,4.00e+00,
352,3.92e+00,
353,4.00e+00,
354,4.00e+00,
355,3.92e+00,
356,3.92e+00,
357,4.00e+00,
358,3.92e+00,
359,4.00e+00,
360,3.92e+00,
361,4.00e+00,
362,3.96e+00,
363,2.80e-01,
364,4.00e-01,
365,2.00e-01,
366,2.80e-01,
367,1.20e-01,
368,2.40e-01,
369,8.00e-02,
370,1.60e-01,
371,8.00e-02,
372,1.60e-01,
373,8.00e-02,
374,8.00e-02,
375,3.72e+00,
376,3.72e+00,
377,3.84e+00,
378,3.76e+00,
379,3.84e+00,
380,3.80e+00,
381,3.88e+00,
382,3.84e+00,
383,3.96e+00,
384,3.84e+00,
385,3.96e+00,
386,3.92e+00,
387,3.96e+00,
388,3.92e+00,
389,3.96e+00,
390,3.96e+00,
391,2.08e+00,
392,2.00e+00,
393,2.40e-01,
394,3.20e-01,
395,2.00e-01,
396,2.40e-01,
397,1.20e-01,
398,2.40e-01,
399,8.00e-02,
400,1.60e-01,
401,8.00e-02,
402,1.60e-01,
403,4.00e-02,
404,1.20e-01,
405,4.00e-02,
406,1.20e-01,
407,4.00e-02,
408,1.20e-01,
409,4.00e-02,
410,4.00e-02,
411,1.20e-01,
412,1.20e-01,
413,4.00e-02,
414,4.00e-02,
415,1.20e-01,
416,1.20e-01,
417,4.00e-02,
418,4.00e-02,
419,1.76e+00,
420,1.80e+00,
421,3.72e+00,
422,3.68e+00,
423,3.84e+00,
424,3.76e+00,
425,3.84e+00,
426,3.80e+00,
427,3.88e+00,
428,3.84e+00,
429,3.96e+00,
430,3.84e+00,
431,3.96e+00,
432,3.96e+00,
433,3.88e+00,
434,3.96e+00,
435,3.48e+00,
436,3.44e+00,
437,2.40e-01,
438,3.20e-01,
439,2.00e-01,
440,2.80e-01,
441,1.20e-01,
442,2.40e-01,
443,8.00e-02,
444,1.60e-01,
445,8.00e-02,
446,1.60e-01,
447,4.00e-02,
448,1.20e-01,
449,4.00e-02,
450,1.20e-01,
451,4.00e-02,
452,4.00e-02,
453,1.20e-01,
454,1.20e-01,
455,4.00e-02,
456,4.00e-02,
457,1.20e-01,
458,4.00e-02,
459,1.20e-01,
460,4.00e-02,
461,1.20e-01,
462,4.00e-02,
463,1.20e-01,
464,4.00e-02,
465,3.68e+00,
466,3.64e+00,
467,3.80e+00,
468,3.76e+00,
469,3.84e+00,
470,3.80e+00,
471,3.88e+00,
472,3.88e+00,
473,3.80e+00,
474,3.84e+00,
475,3.96e+00,
476,3.96e+00,
477,3.84e+00,
478,3.96e+00,
479,3.88e+00,
480,3.96e+00,
481,4.40e-01,
482,4.40e-01,
483,2.00e-01,
484,2.80e-01,
485,1.20e-01,
486,1.20e-01,
487,2.40e-01,
488,1.60e-01,
489,8.00e-02,
490,1.60e-01,
491,4.00e-02,
492,1.20e-01,
493,4.00e-02,
494,4.00e-02,
495,1.20e-01,
496,1.20e-01,
497,4.00e-02,
498,4.00e-02,
499,1.20e-01,
500,1.20e-01,
501,4.00e-02,
502,4.00e-02,
503,1.20e-01,
504,4.00e-02,
505,1.20e-01,
506,4.00e-02,
507,1.20e-01,
508,4.00e-02,
509,2.52e+00,
510,2.56e+00,
511,3.72e+00,
512,3.68e+00,
513,3.84e+00,
514,3.76e+00,
515,3.88e+00,
516,3.80e+00,
517,3.88e+00,
518,3.84e+00,
519,3.96e+00,
520,3.96e+00,
521,3.84e+00,
522,3.96e+00,
523,3.88e+00,
524,3.92e+00,
525,3.96e+00,
526,3.92e+00,
527,4.00e+00,
528,3.92e+00,
529,3.96e+00,
530,3.92e+00,
531,3.96e+00,
532,3.92e+00,
533,4.00e+00,
534,3.92e+00,
535,4.00e+00,
536,3.92e+00,
537,3.96e+00,
538,3.92e+00,
539,3.96e+00,
540,3.96e+00,
541,1.60e+00,
542,1.56e+00,
543,2.40e-01,
544,3.20e-01,
545,2.00e-01,
546,2.40e-01,
547,1.20e-01,
548,2.40e-01,
549,8.00e-02,
550,1.60e-01,
551,8.00e-02,
552,1.60e-01,
553,4.00e-02,
554,1.20e-01,
555,3.72e+00,
556,3.68e+00,
557,3.80e+00,
558,3.76e+00,
559,3.84e+00,
560,3.88e+00,
561,3.80e+00,
562,3.84e+00,
563,3.96e+00,
564,3.84e+00,
565,3.96e+00,
566,3.96e+00,
567,3.84e+00,
568,3.96e+00,
569,3.92e+00,
570,3.92e+00,
571,3.96e+00,
572,3.92e+00,
573,4.00e+00,
574,3.92e+00,
575,4.00e+00,
576,3.92e+00,
577,4.00e+00,
578,3.92e+00,
579,4.00e+00,
580,4.00e+00,
581,3.92e+00,
582,3.92e+00,
583,4.00e+00,
584,3.96e+00,
585,2.80e-01,
586,3.60e-01,
587,2.40e-01,
588,2.80e-01,
589,1.20e-01,
590,2.40e-01,
591,1.20e-01,
592,1.60e-01,
593,8.00e-02,
594,1.60e-01,
595,8.00e-02,
596,1.60e-01,
597,4.00e-02,
598,4.00e-02,
599,3.04e+00,
600,3.08e+00,
601,3.80e+00,
602,3.76e+00,
603,3.84e+00,
604,3.80e+00,
605,3.88e+00,
606,3.84e+00,
607,3.92e+00,
608,3.84e+00,
609,3.96e+00,
610,3.84e+00,
611,3.96e+00,
612,3.92e+00,
613,4.00e+00,
614,3.92e+00,
615,3.96e+00,
616,3.92e+00,
617,4.00e+00,
618,3.92e+00,
619,4.00e+00,
620,3.92e+00,
621,4.00e+00,
622,3.92e+00,
623,4.00e+00,
624,3.92e+00,
625,4.00e+00,
626,3.92e+00,
627,4.00e+00,
628,4.00e+00,
629,3.04e+00,
630,3.00e+00,
631,2.80e-01,
632,3.20e-01,
633,2.00e-01,
634,2.80e-01,
635,1.20e-01,
636,2.40e-01,
637,8.00e-02,
638,1.60e-01,
639,8.00e-02,
640,1.60e-01,
641,8.00e-02,
642,8.00e-02,
643,1.08e+00,
644,1.16e+00,
645,3.76e+00,
646,3.68e+00,
647,3.84e+00,
648,3.80e+00,
649,3.88e+00,
650,3.80e+00,
651,3.92e+00,
652,3.84e+00,
653,3.96e+00,
654,3.84e+00,
655,3.96e+00,
656,3.96e+00,
657,3.92e+00,
658,3.96e+00,
659,2.80e+00,
660,2.76e+00,
661,2.40e-01,
662,3.20e-01,
663,2.00e-01,
664,2.80e-01,
665,1.20e-01,
666,2.40e-01,
667,8.00e-02,
668,1.60e-01,
669,8.00e-02,
670,8.00e-02,
671,1.60e-01,
672,1.20e-01,
673,4.00e-02,
674,1.20e-01,
675,4.00e-02,
676,4.00e-02,
677,1.20e-01,
678,4.00e-02,
679,1.20e-01,
680,4.00e-02,
681,1.20e-01,
682,1.20e-01,
683,4.00e-02,
684,4.00e-02,
685,1.20e-01,
686,4.00e-02,
687,1.20e-01,
688,4.00e-02,
689,3.68e+00,
690,3.64e+00,
691,3.80e+00,
692,3.72e+00,
693,3.84e+00,
694,3.80e+00,
695,3.88e+00,
696,3.88e+00,
697,3.84e+00,
698,3.84e+00,
699,3.96e+00,
700,3.88e+00,
701,3.96e+00,
702,3.92e+00,
703,3.96e+00,
704,3.92e+00,
705,3.96e+00,
706,3.92e+00,
707,3.96e+00,
708,3.92e+00,
709,4.00e+00,
710,3.92e+00,
711,4.00e+00,
712,3.92e+00,
713,4.00e+00,
714,3.92e+00,
715,4.00e+00,
716,3.92e+00,
717,4.00e+00,
718,4.00e+00,
719,1.92e+00,
720,1.92e+00,
721,2.40e-01,
722,3.20e-01,
723,2.00e-01,
724,2.80e-01,
725,1.20e-01,
726,2.40e-01,
727,8.00e-02,
728,1.60e-01,
729,8.00e-02,
730,1.60e-01,
731,4.00e-02,
732,4.00e-02,
733,2.00e+00,
734,2.08e+00,
735,3.80e+00,
736,3.72e+00,
737,3.84e+00,
738,3.80e+00,
739,3.88e+00,
740,3.88e+00,
741,3.80e+00,
742,3.84e+00,
743,3.96e+00,
744,3.84e+00,
745,3.96e+00,
746,3.96e+00,
747,3.92e+00,
748,3.96e+00,
749,1.08e+00,
750,1.04e+00,
751,2.40e-01,
752,3.20e-01,
753,2.00e-01,
754,2.40e-01,
755,1.20e-01,
756,2.00e-01,
757,8.00e-02,
758,1.60e-01,
759,8.00e-02,
760,1.60e-01,
761,4.00e-02,
762,4.00e-02,
763,1.20e-01,
764,1.20e-01,
765,4.00e-02,
766,4.00e-02,
767,1.20e-01,
768,4.00e-02,
769,1.20e-01,
770,1.20e-01,
771,4.00e-02,
772,4.00e-02,
773,1.20e-01,
774,4.00e-02,
775,1.20e-01,
776,4.00e-02,
777,1.20e-01,
778,4.00e-02,
779,3.68e+00,
780,3.64e+00,
781,3.80e+00,
782,3.76e+00,
783,3.84e+00,
784,3.80e+00,
785,3.88e+00,
786,3.80e+00,
787,3.88e+00,
788,3.84e+00,
789,3.96e+00,
790,3.96e+00,
791,3.84e+00,
792,3.88e+00,
793,3.96e+00,
794,3.96e+00,
795,3.20e-01,
796,4.00e-01,
797,2.00e-01,
798,2.80e-01,
799,1.20e-01,
800,2.40e-01,
801,8.00e-02,
802,1.60e-01,
803,8.00e-02,
804,1.60e-01,
805,8.00e-02,
806,1.20e-01,
807,4.00e-02,
808,4.00e-02,
809,1.20e-01,
810,4.00e-02,
811,1.20e-01,
812,4.00e-02,
813,1.20e-01,
814,4.00e-02,
815,1.20e-01,
816,1.20e-01,
817,4.00e-02,
818,1.20e-01,
819,4.00e-02,
820,1.20e-01,
821,4.00e-02,
822,4.00e-02,
823,1.96e+00,
824,2.00e+00,
825,3.72e+00,
826,3.68e+00,
827,3.84e+00,
828,3.76e+00,
829,3.88e+00,
830,3.80e+00,
831,3.88e+00,
832,3.84e+00,
833,3.96e+00,
834,3.96e+00,
835,3.84e+00,
836,3.96e+00,
837,3.84e+00,
838,3.96e+00,
839,2.80e-01,
840,3.20e-01,
841,2.00e-01,
842,2.80e-01,
843,1.20e-01,
844,2.40e-01,
845,8.00e-02,
846,1.60e-01,
847,8.00e-02,
848,1.60e-01,
849,4.00e-02,
850,4.00e-02,
851,1.20e-01,
852,1.20e-01,
853,4.00e-02,
854,1.20e-01,
855,4.00e-02,
856,4.00e-02,
857,1.20e-01,
858,4.00e-02,
859,1.20e-01,
860,4.00e-02,
861,1.20e-01,
862,4.00e-02,
863,1.20e-01,
864,4.00e-02,
865,1.20e-01,
866,4.00e-02,
867,1.20e-01,
868,8.00e-02,
869,3.68e+00,
870,3.64e+00,
871,3.80e+00,
872,3.76e+00,
873,3.84e+00,
874,3.80e+00,
875,3.88e+00,
876,3.88e+00,
877,3.84e+00,
878,3.84e+00,
879,3.96e+00,
880,3.84e+00,
881,3.96e+00,
882,3.96e+00,
883,2.76e+00,
884,2.68e+00,
885,2.40e-01,
886,3.20e-01,
887,2.00e-01,
888,2.40e-01,
889,1.20e-01,
890,2.00e-01,
891,8.00e-02,
892,1.60e-01,
893,8.00e-02,
894,1.60e-01,
895,4.00e-02,
896,4.00e-02,
897,1.20e-01,
898,4.00e-02,
899,1.20e-01,
900,4.00e-02,
901,1.20e-01,
902,1.20e-01,
903,4.00e-02,
904,4.00e-02,
905,1.20e-01,
906,4.00e-02,
907,1.20e-01,
908,1.20e-01,
909,4.00e-02,
910,4.00e-02,
911,1.20e-01,
912,4.00e-02,
913,3.64e+00,
914,3.60e+00,
915,3.80e+00,
916,3.72e+00,
917,3.84e+00,
918,3.76e+00,
919,3.88e+00,
920,3.88e+00,
921,3.80e+00,
922,3.84e+00,
923,3.96e+00,
924,3.96e+00,
925,3.84e+00,
926,3.96e+00,
927,3.84e+00,
928,3.96e+00,
929,3.60e-01,
930,4.00e-01,
931,2.00e-01,
932,2.80e-01,
933,1.20e-01,
934,2.40e-01,
935,8.00e-02,
936,8.00e-02,
937,1.60e-01,
938,1.60e-01,
939,4.00e-02,
940,1.20e-01,
941,4.00e-02,
942,4.00e-02,
943,1.20e-01,
944,1.20e-01,
945,4.00e-02,
946,4.00e-02,
947,1.20e-01,
948,1.20e-01,
949,4.00e-02,
950,4.00e-02,
951,1.20e-01,
952,4.00e-02,
953,1.20e-01,
954,4.00e-02,
955,1.20e-01,
956,4.00e-02,
957,1.00e+00,
958,1.12e+00,
959,3.72e+00,
960,3.68e+00,
961,3.80e+00,
962,3.76e+00,
963,3.84e+00,
964,3.80e+00,
965,3.88e+00,
966,3.88e+00,
967,3.84e+00,
968,3.84e+00,
969,3.96e+00,
970,3.96e+00,
971,3.84e+00,
972,3.96e+00,
973,3.60e-01,
974,4.00e-01,
975,2.00e-01,
976,2.80e-01,
977,1.20e-01,
978,2.40e-01,
979,8.00e-02,
980,1.60e-01,
981,8.00e-02,
982,1.60e-01,
983,4.00e-02,
984,4.00e-02,
985,1.20e-01,
986,4.00e-02,
987,1.20e-01,
988,1.20e-01,
989,4.00e-02,
990,4.00e-02,
991,1.20e-01,
992,4.00e-02,
993,1.20e-01,
994,4.00e-02,
995,1.20e-01,
996,4.00e-02,
997,1.20e-01,
998,4.00e-02,
999,1.20e-01,
1000,4.00e-02,
1001,1.20e-01,
1002,4.00e-02,
1003,3.68e+00,
1004,3.64e+00,
1005,3.80e+00,
1006,3.76e+00,
1007,3.84e+00,
1008,3.80e+00,
1009,3.88e+00,
1010,3.88e+00,
1011,3.80e+00,
1012,3.84e+00,
1013,3.96e+00,
1014,3.84e+00,
1015,3.96e+00,
1016,3.88e+00,
1017,3.96e+00,
1018,3.96e+00,
1019,2.80e-01,
1020,3.20e-01,
1021,2.00e-01,
1022,2.80e-01,
1023,1.20e-01,
1024,2.40e-01,
1025,8.00e-02,
1026,8.00e-02,
1027,1.60e-01,
1028,1.60e-01,
1029,4.00e-02,
1030,4.00e-02,
1031,1.60e-01,
1032,4.00e-02,
1033,1.20e-01,
1034,1.20e-01,
1035,4.00e-02,
1036,1.20e-01,
1037,4.00e-02,
1038,1.20e-01,
1039,4.00e-02,
1040,4.00e-02,
1041,1.20e-01,
1042,1.20e-01,
1043,4.00e-02,
1044,4.00e-02,
1045,1.20e-01,
1046,4.00e-02,
1047,2.12e+00,
1048,2.20e+00,
1049,3.72e+00,
1050,3.68e+00,
1051,3.84e+00,
1052,3.76e+00,
1053,3.88e+00,
1054,3.80e+00,
1055,3.88e+00,
1056,3.84e+00,
1057,3.96e+00,
1058,3.96e+00,
1059,3.84e+00,
1060,3.96e+00,
1061,3.84e+00,
1062,3.96e+00,
1063,3.60e-01,
1064,3.60e-01,
1065,2.00e-01,
1066,2.80e-01,
1067,1.20e-01,
1068,2.40e-01,
1069,1.20e-01,
1070,1.60e-01,
1071,8.00e-02,
1072,1.60e-01,
1073,4.00e-02,
1074,1.20e-01,
1075,4.00e-02,
1076,4.00e-02,
1077,1.20e-01,
1078,1.20e-01,
1079,4.00e-02,
1080,1.20e-01,
1081,4.00e-02,
1082,4.00e-02,
1083,1.20e-01,
1084,1.20e-01,
1085,4.00e-02,
1086,1.20e-01,
1087,4.00e-02,
1088,4.00e-02,
1089,1.20e-01,
1090,4.00e-02,
1091,1.20e-01,
1092,4.00e-02,
1093,3.68e+00,
1094,3.64e+00,
1095,3.80e+00,
1096,3.76e+00,
1097,3.84e+00,
1098,3.80e+00,
1099,3.88e+00,
1100,3.88e+00,
1101,3.84e+00,
1102,3.84e+00,
1103,3.96e+00,
1104,3.96e+00,
1105,3.84e+00,
1106,3.96e+00,
1107,3.04e+00,
1108,2.96e+00,
1109,2.40e-01,
1110,3.20e-01,
1111,2.00e-01,
1112,2.80e-01,
1113,1.20e-01,
1114,2.40e-01,
1115,8.00e-02,
1116,1.60e-01,
1117,8.00e-02,
1118,1.60e-01,
1119,4.00e-02,
1120,1.20e-01,
1121,4.00e-02,
1122,1.20e-01,
1123,4.00e-02,
1124,4.00e-02,
1125,1.20e-01,
1126,4.00e-02,
1127,1.20e-01,
1128,4.00e-02,
1129,1.20e-01,
1130,4.00e-02,
1131,1.20e-01,
1132,1.20e-01,
1133,4.00e-02,
1134,4.00e-02,
1135,1.20e-01,
1136,4.00e-02,
1137,1.20e-01,
1138,4.00e-02,
1139,1.20e-01,
1140,1.20e-01,
1141,4.00e-02,
1142,4.00e-02,
1143,1.20e-01,
1144,4.00e-02,
1145,1.20e-01,
1146,4.00e-02,
1147,1.20e-01,
1148,4.00e-02,
1149,1.20e-01,
1150,4.00e-02,
1151,1.20e-01,
1152,4.00e-02,
1153,1.20e-01,
1154,4.00e-02,
1155,1.20e-01,
1156,4.00e-02,
1157,1.20e-01,
1158,4.00e-02,
1159,1.20e-01,
1160,4.00e-02,
1161,1.20e-01,
1162,4.00e-02,
1163,1.20e-01,
1164,4.00e-02,
1165,1.20e-01,
1166,4.00e-02,
1167,1.20e-01,
1168,4.00e-02,
1169,1.20e-01,
1170,4.00e-02,
1171,1.20e-01,
1172,4.00e-02,
1173,1.20e-01,
1174,1.20e-01,
1175,4.00e-02,
1176,0.00e+00,
1177,1.20e-01,
1178,4.00e-02,
1179,1.20e-01,
1180,4.00e-02,
1181,1.20e-01,
1182,4.00e-02,
1183,1.20e-01,
1184,4.00e-02,
1185,1.20e-01,
1186,4.00e-02,
1187,1.20e-01,
1188,8.00e-02,
1189,0.00e+00,
1190,4.00e-02,
1191,1.20e-01,
1192,4.00e-02,
1193,1.20e-01,
1194,4.00e-02,
1195,8.00e-02,
1196,4.00e-02,
1197,8.00e-02,
1198,8.00e-02,
1199,-4.00e-02,
