codes/low/low09.csv

X,CH1,Start,Increment,
Sequence,Volt,4.933600e-01,2.000000e-05
0,4.00e-02,
1,1.20e-01,
2,4.00e-02,
3,1.20e-01,
4,4.00e-02,
5,1.20e-01,
6,4.00e-02,
7,1.20e-01,
8,4.00e-02,
9,1.20e-01,
10,4.00e-02,
11,1.20e-01,
12,1.20e-01,
13,4.00e-02,
14,4.00e-02,
15,1.20e-01,
16,4.00e-02,
17,1.20e-01,
18,1.20e-01,
19,4.00e-02,
20,4.00e-02,
21,1.20e-01,
22,1.20e-01,
23,0.00e+00,
24,4.00e-02,
25,1.20e-01,
26,4.00e-02,
27,1.20e-01,
28,4.00e-02,
29,1.20e-01,
30,4.00e-02,
31,1.20e-01,
32,4.00e-02,
33,1.20e-01,
34,4.00e-02,
35,1.20e-01,
36,4.00e-02,
37,1.20e-01,
38,4.00e-02,
39,1.20e-01,
40,4.00e-02,
41,1.20e-01,
42,4.00e-02,
43,1.20e-01,
44,1.20e-01,
45,4.00e-02,
46,4.00e-02,
47,1.20e-01,
48,4.00e-02,
49,1.20e-01,
50,4.00e-02,
51,1.20e-01,
52,4.00e-02,
53,1.20e-01,
54,4.00e-02,
55,1.20e-01,
56,4.00e-02,
57,1.20e-01,
58,4.00e-02,
59,1.20e-01,
60,4.00e-02,
61,1.20e-01,
62,4.00e-02,
63,1.20e-01,
64,4.00e-02,
65,1.20e-01,
66,4.00e-02,
67,1.20e-01,
68,4.00e-02,
69,1.20e-01,
70,4.00e-02,
71,1.20e-01,
72,4.00e-02,
73,1.20e-01,
74,4.00e-02,
75,1.20e-01,
76,4.00e-02,
77,1.20e-01,
78,4.00e-02,
79,1.20e-01,
80,4.00e-02,
81,1.20e-01,
82,1.20e-01,
83,0.00e+00,
84,1.20e-01,
85,4.00e-02,
86,4.00e-02,
87,1.20e-01,
88,4.00e-02,
89,1.20e-01,
90,4.00e-02,
91,1.20e-01,
92,4.00e-02,
93,1.20e-01,
94,4.00e-02,
95,1.20e-01,
96,4.00e-02,
97,1.20e-01,
98,4.00e-02,
99,1.20e-01,
100,4.00e-02,
101,1.20e-01,
102,1.20e-01,
103,0.00e+00,
104,4.00e-02,
105,3.68e+00,
106,3.64e+00,
107,3.80e+00,
108,3.72e+00,
109,3.84e+00,
110,3.76e+00,
111,3.88e+00,
112,3.80e+00,
113,3.88e+00,
114,3.84e+00,
115,3.96e+00,
116,3.96e+00,
117,3.84e+00,
118,3.96e+00,
119,3.84e+00,
120,3.92e+00,
121,3.96e+00,
122,3.92e+00,
123,3.96e+00,
124,3.96e+00,
125,2.80e-01,
126,4.00e-01,
127,2.00e-01,
128,2.80e-01,
129,1.20e-01,
130,2.40e-01,
131,1.20e-01,
132,1.60e-01,
133,8.00e-02,
134,1.60e-01,
135,8.00e-02,
136,1.20e-01,
137,4.00e-02,
138,4.00e-02,
139,1.20e-01,
140,4.00e-02,
141,1.20e-01,
142,1.20e-01,
143,4.00e-02,
144,4.00e-02,
145,1.20e-01,
146,4.00e-02,
147,1.20e-01,
148,4.00e-02,
149,1.96e+00,
150,2.04e+00,
151,3.72e+00,
152,3.68e+00,
153,3.84e+00,
154,3.80e+00,
155,3.88e+00,
156,3.88e+00,
157,3.80e+00,
158,3.84e+00,
159,3.96e+00,
160,3.96e+00,
161,3.84e+00,
162,3.92e+00,
163,3.96e+00,
164,3.92e+00,
165,3.96e+00,
166,3.92e+00,
167,4.00e+00,
168,3.92e+00,
169,4.00e+00,
170,3.92e+00,
171,4.00e+00,
172,3.92e+00,
173,4.00e+00,
174,3.92e+00,
175,4.00e+00,
176,4.00e+00,
177,3.92e+00,
178,4.00e+00,
179,3.92e+00,
180,3.92e+00,
181,4.00e+00,
182,4.00e+00,
183,2.80e-01,
184,3.60e-01,
185,2.00e-01,
186,2.80e-01,
187,1.20e-01,
188,1.20e-01,
189,2.40e-01,
190,1.60e-01,
191,8.00e-02,
192,8.00e-02,
193,2.80e-01,
194,3.20e-01,
195,3.76e+00,
196,3.72e+00,
197,3.84e+00,
198,3.80e+00,
199,3.88e+00,
200,3.84e+00,
201,3.96e+00,
202,3.84e+00,
203,3.96e+00,
204,3.96e+00,
205,3.92e+00,
206,3.92e+00,
207,3.96e+00,
208,3.92e+00,
209,4.00e+00,
210,3.92e+00,
211,4.00e+00,
212,4.00e+00,
213,3.92e+00,
214,4.00e+00,
215,3.92e+00,
216,4.00e+00,
217,3.92e+00,
218,3.92e+00,
219,4.00e+00,
220,3.92e+00,
221,4.00e+00,
222,4.00e+00,
223,3.92e+00,
224,3.92e+00,
225,4.00e+00,
226,4.00e+00,
227,2.08e+00,
228,2.08e+00,
229,2.80e-01,
230,3.20e-01,
231,2.00e-01,
232,2.80e-01,
233,1.20e-01,
234,2.40e-01,
235,1.20e-01,
236,1.60e-01,
237,8.00e-02,
238,8.00e-02,
239,3.56e+00,
240,3.60e+00,
241,3.80e+00,
242,3.76e+00,
243,3.88e+00,
244,3.88e+00,
245,3.80e+00,
246,3.84e+00,
247,3.96e+00,
248,3.88e+00,
249,3.96e+00,
250,3.96e+00,
251,3.92e+00,
252,3.92e+00,
253,3.96e+00,
254,3.92e+00,
255,4.00e+00,
256,4.00e+00,
257,2.80e-01,
258,4.00e-01,
259,2.40e-01,
260,2.80e-01,
261,2.00e-01,
262,2.40e-01,
263,1.20e-01,
264,2.00e-01,
265,8.00e-02,
266,8.00e-02,
267,1.60e-01,
268,1.60e-01,
269,8.00e-02,
270,8.00e-02,
271,1.60e-01,
272,4.00e-02,
273,1.20e-01,
274,4.00e-02,
275,1.20e-01,
276,1.20e-01,
277,4.00e-02,
278,1.20e-01,
279,4.00e-02,
280,4.00e-02,
281,1.20e-01,
282,4.00e-02,
283,1.20e-01,
284,4.00e-02,
285,3.72e+00,
286,3.68e+00,
287,3.80e+00,
288,3.76e+00,
289,3.84e+00,
290,3.80e+00,
291,3.88e+00,
292,3.84e+00,
293,3.96e+00,
294,3.84e+00,
295,3.96e+00,
296,3.96e+00,
297,3.92e+00,
298,3.92e+00,
299,3.96e+00,
300,3.92e+00,
301,4.00e+00,
302,3.96e+00,
303,1.04e+00,
304,1.00e+00,
305,2.40e-01,
306,3.20e-01,
307,2.00e-01,
308,2.80e-01,
309,1.20e-01,
310,2.00e-01,
311,8.00e-02,
312,8.00e-02,
313,1.60e-01,
314,1.60e-01,
315,4.00e-02,
316,1.20e-01,
317,4.00e-02,
318,1.20e-01,
319,4.00e-02,
320,1.20e-01,
321,4.00e-02,
322,1.20e-01,
323,4.00e-02,
324,4.00e-02,
325,1.20e-01,
326,1.20e-01,
327,4.00e-02,
328,4.00e-02,
329,2.28e+00,
330,2.28e+00,
331,3.72e+00,
332,3.68e+00,
333,3.84e+00,
334,3.76e+00,
335,3.88e+00,
336,3.88e+00,
337,3.80e+00,
338,3.84e+00,
339,3.96e+00,
340,3.96e+00,
341,3.84e+00,
342,3.96e+00,
343,3.92e+00,
344,3.92e+00,
345,3.96e+00,
346,3.92e+00,
347,4.00e+00,
348,3.92e+00,
349,4.00e+00,
350,3.92e+00,
351,4.00e+00,
352,3.92e+00,
353,4.00e+00,
354,4.00e+00,
355,3.92e+00,
356,4.00e+00,
357,3.92e+00,
358,3.92e+00,
359,4.00e+00,
360,3.92e+00,
361,4.00e+00,
362,3.92e+00,
363,4.00e+00,
364,4.00e+00,
365,2.80e-01,
366,4.00e-01,
367,2.00e-01,
368,2.80e-01,
369,1.20e-01,
370,2.40e-01,
371,1.20e-01,
372,8.00e-02,
373,1.72e+00,
374,1.76e+00,
375,3.80e+00,
376,3.76e+00,
377,3.84e+00,
378,3.80e+00,
379,3.88e+00,
380,3.84e+00,
381,3.96e+00,
382,3.96e+00,
383,3.84e+00,
384,3.96e+00,
385,3.88e+00,
386,3.92e+00,
387,3.96e+00,
388,3.92e+00,
389,3.96e+00,
390,3.92e+00,
391,4.00e+00,
392,3.96e+00,
393,2.80e-01,
394,4.00e-01,
395,2.40e-01,
396,2.80e-01,
397,1.20e-01,
398,1.20e-01,
399,2.40e-01,
400,1.60e-01,
401,8.00e-02,
402,8.00e-02,
403,1.60e-01,
404,1.60e-01,
405,4.00e-02,
406,4.00e-02,
407,1.20e-01,
408,1.20e-01,
409,4.00e-02,
410,4.00e-02,
411,1.20e-01,
412,1.20e-01,
413,4.00e-02,
414,4.00e-02,
415,1.20e-01,
416,1.20e-01,
417,4.00e-02,
418,4.00e-02,
419,3.00e+00,
420,3.04e+00,
421,3.80e+00,
422,3.68e+00,
423,3.84e+00,
424,3.80e+00,
425,3.88e+00,
426,3.80e+00,
427,3.92e+00,
428,3.84e+00,
429,3.96e+00,
430,3.84e+00,
431,3.96e+00,
432,3.92e+00,
433,3.96e+00,
434,3.96e+00,
435,3.92e+00,
436,3.96e+00,
437,2.88e+00,
438,2.84e+00,
439,2.40e-01,
440,3.20e-01,
441,2.00e-01,
442,2.80e-01,
443,1.20e-01,
444,2.40e-01,
445,8.00e-02,
446,8.00e-02,
447,1.60e-01,
448,1.60e-01,
449,8.00e-02,
450,1.20e-01,
451,4.00e-02,
452,4.00e-02,
453,1.20e-01,
454,1.20e-01,
455,4.00e-02,
456,1.20e-01,
457,4.00e-02,
458,4.00e-02,
459,1.20e-01,
460,4.00e-02,
461,1.20e-01,
462,4.00e-02,
463,2.00e-01,
464,2.00e-01,
465,3.72e+00,
466,3.68e+00,
467,3.80e+00,
468,3.76e+00,
469,3.84e+00,
470,3.80e+00,
471,3.88e+00,
472,3.84e+00,
473,3.96e+00,
474,3.96e+00,
475,3.84e+00,
476,3.96e+00,
477,3.84e+00,
478,3.96e+00,
479,3.92e+00,
480,3.96e+00,
481,2.80e-01,
482,4.00e-01,
483,2.00e-01,
484,2.80e-01,
485,1.20e-01,
486,2.40e-01,
487,8.00e-02,
488,1.60e-01,
489,8.00e-02,
490,1.60e-01,
491,8.00e-02,
492,1.20e-01,
493,4.00e-02,
494,4.00e-02,
495,1.20e-01,
496,4.00e-02,
497,1.20e-01,
498,4.00e-02,
499,1.20e-01,
500,1.20e-01,
501,4.00e-02,
502,4.00e-02,
503,1.20e-01,
504,1.20e-01,
505,4.00e-02,
506,4.00e-02,
507,1.20e-01,
508,4.00e-02,
509,3.68e+00,
510,3.64e+00,
511,3.80e+00,
512,3.76e+00,
513,3.84e+00,
514,3.80e+00,
515,3.88e+00,
516,3.88e+00,
517,3.80e+00,
518,3.84e+00,
519,3.96e+00,
520,3.96e+00,
521,3.84e+00,
522,3.92e+00,
523,3.96e+00,
524,3.92e+00,
525,3.96e+00,
526,3.92e+00,
527,3.96e+00,
528,3.92e+00,
529,4.00e+00,
530,3.92e+00,
531,4.00e+00,
532,3.92e+00,
533,4.00e+00,
534,3.92e+00,
535,4.00e+00,
536,3.92e+00,
537,4.00e+00,
538,3.92e+00,
539,4.00e+00,
540,3.96e+00,
541,3.60e-01,
542,4.40e-01,
543,2.40e-01,
544,2.80e-01,
545,1.20e-01,
546,1.20e-01,
547,2.40e-01,
548,1.60e-01,
549,8.00e-02,
550,1.60e-01,
551,8.00e-02,
552,4.00e-02,
553,3.48e+00,
554,3.52e+00,
555,3.80e+00,
556,3.76e+00,
557,3.84e+00,
558,3.80e+00,
559,3.88e+00,
560,3.88e+00,
561,3.80e+00,
562,3.84e+00,
563,3.96e+00,
564,3.96e+00,
565,3.88e+00,
566,3.96e+00,
567,3.92e+00,
568,3.96e+00,
569,3.92e+00,
570,3.92e+00,
571,4.00e+00,
572,3.92e+00,
573,4.00e+00,
574,3.92e+00,
575,4.00e+00,
576,3.92e+00,
577,4.00e+00,
578,3.92e+00,
579,4.00e+00,
580,4.00e+00,
581,3.92e+00,
582,3.92e+00,
583,4.00e+00,
584,4.00e+00,
585,1.96e+00,
586,1.96e+00,
587,2.40e-01,
588,3.20e-01,
589,2.00e-01,
590,2.80e-01,
591,1.20e-01,
592,2.40e-01,
593,8.00e-02,
594,1.60e-01,
595,8.00e-02,
596,8.00e-02,
597,2.00e-01,
598,1.60e-01,
599,3.72e+00,
600,3.68e+00,
601,3.84e+00,
602,3.76e+00,
603,3.88e+00,
604,3.88e+00,
605,3.80e+00,
606,3.84e+00,
607,3.96e+00,
608,3.88e+00,
609,3.96e+00,
610,3.92e+00,
611,3.96e+00,
612,3.92e+00,
613,3.96e+00,
614,3.92e+00,
615,4.00e+00,
616,3.92e+00,
617,4.00e+00,
618,3.92e+00,
619,4.00e+00,
620,3.92e+00,
621,4.00e+00,
622,4.00e+00,
623,3.92e+00,
624,3.92e+00,
625,4.00e+00,
626,3.92e+00,
627,4.00e+00,
628,3.92e+00,
629,4.00e+00,
630,4.00e+00,
631,2.80e-01,
632,4.00e-01,
633,2.40e-01,
634,2.80e-01,
635,1.60e-01,
636,2.40e-01,
637,1.20e-01,
638,1.60e-01,
639,8.00e-02,
640,1.60e-01,
641,8.00e-02,
642,8.00e-02,
643,3.56e+00,
644,3.60e+00,
645,3.80e+00,
646,3.76e+00,
647,3.84e+00,
648,3.80e+00,
649,3.88e+00,
650,3.84e+00,
651,3.96e+00,
652,3.96e+00,
653,3.84e+00,
654,3.92e+00,
655,3.96e+00,
656,3.96e+00,
657,3.88e+00,
658,3.92e+00,
659,3.96e+00,
660,3.96e+00,
661,3.20e-01,
662,4.00e-01,
663,2.40e-01,
664,2.80e-01,
665,1.60e-01,
666,2.40e-01,
667,1.20e-01,
668,2.00e-01,
669,8.00e-02,
670,8.00e-02,
671,1.60e-01,
672,1.60e-01,
673,4.00e-02,
674,1.20e-01,
675,4.00e-02,
676,4.00e-02,
677,1.20e-01,
678,4.00e-02,
679,1.20e-01,
680,4.00e-02,
681,1.20e-01,
682,1.20e-01,
683,4.00e-02,
684,4.00e-02,
685,1.20e-01,
686,4.00e-02,
687,2.00e-01,
688,2.00e-01,
689,3.72e+00,
690,3.68e+00,
691,3.80e+00,
692,3.76e+00,
693,3.84e+00,
694,3.80e+00,
695,3.88e+00,
696,3.84e+00,
697,3.96e+00,
698,3.96e+00,
699,3.84e+00,
700,3.96e+00,
701,3.88e+00,
702,3.92e+00,
703,3.96e+00,
704,3.92e+00,
705,3.96e+00,
706,3.92e+00,
707,4.00e+00,
708,3.92e+00,
709,4.00e+00,
710,3.92e+00,
711,4.00e+00,
712,3.92e+00,
713,4.00e+00,
714,3.92e+00,
715,4.00e+00,
716,3.92e+00,
717,4.00e+00,
718,4.00e+00,
719,3.72e+00,
720,3.68e+00,
721,2.80e-01,
722,3.20e-01,
723,2.00e-01,
724,2.80e-01,
725,1.20e-01,
726,2.40e-01,
727,8.00e-02,
728,8.00e-02,
729,1.60e-01,
730,1.60e-01,
731,8.00e-02,
732,8.00e-02,
733,3.72e+00,
734,3.72e+00,
735,3.80e+00,
736,3.76e+00,
737,3.84e+00,
738,3.80e+00,
739,3.88e+00,
740,3.84e+00,
741,3.96e+00,
742,3.96e+00,
743,3.84e+00,
744,3.92e+00,
745,3.96e+00,
746,3.96e+00,
747,3.92e+00,
748,3.92e+00,
749,3.96e+00,
750,3.96e+00,
751,2.80e-01,
752,3.20e-01,
753,2.00e-01,
754,2.80e-01,
755,1.20e-01,
756,2.40e-01,
757,8.00e-02,
758,1.60e-01,
759,8.00e-02,
760,8.00e-02,
761,1.60e-01,
762,1.60e-01,
763,4.00e-02,
764,4.00e-02,
765,1.20e-01,
766,4.00e-02,
767,1.20e-01,
768,1.20e-01,
769,4.00e-02,
770,1.20e-01,
771,4.00e-02,
772,4.00e-02,
773,1.20e-01,
774,1.20e-01,
775,4.00e-02,
776,4.00e-02,
777,1.04e+00,
778,1.08e+00,
779,3.72e+00,
780,3.68e+00,
781,3.80e+00,
782,3.76e+00,
783,3.84e+00,
784,3.80e+00,
785,3.88e+00,
786,3.84e+00,
787,3.96e+00,
788,3.84e+00,
789,3.96e+00,
790,3.96e+00,
791,3.88e+00,
792,3.96e+00,
793,2.48e+00,
794,2.52e+00,
795,2.40e-01,
796,3.20e-01,
797,2.00e-01,
798,1.20e-01,
799,2.40e-01,
800,2.00e-01,
801,8.00e-02,
802,1.60e-01,
803,8.00e-02,
804,1.60e-01,
805,4.00e-02,
806,1.20e-01,
807,4.00e-02,
808,4.00e-02,
809,1.20e-01,
810,1.20e-01,
811,4.00e-02,
812,1.20e-01,
813,4.00e-02,
814,4.00e-02,
815,1.20e-01,
816,1.20e-01,
817,4.00e-02,
818,4.00e-02,
819,1.20e-01,
820,4.00e-02,
821,1.20e-01,
822,4.00e-02,
823,3.68e+00,
824,3.64e+00,
825,3.80e+00,
826,3.76e+00,
827,3.84e+00,
828,3.80e+00,
829,3.88e+00,
830,3.88e+00,
831,3.80e+00,
832,3.84e+00,
833,3.96e+00,
834,3.96e+00,
835,3.84e+00,
836,3.96e+00,
837,3.88e+00,
838,3.88e+00,
839,2.40e-01,
840,3.60e-01,
841,2.00e-01,
842,2.80e-01,
843,1.20e-01,
844,2.40e-01,
845,8.00e-02,
846,1.60e-01,
847,8.00e-02,
848,1.60e-01,
849,4.00e-02,
850,1.20e-01,
851,4.00e-02,
852,1.20e-01,
853,4.00e-02,
854,1.20e-01,
855,4.00e-02,
856,4.00e-02,
857,1.20e-01,
858,4.00e-02,
859,1.20e-01,
860,4.00e-02,
861,1.20e-01,
862,4.00e-02,
863,1.20e-01,
864,4.00e-02,
865,1.20e-01,
866,4.00e-02,
867,1.80e+00,
868,1.84e+00,
869,3.72e+00,
870,3.68e+00,
871,3.80e+00,
872,3.76e+00,
873,3.84e+00,
874,3.80e+00,
875,3.88e+00,
876,3.84e+00,
877,3.96e+00,
878,3.96e+00,
879,3.84e+00,
880,3.88e+00,
881,3.96e+00,
882,3.96e+00,
883,3.88e+00,
884,3.92e+00,
885,3.96e+00,
886,3.92e+00,
887,3.96e+00,
888,3.96e+00,
889,3.92e+00,
890,3.92e+00,
891,3.96e+00,
892,3.92e+00,
893,4.00e+00,
894,3.92e+00,
895,4.00e+00,
896,3.92e+00,
897,3.96e+00,
898,3.96e+00,
899,2.80e-01,
900,3.60e-01,
901,2.00e-01,
902,2.80e-01,
903,1.20e-01,
904,1.20e-01,
905,2.40e-01,
906,1.60e-01,
907,8.00e-02,
908,1.60e-01,
909,8.00e-02,
910,1.20e-01,
911,4.00e-02,
912,4.00e-02,
913,3.72e+00,
914,3.68e+00,
915,3.80e+00,
916,3.76e+00,
917,3.84e+00,
918,3.80e+00,
919,3.88e+00,
920,3.84e+00,
921,3.96e+00,
922,3.96e+00,
923,3.84e+00,
924,3.96e+00,
925,3.84e+00,
926,3.96e+00,
927,3.28e+00,
928,3.24e+00,
929,2.40e-01,
930,3.20e-01,
931,2.00e-01,
932,2.80e-01,
933,1.20e-01,
934,2.40e-01,
935,8.00e-02,
936,1.60e-01,
937,8.00e-02,
938,1.60e-01,
939,8.00e-02,
940,4.00e-02,
941,1.60e-01,
942,1.20e-01,
943,4.00e-02,
944,1.20e-01,
945,4.00e-02,
946,4.00e-02,
947,1.20e-01,
948,1.20e-01,
949,4.00e-02,
950,4.00e-02,
951,1.20e-01,
952,1.20e-01,
953,4.00e-02,
954,4.00e-02,
955,1.20e-01,
956,4.00e-02,
957,2.72e+00,
958,2.76e+00,
959,3.80e+00,
960,3.68e+00,
961,3.84e+00,
962,3.76e+00,
963,3.88e+00,
964,3.88e+00,
965,3.80e+00,
966,3.84e+00,
967,3.96e+00,
968,3.96e+00,
969,3.84e+00,
970,3.92e+00,
971,3.96e+00,
972,3.92e+00,
973,3.96e+00,
974,3.92e+00,
975,3.96e+00,
976,3.92e+00,
977,3.96e+00,
978,3.92e+00,
979,4.00e+00,
980,3.92e+00,
981,4.00e+00,
982,3.92e+00,
983,4.00e+00,
984,3.92e+00,
985,4.00e+00,
986,3.92e+00,
987,4.00e+00,
988,4.00e+00,
989,1.32e+00,
990,1.36e+00,
991,2.40e-01,
992,3.20e-01,
993,2.00e-01,
994,2.80e-01,
995,1.20e-01,
996,2.40e-01,
997,8.00e-02,
998,1.60e-01,
999,8.00e-02,
1000,1.60e-01,
1001,4.00e-02,
1002,1.60e-01,
1003,3.72e+00,
1004,3.68e+00,
1005,3.84e+00,
1006,3.76e+00,
1007,3.88e+00,
1008,3.88e+00,
1009,3.80e+00,
1010,3.84e+00,
1011,3.96e+00,
1012,3.84e+00,
1013,3.96e+00,
1014,3.92e+00,
1015,3.96e+00,
1016,3.92e+00,
1017,3.96e+00,
1018,3.96e+00,
1019,4.80e-01,
1020,4.80e-01,
1021,2.40e-01,
1022,2.80e-01,
1023,1.60e-01,
1024,1.20e-01,
1025,2.40e-01,
1026,1.60e-01,
1027,8.00e-02,
1028,1.60e-01,
1029,8.00e-02,
1030,1.60e-01,
1031,4.00e-02,
1032,1.20e-01,
1033,4.00e-02,
1034,1.20e-01,
1035,4.00e-02,
1036,1.20e-01,
1037,4.00e-02,
1038,1.20e-01,
1039,4.00e-02,
1040,1.20e-01,
1041,4.00e-02,
1042,1.20e-01,
1043,4.00e-02,
1044,1.20e-01,
1045,4.00e-02,
1046,4.00e-02,
1047,2.56e+00,
1048,2.60e+00,
1049,3.76e+00,
1050,3.68e+00,
1051,3.84e+00,
1052,3.76e+00,
1053,3.88e+00,
1054,3.80e+00,
1055,3.88e+00,
1056,3.84e+00,
1057,3.96e+00,
1058,3.84e+00,
1059,3.96e+00,
1060,3.92e+00,
1061,3.96e+00,
1062,3.96e+00,
1063,2.80e-01,
1064,3.20e-01,
1065,2.00e-01,
1066,2.80e-01,
1067,1.20e-01,
1068,2.40e-01,
1069,8.00e-02,
1070,1.60e-01,
1071,8.00e-02,
1072,1.60e-01,
1073,8.00e-02,
1074,1.20e-01,
1075,4.00e-02,
1076,4.00e-02,
1077,1.20e-01,
1078,1.20e-01,
1079,4.00e-02,
1080,1.20e-01,
1081,4.00e-02,
1082,4.00e-02,
1083,1.20e-01,
1084,1.20e-01,
1085,4.00e-02,
1086,4.00e-02,
1087,1.20e-01,
1088,1.20e-01,
1089,4.00e-02,
1090,4.00e-02,
1091,1.20e-01,
1092,8.00e-02,
1093,3.72e+00,
1094,3.68e+00,
1095,3.80e+00,
1096,3.76e+00,
1097,3.84e+00,
1098,3.80e+00,
1099,3.88e+00,
1100,3.88e+00,
1101,3.84e+00,
1102,3.96e+00,
1103,3.84e+00,
1104,3.96e+00,
1105,3.84e+00,
1106,3.96e+00,
1107,3.92e+00,
1108,3.92e+00,
1109,3.96e+00,
1110,3.92e+00,
1111,3.96e+00,
1112,3.92e+00,
1113,4.00e+00,
1114,3.92e+00,
1115,4.00e+00,
1116,3.92e+00,
1117,4.00e+00,
1118,3.92e+00,
1119,4.00e+00,
1120,3.92e+00,
1121,4.00e+00,
1122,3.96e+00,
1123,7.20e-01,
1124,7.20e-01,
1125,2.40e-01,
1126,3.20e-01,
1127,2.00e-01,
1128,2.40e-01,
1129,1.20e-01,
1130,2.00e-01,
1131,8.00e-02,
1132,1.60e-01,
1133,8.00e-02,
1134,1.60e-01,
1135,4.00e-02,
1136,4.00e-02,
1137,1.20e-01,
1138,1.20e-01,
1139,4.00e-02,
1140,1.20e-01,
1141,4.00e-02,
1142,4.00e-02,
1143,1.20e-01,
1144,4.00e-02,
1145,1.20e-01,
1146,1.20e-01,
1147,4.00e-02,
1148,4.00e-02,
1149,1.20e-01,
1150,1.20e-01,
1151,4.00e-02,
1152,4.00e-02,
1153,1.20e-01,
1154,1.20e-01,
1155,-4.00e-02,
1156,4.00e-02,
1157,1.20e-01,
1158,4.00e-02,
1159,1.20e-01,
1160,4.00e-02,
1161,1.20e-01,
1162,4.00e-02,
1163,1.20e-01,
1164,4.00e-02,
1165,1.20e-01,
1166,4.00e-02,
1167,1.20e-01,
1168,4.00e-02,
1169,1.20e-01,
1170,4.00e-02,
1171,1.20e-01,
1172,4.00e-02,
1173,1.20e-01,
1174,4.00e-02,
1175,1.20e-01,
1176,1.20e-01,
1177,4.00e-02,
1178,4.00e-02,
1179,1.20e-01,
1180,4.00e-02,
1181,1.20e-01,
1182,4.00e-02,
1183,1.20e-01,
1184,4.00e-02,
1185,1.20e-01,
1186,1.20e-01,
1187,0.00e+00,
1188,4.00e-02,
1189,1.20e-01,
1190,4.00e-02,
1191,1.20e-01,
1192,4.00e-02,
1193,1.20e-01,
1194,4.00e-02,
1195,1.20e-01,
1196,4.00e-02,
1197,1.20e-01,
1198,4.00e-02,
1199,1.20e-01,
