codes/low/low10.csv

X,CH1,Start,Increment,
Sequence,Volt,5.444800e-01,2.000000e-05
0,4.00e-02,
1,1.20e-01,
2,4.00e-02,
3,1.20e-01,
4,1.20e-01,
5,-4.00e-02,
6,4.00e-02,
7,1.20e-01,
8,4.00e-02,
9,1.20e-01,
10,1.20e-01,
11,4.00e-02,
12,4.00e-02,
13,1.20e-01,
14,4.00e-02,
15,1.20e-01,
16,4.00e-02,
17,1.20e-01,
18,4.00e-02,
19,1.20e-01,
20,4.00e-02,
21,1.20e-01,
22,4.00e-02,
23,1.20e-01,
24,1.20e-01,
25,4.00e-02,
26,4.00e-02,
27,1.20e-01,
28,4.00e-02,
29,1.20e-01,
30,4.00e-02,
31,1.20e-01,
32,4.00e-02,
33,1.20e-01,
34,4.00e-02,
35,1.20e-01,
36,4.00e-02,
37,1.20e-01,
38,4.00e-02,
39,1.20e-01,
40,4.00e-02,
41,1.20e-01,
42,4.00e-02,
43,1.20e-01,
44,4.00e-02,
45,1.20e-01,
46,4.00e-02,
47,1.20e-01,
48,4.00e-02,
49,1.20e-01,
50,1.20e-01,
51,4.00e-02,
52,4.00e-02,
53,1.20e-01,
54,1.20e-01,
55,4.00e-02,
56,4.00e-02,
57,1.20e-01,
58,4.00e-02,
59,1.20e-01,
60,4.00e-02,
61,1.20e-01,
62,4.00e-02,
63,1.20e-01,
64,4.00e-02,
65,1.20e-01,
66,4.00e-02,
67,1.20e-01,
68,4.00e-02,
69,1.20e-01,
70,4.00e-02,
71,1.20e-01,
72,4.00e-02,
73,1.20e-01,
74,1.20e-01,
75,4.00e-02,
76,4.00e-02,
77,1.20e-01,
78,4.00e-02,
79,1.20e-01,
80,4.00e-02,
81,1.20e-01,
82,4.00e-02,
83,1.20e-01,
84,4.00e-02,
85,1.20e-01,
86,4.00e-02,
87,1.20e-01,
88,4.00e-02,
89,1.20e-01,
90,4.00e-02,
91,1.20e-01,
92,4.00e-02,
93,1.20e-01,
94,4.00e-02,
95,1.20e-01,
96,4.00e-02,
97,1.20e-01,
98,4.00e-02,
99,1.20e-01,
100,4.00e-02,
101,1.20e-01,
102,4.00e-02,
103,1.20e-01,
104,4.00e-02,
105,1.20e-01,
106,4.00e-02,
107,1.68e+00,
108,1.72e+00,
109,3.72e+00,
110,3.68e+00,
111,3.84e+00,
112,3.76e+00,
113,3.84e+00,
114,3.80e+00,
115,3.88e+00,
116,3.84e+00,
117,3.96e+00,
118,3.96e+00,
119,3.84e+00,
120,3.88e+00,
121,3.96e+00,
122,3.92e+00,
123,3.96e+00,
124,3.96e+00,
125,2.20e+00,
126,2.20e+00,
127,2.40e-01,
128,3.20e-01,
129,2.00e-01,
130,2.40e-01,
131,1.20e-01,
132,2.40e-01,
133,8.00e-02,
134,1.60e-01,
135,8.00e-02,
136,1.60e-01,
137,4.00e-02,
138,1.20e-01,
139,4.00e-02,
140,4.00e-02,
141,1.20e-01,
142,1.20e-01,
143,4.00e-02,
144,4.00e-02,
145,1.20e-01,
146,4.00e-02,
147,1.20e-01,
148,1.20e-01,
149,4.00e-02,
150,4.00e-02,
151,1.20e-01,
152,4.00e-02,
153,3.72e+00,
154,3.64e+00,
155,3.80e+00,
156,3.76e+00,
157,3.84e+00,
158,3.80e+00,
159,3.88e+00,
160,3.84e+00,
161,3.96e+00,
162,3.84e+00,
163,3.96e+00,
164,3.96e+00,
165,3.84e+00,
166,3.92e+00,
167,3.96e+00,
168,3.92e+00,
169,3.96e+00,
170,3.92e+00,
171,4.00e+00,
172,3.92e+00,
173,4.00e+00,
174,3.92e+00,
175,4.00e+00,
176,4.00e+00,
177,3.92e+00,
178,4.00e+00,
179,3.92e+00,
180,3.92e+00,
181,4.00e+00,
182,4.00e+00,
183,3.92e+00,
184,3.92e+00,
185,2.80e-01,
186,3.60e-01,
187,2.00e-01,
188,2.80e-01,
189,1.20e-01,
190,2.40e-01,
191,8.00e-02,
192,1.60e-01,
193,8.00e-02,
194,1.60e-01,
195,8.00e-02,
196,8.00e-02,
197,3.72e+00,
198,3.68e+00,
199,3.80e+00,
200,3.76e+00,
201,3.88e+00,
202,3.80e+00,
203,3.88e+00,
204,3.84e+00,
205,3.96e+00,
206,3.84e+00,
207,3.96e+00,
208,3.92e+00,
209,3.96e+00,
210,3.92e+00,
211,3.96e+00,
212,3.92e+00,
213,4.00e+00,
214,3.92e+00,
215,4.00e+00,
216,4.00e+00,
217,3.92e+00,
218,3.92e+00,
219,4.00e+00,
220,3.92e+00,
221,4.00e+00,
222,4.00e+00,
223,3.92e+00,
224,4.00e+00,
225,3.92e+00,
226,3.92e+00,
227,4.00e+00,
228,4.00e+00,
229,6.40e-01,
230,7.20e-01,
231,2.40e-01,
232,3.20e-01,
233,2.00e-01,
234,2.80e-01,
235,1.20e-01,
236,2.40e-01,
237,8.00e-02,
238,8.00e-02,
239,1.60e-01,
240,8.00e-02,
241,9.20e-01,
242,9.20e-01,
243,3.80e+00,
244,3.72e+00,
245,3.84e+00,
246,3.80e+00,
247,3.88e+00,
248,3.84e+00,
249,3.96e+00,
250,3.96e+00,
251,3.84e+00,
252,3.92e+00,
253,3.96e+00,
254,3.92e+00,
255,3.96e+00,
256,3.92e+00,
257,3.96e+00,
258,4.00e+00,
259,2.76e+00,
260,2.72e+00,
261,2.40e-01,
262,3.20e-01,
263,2.00e-01,
264,2.80e-01,
265,1.20e-01,
266,1.20e-01,
267,2.40e-01,
268,8.00e-02,
269,2.00e-01,
270,1.60e-01,
271,8.00e-02,
272,1.60e-01,
273,8.00e-02,
274,1.20e-01,
275,4.00e-02,
276,4.00e-02,
277,1.20e-01,
278,1.20e-01,
279,4.00e-02,
280,4.00e-02,
281,1.20e-01,
282,1.20e-01,
283,4.00e-02,
284,4.00e-02,
285,1.20e-01,
286,4.00e-02,
287,3.24e+00,
288,3.28e+00,
289,3.80e+00,
290,3.72e+00,
291,3.84e+00,
292,3.80e+00,
293,3.88e+00,
294,3.84e+00,
295,3.96e+00,
296,3.84e+00,
297,3.96e+00,
298,3.92e+00,
299,3.96e+00,
300,3.92e+00,
301,3.96e+00,
302,3.96e+00,
303,3.92e+00,
304,4.00e+00,
305,2.80e-01,
306,4.00e-01,
307,2.00e-01,
308,2.80e-01,
309,1.20e-01,
310,1.20e-01,
311,2.40e-01,
312,1.60e-01,
313,8.00e-02,
314,8.00e-02,
315,1.60e-01,
316,1.60e-01,
317,4.00e-02,
318,4.00e-02,
319,1.60e-01,
320,4.00e-02,
321,1.20e-01,
322,1.20e-01,
323,4.00e-02,
324,4.00e-02,
325,1.20e-01,
326,1.20e-01,
327,4.00e-02,
328,1.20e-01,
329,4.00e-02,
330,4.00e-02,
331,2.00e-01,
332,2.00e-01,
333,3.72e+00,
334,3.64e+00,
335,3.80e+00,
336,3.76e+00,
337,3.84e+00,
338,3.80e+00,
339,3.88e+00,
340,3.84e+00,
341,3.96e+00,
342,3.96e+00,
343,3.84e+00,
344,3.92e+00,
345,3.96e+00,
346,3.92e+00,
347,3.96e+00,
348,3.92e+00,
349,4.00e+00,
350,3.92e+00,
351,4.00e+00,
352,3.92e+00,
353,4.00e+00,
354,3.92e+00,
355,4.00e+00,
356,3.92e+00,
357,4.00e+00,
358,3.92e+00,
359,4.00e+00,
360,3.92e+00,
361,4.00e+00,
362,4.00e+00,
363,1.16e+00,
364,1.24e+00,
365,2.40e-01,
366,3.20e-01,
367,2.00e-01,
368,1.20e-01,
369,2.40e-01,
370,2.40e-01,
371,8.00e-02,
372,1.60e-01,
373,8.00e-02,
374,1.60e-01,
375,4.00e-02,
376,4.00e-02,
377,3.68e+00,
378,3.64e+00,
379,3.80e+00,
380,3.76e+00,
381,3.84e+00,
382,3.80e+00,
383,3.88e+00,
384,3.84e+00,
385,3.88e+00,
386,3.84e+00,
387,3.96e+00,
388,3.92e+00,
389,3.96e+00,
390,3.92e+00,
391,3.96e+00,
392,3.92e+00,
393,3.96e+00,
394,3.96e+00,
395,2.80e-01,
396,4.00e-01,
397,2.00e-01,
398,2.80e-01,
399,1.20e-01,
400,2.40e-01,
401,1.20e-01,
402,1.60e-01,
403,8.00e-02,
404,1.60e-01,
405,8.00e-02,
406,1.60e-01,
407,4.00e-02,
408,4.00e-02,
409,1.20e-01,
410,4.00e-02,
411,1.20e-01,
412,1.20e-01,
413,4.00e-02,
414,4.00e-02,
415,1.20e-01,
416,1.20e-01,
417,4.00e-02,
418,4.00e-02,
419,1.20e-01,
420,4.00e-02,
421,4.00e-01,
422,4.40e-01,
423,3.72e+00,
424,3.68e+00,
425,3.80e+00,
426,3.76e+00,
427,3.84e+00,
428,3.80e+00,
429,3.88e+00,
430,3.84e+00,
431,3.92e+00,
432,3.96e+00,
433,3.84e+00,
434,3.96e+00,
435,3.88e+00,
436,3.92e+00,
437,3.96e+00,
438,4.00e+00,
439,4.00e-01,
440,4.00e-01,
441,2.40e-01,
442,2.80e-01,
443,1.20e-01,
444,1.20e-01,
445,2.40e-01,
446,1.60e-01,
447,8.00e-02,
448,1.60e-01,
449,8.00e-02,
450,1.20e-01,
451,4.00e-02,
452,4.00e-02,
453,1.20e-01,
454,1.20e-01,
455,4.00e-02,
456,4.00e-02,
457,1.20e-01,
458,4.00e-02,
459,1.20e-01,
460,4.00e-02,
461,1.20e-01,
462,4.00e-02,
463,1.20e-01,
464,1.20e-01,
465,4.00e-02,
466,4.00e-02,
467,3.68e+00,
468,3.60e+00,
469,3.80e+00,
470,3.72e+00,
471,3.84e+00,
472,3.80e+00,
473,3.88e+00,
474,3.88e+00,
475,3.80e+00,
476,3.84e+00,
477,3.96e+00,
478,3.84e+00,
479,3.96e+00,
480,3.96e+00,
481,3.84e+00,
482,3.96e+00,
483,3.00e+00,
484,3.00e+00,
485,2.40e-01,
486,3.20e-01,
487,2.00e-01,
488,2.80e-01,
489,1.20e-01,
490,2.00e-01,
491,8.00e-02,
492,1.60e-01,
493,8.00e-02,
494,1.60e-01,
495,4.00e-02,
496,4.00e-02,
497,1.20e-01,
498,4.00e-02,
499,1.20e-01,
500,1.20e-01,
501,4.00e-02,
502,4.00e-02,
503,1.20e-01,
504,1.20e-01,
505,4.00e-02,
506,4.00e-02,
507,1.20e-01,
508,4.00e-02,
509,1.20e-01,
510,4.00e-02,
511,1.24e+00,
512,1.28e+00,
513,3.72e+00,
514,3.68e+00,
515,3.84e+00,
516,3.76e+00,
517,3.84e+00,
518,3.80e+00,
519,3.88e+00,
520,3.84e+00,
521,3.96e+00,
522,3.84e+00,
523,3.96e+00,
524,3.88e+00,
525,3.96e+00,
526,3.92e+00,
527,3.96e+00,
528,3.92e+00,
529,3.96e+00,
530,3.92e+00,
531,3.96e+00,
532,3.92e+00,
533,3.96e+00,
534,3.92e+00,
535,4.00e+00,
536,3.92e+00,
537,4.00e+00,
538,3.92e+00,
539,4.00e+00,
540,3.96e+00,
541,3.92e+00,
542,3.96e+00,
543,5.60e-01,
544,4.80e-01,
545,2.40e-01,
546,2.80e-01,
547,1.20e-01,
548,1.20e-01,
549,2.40e-01,
550,2.00e-01,
551,8.00e-02,
552,1.60e-01,
553,8.00e-02,
554,1.60e-01,
555,4.00e-02,
556,4.00e-02,
557,3.72e+00,
558,3.64e+00,
559,3.80e+00,
560,3.76e+00,
561,3.88e+00,
562,3.80e+00,
563,3.88e+00,
564,3.84e+00,
565,3.92e+00,
566,3.84e+00,
567,3.96e+00,
568,3.96e+00,
569,3.84e+00,
570,3.92e+00,
571,3.96e+00,
572,3.92e+00,
573,3.96e+00,
574,3.92e+00,
575,4.00e+00,
576,3.92e+00,
577,4.00e+00,
578,3.92e+00,
579,4.00e+00,
580,4.00e+00,
581,3.92e+00,
582,4.00e+00,
583,3.92e+00,
584,3.92e+00,
585,4.00e+00,
586,3.92e+00,
587,4.00e+00,
588,3.92e+00,
589,2.80e-01,
590,3.60e-01,
591,2.00e-01,
592,2.80e-01,
593,1.20e-01,
594,2.40e-01,
595,8.00e-02,
596,1.60e-01,
597,8.00e-02,
598,1.60e-01,
599,8.00e-02,
600,8.00e-02,
601,2.88e+00,
602,2.84e+00,
603,3.80e+00,
604,3.76e+00,
605,3.84e+00,
606,3.80e+00,
607,3.88e+00,
608,3.84e+00,
609,3.92e+00,
610,3.84e+00,
611,3.96e+00,
612,3.96e+00,
613,3.88e+00,
614,3.92e+00,
615,4.00e+00,
616,3.92e+00,
617,4.00e+00,
618,3.92e+00,
619,4.00e+00,
620,3.92e+00,
621,4.00e+00,
622,3.92e+00,
623,4.00e+00,
624,3.92e+00,
625,4.00e+00,
626,3.92e+00,
627,4.00e+00,
628,3.92e+00,
629,4.00e+00,
630,4.00e+00,
631,3.92e+00,
632,4.00e+00,
633,2.80e-01,
634,3.60e-01,
635,2.00e-01,
636,2.80e-01,
637,1.20e-01,
638,1.20e-01,
639,2.40e-01,
640,1.60e-01,
641,8.00e-02,
642,1.60e-01,
643,8.00e-02,
644,1.60e-01,
645,4.00e-02,
646,8.00e-02,
647,3.72e+00,
648,3.68e+00,
649,3.80e+00,
650,3.76e+00,
651,3.88e+00,
652,3.80e+00,
653,3.88e+00,
654,3.84e+00,
655,3.96e+00,
656,3.96e+00,
657,3.84e+00,
658,3.92e+00,
659,3.96e+00,
660,3.96e+00,
661,3.92e+00,
662,3.96e+00,
663,7.60e-01,
664,6.80e-01,
665,2.40e-01,
666,3.20e-01,
667,2.00e-01,
668,1.20e-01,
669,2.40e-01,
670,2.00e-01,
671,8.00e-02,
672,1.60e-01,
673,8.00e-02,
674,1.60e-01,
675,4.00e-02,
676,4.00e-02,
677,1.60e-01,
678,4.00e-02,
679,1.20e-01,
680,4.00e-02,
681,1.20e-01,
682,1.20e-01,
683,4.00e-02,
684,4.00e-02,
685,1.20e-01,
686,4.00e-02,
687,1.20e-01,
688,4.00e-02,
689,1.20e-01,
690,4.00e-02,
691,1.80e+00,
692,1.84e+00,
693,3.72e+00,
694,3.68e+00,
695,3.84e+00,
696,3.76e+00,
697,3.88e+00,
698,3.88e+00,
699,3.80e+00,
700,3.84e+00,
701,3.96e+00,
702,3.96e+00,
703,3.84e+00,
704,3.92e+00,
705,3.96e+00,
706,3.92e+00,
707,3.96e+00,
708,3.92e+00,
709,4.00e+00,
710,3.92e+00,
711,4.00e+00,
712,3.92e+00,
713,4.00e+00,
714,3.92e+00,
715,4.00e+00,
716,4.00e+00,
717,3.92e+00,
718,4.00e+00,
719,3.92e+00,
720,3.92e+00,
721,4.00e+00,
722,4.00e+00,
723,2.80e-01,
724,3.60e-01,
725,2.00e-01,
726,2.80e-01,
727,1.20e-01,
728,2.40e-01,
729,8.00e-02,
730,1.60e-01,
731,8.00e-02,
732,1.60e-01,
733,4.00e-02,
734,1.60e-01,
735,4.00e-02,
736,4.00e-02,
737,3.72e+00,
738,3.68e+00,
739,3.80e+00,
740,3.76e+00,
741,3.84e+00,
742,3.80e+00,
743,3.88e+00,
744,3.84e+00,
745,3.96e+00,
746,3.84e+00,
747,3.96e+00,
748,3.96e+00,
749,3.88e+00,
750,3.92e+00,
751,3.96e+00,
752,3.96e+00,
753,3.20e-01,
754,4.00e-01,
755,2.00e-01,
756,2.80e-01,
757,1.20e-01,
758,2.40e-01,
759,1.20e-01,
760,1.60e-01,
761,8.00e-02,
762,1.60e-01,
763,8.00e-02,
764,1.20e-01,
765,4.00e-02,
766,4.00e-02,
767,1.20e-01,
768,4.00e-02,
769,1.20e-01,
770,1.20e-01,
771,4.00e-02,
772,4.00e-02,
773,1.20e-01,
774,4.00e-02,
775,1.20e-01,
776,1.20e-01,
777,4.00e-02,
778,1.20e-01,
779,4.00e-02,
780,4.00e-02,
781,2.44e+00,
782,2.48e+00,
783,3.72e+00,
784,3.68e+00,
785,3.84e+00,
786,3.76e+00,
787,3.88e+00,
788,3.88e+00,
789,3.80e+00,
790,3.84e+00,
791,3.96e+00,
792,3.84e+00,
793,3.96e+00,
794,3.96e+00,
795,3.88e+00,
796,3.96e+00,
797,2.16e+00,
798,2.16e+00,
799,2.40e-01,
800,3.20e-01,
801,2.00e-01,
802,2.40e-01,
803,1.20e-01,
804,2.00e-01,
805,8.00e-02,
806,1.60e-01,
807,8.00e-02,
808,1.60e-01,
809,4.00e-02,
810,1.20e-01,
811,4.00e-02,
812,1.20e-01,
813,4.00e-02,
814,4.00e-02,
815,1.20e-01,
816,1.20e-01,
817,4.00e-02,
818,4.00e-02,
819,1.20e-01,
820,4.00e-02,
821,1.20e-01,
822,4.00e-02,
823,1.20e-01,
824,4.00e-02,
825,1.20e-01,
826,4.00e-02,
827,3.72e+00,
828,3.64e+00,
829,3.80e+00,
830,3.76e+00,
831,3.84e+00,
832,3.80e+00,
833,3.88e+00,
834,3.88e+00,
835,3.84e+00,
836,3.84e+00,
837,3.96e+00,
838,3.96e+00,
839,3.84e+00,
840,3.96e+00,
841,1.88e+00,
842,1.84e+00,
843,2.40e-01,
844,3.20e-01,
845,1.60e-01,
846,2.40e-01,
847,1.20e-01,
848,1.60e-01,
849,8.00e-02,
850,1.60e-01,
851,8.00e-02,
852,1.20e-01,
853,4.00e-02,
854,1.20e-01,
855,4.00e-02,
856,4.00e-02,
857,1.20e-01,
858,4.00e-02,
859,1.20e-01,
860,4.00e-02,
861,1.20e-01,
862,4.00e-02,
863,1.20e-01,
864,1.20e-01,
865,4.00e-02,
866,4.00e-02,
867,1.20e-01,
868,1.20e-01,
869,4.00e-02,
870,4.00e-02,
871,3.04e+00,
872,3.08e+00,
873,3.72e+00,
874,3.72e+00,
875,3.84e+00,
876,3.76e+00,
877,3.88e+00,
878,3.80e+00,
879,3.88e+00,
880,3.84e+00,
881,3.96e+00,
882,3.84e+00,
883,3.96e+00,
884,3.96e+00,
885,3.88e+00,
886,3.92e+00,
887,3.96e+00,
888,3.96e+00,
889,3.92e+00,
890,3.92e+00,
891,3.96e+00,
892,3.92e+00,
893,4.00e+00,
894,3.92e+00,
895,4.00e+00,
896,3.92e+00,
897,4.00e+00,
898,3.92e+00,
899,3.96e+00,
900,3.96e+00,
901,1.92e+00,
902,1.88e+00,
903,2.40e-01,
904,3.20e-01,
905,2.00e-01,
906,2.40e-01,
907,1.20e-01,
908,2.40e-01,
909,8.00e-02,
910,8.00e-02,
911,1.60e-01,
912,1.60e-01,
913,4.00e-02,
914,4.00e-02,
915,4.40e-01,
916,4.80e-01,
917,3.72e+00,
918,3.68e+00,
919,3.84e+00,
920,3.76e+00,
921,3.84e+00,
922,3.80e+00,
923,3.88e+00,
924,3.84e+00,
925,3.96e+00,
926,3.96e+00,
927,3.84e+00,
928,3.96e+00,
929,3.88e+00,
930,3.96e+00,
931,2.72e+00,
932,2.72e+00,
933,2.40e-01,
934,3.20e-01,
935,2.00e-01,
936,2.40e-01,
937,1.20e-01,
938,2.40e-01,
939,8.00e-02,
940,1.60e-01,
941,8.00e-02,
942,1.60e-01,
943,4.00e-02,
944,4.00e-02,
945,1.20e-01,
946,4.00e-02,
947,1.20e-01,
948,1.20e-01,
949,4.00e-02,
950,4.00e-02,
951,1.20e-01,
952,1.20e-01,
953,4.00e-02,
954,1.20e-01,
955,4.00e-02,
956,4.00e-02,
957,1.20e-01,
958,4.00e-02,
959,1.20e-01,
960,4.00e-02,
961,3.68e+00,
962,3.64e+00,
963,3.80e+00,
964,3.76e+00,
965,3.84e+00,
966,3.80e+00,
967,3.88e+00,
968,3.88e+00,
969,3.80e+00,
970,3.84e+00,
971,3.96e+00,
972,3.84e+00,
973,3.96e+00,
974,3.96e+00,
975,3.88e+00,
976,3.92e+00,
977,3.96e+00,
978,3.92e+00,
979,3.96e+00,
980,3.92e+00,
981,4.00e+00,
982,3.92e+00,
983,4.00e+00,
984,3.92e+00,
985,4.00e+00,
986,3.92e+00,
987,4.00e+00,
988,3.92e+00,
989,4.00e+00,
990,4.00e+00,
991,9.60e-01,
992,9.60e-01,
993,2.40e-01,
994,3.20e-01,
995,2.00e-01,
996,1.20e-01,
997,2.40e-01,
998,2.00e-01,
999,8.00e-02,
1000,1.60e-01,
1001,8.00e-02,
1002,1.60e-01,
1003,8.00e-02,
1004,4.00e-02,
1005,1.60e+00,
1006,1.64e+00,
1007,3.80e+00,
1008,3.68e+00,
1009,3.84e+00,
1010,3.80e+00,
1011,3.88e+00,
1012,3.88e+00,
1013,3.80e+00,
1014,3.84e+00,
1015,3.96e+00,
1016,3.88e+00,
1017,3.96e+00,
1018,3.96e+00,
1019,3.92e+00,
1020,3.96e+00,
1021,2.80e-01,
1022,3.20e-01,
1023,2.00e-01,
1024,2.80e-01,
1025,1.20e-01,
1026,2.40e-01,
1027,8.00e-02,
1028,1.60e-01,
1029,8.00e-02,
1030,1.60e-01,
1031,8.00e-02,
1032,1.60e-01,
1033,4.00e-02,
1034,4.00e-02,
1035,1.20e-01,
1036,1.20e-01,
1037,4.00e-02,
1038,1.20e-01,
1039,4.00e-02,
1040,4.00e-02,
1041,1.20e-01,
1042,1.20e-01,
1043,4.00e-02,
1044,1.20e-01,
1045,4.00e-02,
1046,1.20e-01,
1047,4.00e-02,
1048,4.00e-02,
1049,1.20e-01,
1050,4.00e-02,
1051,3.68e+00,
1052,3.64e+00,
1053,3.80e+00,
1054,3.76e+00,
1055,3.84e+00,
1056,3.80e+00,
1057,3.88e+00,
1058,3.88e+00,
1059,3.80e+00,
1060,3.84e+00,
1061,3.96e+00,
1062,3.88e+00,
1063,3.96e+00,
1064,3.96e+00,
1065,3.48e+00,
1066,3.44e+00,
1067,2.40e-01,
1068,3.20e-01,
1069,2.00e-01,
1070,2.80e-01,
1071,1.20e-01,
1072,2.40e-01,
1073,8.00e-02,
1074,1.60e-01,
1075,8.00e-02,
1076,1.60e-01,
1077,4.00e-02,
1078,1.20e-01,
1079,4.00e-02,
1080,1.20e-01,
1081,4.00e-02,
1082,4.00e-02,
1083,1.20e-01,
1084,1.20e-01,
1085,4.00e-02,
1086,1.20e-01,
1087,4.00e-02,
1088,4.00e-02,
1089,1.20e-01,
1090,4.00e-02,
1091,1.20e-01,
1092,1.20e-01,
1093,4.00e-02,
1094,4.00e-02,
1095,1.76e+00,
1096,1.80e+00,
1097,3.72e+00,
1098,3.68e+00,
1099,3.84e+00,
1100,3.76e+00,
1101,3.88e+00,
1102,3.80e+00,
1103,3.88e+00,
1104,3.84e+00,
1105,3.96e+00,
1106,3.96e+00,
1107,3.84e+00,
1108,3.96e+00,
1109,3.88e+00,
1110,3.92e+00,
1111,3.96e+00,
1112,3.96e+00,
1113,3.92e+00,
1114,3.92e+00,
1115,3.96e+00,
1116,3.92e+00,
1117,4.00e+00,
1118,3.92e+00,
1119,4.00e+00,
1120,3.92e+00,
1121,4.00e+00,
1122,3.92e+00,
1123,4.00e+00,
1124,3.92e+00,
1125,3.96e+00,
1126,3.96e+00,
1127,2.80e-01,
1128,4.00e-01,
1129,2.00e-01,
1130,2.80e-01,
1131,1.20e-01,
1132,1.20e-01,
1133,2.40e-01,
1134,1.60e-01,
1135,8.00e-02,
1136,1.60e-01,
1137,8.00e-02,
1138,1.20e-01,
1139,4.00e-02,
1140,4.00e-02,
1141,1.20e-01,
1142,1.20e-01,
1143,4.00e-02,
1144,4.00e-02,
1145,1.20e-01,
1146,1.20e-01,
1147,4.00e-02,
1148,4.00e-02,
1149,1.20e-01,
1150,1.20e-01,
1151,4.00e-02,
1152,1.20e-01,
1153,4.00e-02,
1154,1.20e-01,
1155,4.00e-02,
1156,4.00e-02,
1157,1.20e-01,
1158,4.00e-02,
1159,1.20e-01,
1160,4.00e-02,
1161,1.20e-01,
1162,1.20e-01,
1163,4.00e-02,
1164,4.00e-02,
1165,1.20e-01,
1166,1.20e-01,
1167,4.00e-02,
1168,4.00e-02,
1169,1.20e-01,
1170,4.00e-02,
1171,1.20e-01,
1172,4.00e-02,
1173,1.20e-01,
1174,1.20e-01,
1175,4.00e-02,
1176,1.20e-01,
1177,0.00e+00,
1178,4.00e-02,
1179,1.20e-01,
1180,4.00e-02,
1181,1.20e-01,
1182,4.00e-02,
1183,1.20e-01,
1184,1.20e-01,
1185,0.00e+00,
1186,4.00e-02,
1187,1.20e-01,
1188,4.00e-02,
1189,1.20e-01,
1190,1.20e-01,
1191,0.00e+00,
1192,4.00e-02,
1193,1.20e-01,
1194,4.00e-02,
1195,1.20e-01,
1196,4.00e-02,
1197,1.20e-01,
1198,4.00e-02,
1199,1.20e-01,
