codes/low/low12.csv

X,CH1,Start,Increment,
Sequence,Volt,6.469200e-01,2.000000e-05
0,4.00e-02,
1,1.20e-01,
2,4.00e-02,
3,1.20e-01,
4,4.00e-02,
5,1.20e-01,
6,4.00e-02,
7,1.20e-01,
8,1.20e-01,
9,4.00e-02,
10,1.20e-01,
11,4.00e-02,
12,4.00e-02,
13,1.20e-01,
14,4.00e-02,
15,1.20e-01,
16,4.00e-02,
17,1.20e-01,
18,4.00e-02,
19,1.20e-01,
20,4.00e-02,
21,1.20e-01,
22,4.00e-02,
23,1.20e-01,
24,4.00e-02,
25,1.20e-01,
26,4.00e-02,
27,1.20e-01,
28,4.00e-02,
29,1.20e-01,
30,1.20e-01,
31,4.00e-02,
32,4.00e-02,
33,1.20e-01,
34,4.00e-02,
35,1.20e-01,
36,4.00e-02,
37,1.20e-01,
38,4.00e-02,
39,1.20e-01,
40,4.00e-02,
41,1.20e-01,
42,4.00e-02,
43,1.20e-01,
44,4.00e-02,
45,1.20e-01,
46,4.00e-02,
47,1.20e-01,
48,4.00e-02,
49,1.20e-01,
50,4.00e-02,
51,1.20e-01,
52,4.00e-02,
53,1.20e-01,
54,4.00e-02,
55,1.20e-01,
56,4.00e-02,
57,1.20e-01,
58,4.00e-02,
59,1.20e-01,
60,1.20e-01,
61,0.00e+00,
62,4.00e-02,
63,1.20e-01,
64,4.00e-02,
65,1.20e-01,
66,4.00e-02,
67,1.20e-01,
68,1.20e-01,
69,4.00e-02,
70,4.00e-02,
71,1.20e-01,
72,4.00e-02,
73,1.20e-01,
74,4.00e-02,
75,1.20e-01,
76,4.00e-02,
77,1.20e-01,
78,4.00e-02,
79,1.20e-01,
80,4.00e-02,
81,1.20e-01,
82,4.00e-02,
83,1.20e-01,
84,4.00e-02,
85,1.20e-01,
86,4.00e-02,
87,1.20e-01,
88,4.00e-02,
89,1.20e-01,
90,4.00e-02,
91,1.20e-01,
92,4.00e-02,
93,1.20e-01,
94,4.00e-02,
95,1.20e-01,
96,4.00e-02,
97,8.00e-02,
98,4.00e-02,
99,1.20e-01,
100,4.00e-02,
101,1.20e-01,
102,4.00e-02,
103,9.20e-01,
104,9.20e-01,
105,3.72e+00,
106,3.68e+00,
107,3.80e+00,
108,3.76e+00,
109,3.84e+00,
110,3.80e+00,
111,3.88e+00,
112,3.84e+00,
113,3.92e+00,
114,3.84e+00,
115,3.96e+00,
116,3.96e+00,
117,3.84e+00,
118,3.92e+00,
119,3.96e+00,
120,3.96e+00,
121,4.40e-01,
122,4.00e-01,
123,2.00e-01,
124,2.80e-01,
125,1.20e-01,
126,1.20e-01,
127,2.40e-01,
128,1.60e-01,
129,8.00e-02,
130,1.60e-01,
131,8.00e-02,
132,1.20e-01,
133,4.00e-02,
134,1.20e-01,
135,4.00e-02,
136,4.00e-02,
137,1.20e-01,
138,4.00e-02,
139,1.20e-01,
140,4.00e-02,
141,1.20e-01,
142,1.20e-01,
143,4.00e-02,
144,4.00e-02,
145,1.20e-01,
146,4.00e-02,
147,1.20e-01,
148,4.00e-02,
149,3.68e+00,
150,3.64e+00,
151,3.80e+00,
152,3.76e+00,
153,3.84e+00,
154,3.80e+00,
155,3.88e+00,
156,3.88e+00,
157,3.84e+00,
158,3.84e+00,
159,3.96e+00,
160,3.88e+00,
161,3.96e+00,
162,3.92e+00,
163,3.96e+00,
164,3.92e+00,
165,3.96e+00,
166,3.92e+00,
167,4.00e+00,
168,3.92e+00,
169,4.00e+00,
170,3.92e+00,
171,4.00e+00,
172,4.00e+00,
173,3.92e+00,
174,3.92e+00,
175,4.00e+00,
176,3.92e+00,
177,4.00e+00,
178,3.92e+00,
179,4.00e+00,
180,3.96e+00,
181,2.80e-01,
182,3.60e-01,
183,2.00e-01,
184,2.80e-01,
185,1.20e-01,
186,1.20e-01,
187,2.40e-01,
188,8.00e-02,
189,2.00e-01,
190,1.60e-01,
191,8.00e-02,
192,8.00e-02,
193,2.60e+00,
194,2.64e+00,
195,3.80e+00,
196,3.76e+00,
197,3.84e+00,
198,3.80e+00,
199,3.88e+00,
200,3.84e+00,
201,3.96e+00,
202,3.84e+00,
203,3.96e+00,
204,3.96e+00,
205,3.92e+00,
206,3.92e+00,
207,3.96e+00,
208,3.92e+00,
209,4.00e+00,
210,3.92e+00,
211,4.00e+00,
212,4.00e+00,
213,3.92e+00,
214,4.00e+00,
215,3.92e+00,
216,4.00e+00,
217,3.92e+00,
218,3.92e+00,
219,4.00e+00,
220,3.92e+00,
221,4.00e+00,
222,4.00e+00,
223,3.92e+00,
224,4.00e+00,
225,2.36e+00,
226,2.32e+00,
227,2.80e-01,
228,3.20e-01,
229,2.00e-01,
230,2.80e-01,
231,1.20e-01,
232,2.40e-01,
233,8.00e-02,
234,1.60e-01,
235,8.00e-02,
236,8.00e-02,
237,1.60e-01,
238,8.00e-02,
239,3.72e+00,
240,3.68e+00,
241,3.84e+00,
242,3.76e+00,
243,3.88e+00,
244,3.88e+00,
245,3.80e+00,
246,3.84e+00,
247,3.96e+00,
248,3.88e+00,
249,3.96e+00,
250,3.96e+00,
251,3.92e+00,
252,3.92e+00,
253,3.96e+00,
254,3.96e+00,
255,1.24e+00,
256,1.20e+00,
257,2.40e-01,
258,3.20e-01,
259,2.00e-01,
260,2.80e-01,
261,1.20e-01,
262,8.00e-02,
263,2.40e-01,
264,8.00e-02,
265,1.60e-01,
266,8.00e-02,
267,1.60e-01,
268,1.60e-01,
269,4.00e-02,
270,1.20e-01,
271,4.00e-02,
272,4.00e-02,
273,1.20e-01,
274,4.00e-02,
275,1.20e-01,
276,1.20e-01,
277,4.00e-02,
278,1.20e-01,
279,4.00e-02,
280,4.00e-02,
281,1.20e-01,
282,4.00e-02,
283,2.52e+00,
284,2.48e+00,
285,3.80e+00,
286,3.72e+00,
287,3.84e+00,
288,3.80e+00,
289,3.88e+00,
290,3.88e+00,
291,3.84e+00,
292,3.84e+00,
293,3.96e+00,
294,3.88e+00,
295,3.96e+00,
296,3.96e+00,
297,3.92e+00,
298,3.96e+00,
299,2.48e+00,
300,2.44e+00,
301,2.40e-01,
302,3.20e-01,
303,2.00e-01,
304,2.80e-01,
305,1.20e-01,
306,2.40e-01,
307,8.00e-02,
308,1.60e-01,
309,8.00e-02,
310,8.00e-02,
311,1.60e-01,
312,1.60e-01,
313,4.00e-02,
314,1.20e-01,
315,4.00e-02,
316,1.20e-01,
317,4.00e-02,
318,1.20e-01,
319,4.00e-02,
320,4.00e-02,
321,1.20e-01,
322,1.20e-01,
323,4.00e-02,
324,4.00e-02,
325,1.20e-01,
326,1.20e-01,
327,4.00e-02,
328,4.00e-02,
329,3.72e+00,
330,3.64e+00,
331,3.80e+00,
332,3.76e+00,
333,3.84e+00,
334,3.80e+00,
335,3.88e+00,
336,3.84e+00,
337,3.92e+00,
338,3.96e+00,
339,3.84e+00,
340,3.96e+00,
341,3.84e+00,
342,3.96e+00,
343,3.92e+00,
344,3.92e+00,
345,3.96e+00,
346,3.92e+00,
347,4.00e+00,
348,3.92e+00,
349,4.00e+00,
350,3.92e+00,
351,4.00e+00,
352,3.92e+00,
353,4.00e+00,
354,4.00e+00,
355,3.92e+00,
356,3.92e+00,
357,4.00e+00,
358,3.96e+00,
359,4.00e-01,
360,4.40e-01,
361,2.40e-01,
362,2.80e-01,
363,2.00e-01,
364,2.40e-01,
365,1.20e-01,
366,1.60e-01,
367,8.00e-02,
368,1.60e-01,
369,8.00e-02,
370,1.60e-01,
371,4.00e-02,
372,4.00e-02,
373,3.44e+00,
374,3.52e+00,
375,3.80e+00,
376,3.76e+00,
377,3.84e+00,
378,3.80e+00,
379,3.88e+00,
380,3.80e+00,
381,3.88e+00,
382,3.84e+00,
383,3.96e+00,
384,3.96e+00,
385,3.88e+00,
386,3.92e+00,
387,3.96e+00,
388,3.96e+00,
389,1.64e+00,
390,1.64e+00,
391,2.40e-01,
392,3.20e-01,
393,2.00e-01,
394,2.40e-01,
395,1.20e-01,
396,2.40e-01,
397,8.00e-02,
398,1.60e-01,
399,8.00e-02,
400,1.60e-01,
401,4.00e-02,
402,4.00e-02,
403,1.20e-01,
404,1.20e-01,
405,4.00e-02,
406,1.20e-01,
407,4.00e-02,
408,1.20e-01,
409,4.00e-02,
410,4.00e-02,
411,1.20e-01,
412,1.20e-01,
413,4.00e-02,
414,4.00e-02,
415,1.20e-01,
416,4.00e-02,
417,6.40e-01,
418,6.80e-01,
419,3.72e+00,
420,3.68e+00,
421,3.80e+00,
422,3.76e+00,
423,3.84e+00,
424,3.80e+00,
425,3.88e+00,
426,3.84e+00,
427,3.96e+00,
428,3.96e+00,
429,3.84e+00,
430,3.96e+00,
431,3.84e+00,
432,3.96e+00,
433,1.32e+00,
434,1.28e+00,
435,2.40e-01,
436,2.80e-01,
437,1.60e-01,
438,1.20e-01,
439,2.40e-01,
440,1.60e-01,
441,8.00e-02,
442,8.00e-02,
443,1.60e-01,
444,1.60e-01,
445,4.00e-02,
446,4.00e-02,
447,1.20e-01,
448,1.20e-01,
449,4.00e-02,
450,4.00e-02,
451,1.20e-01,
452,4.00e-02,
453,1.20e-01,
454,1.20e-01,
455,4.00e-02,
456,4.00e-02,
457,1.20e-01,
458,4.00e-02,
459,1.20e-01,
460,4.00e-02,
461,1.20e-01,
462,4.00e-02,
463,3.68e+00,
464,3.64e+00,
465,3.80e+00,
466,3.76e+00,
467,3.84e+00,
468,3.80e+00,
469,3.88e+00,
470,3.88e+00,
471,3.84e+00,
472,3.84e+00,
473,3.96e+00,
474,3.96e+00,
475,3.84e+00,
476,3.92e+00,
477,3.96e+00,
478,3.96e+00,
479,1.60e+00,
480,1.68e+00,
481,2.40e-01,
482,2.80e-01,
483,2.00e-01,
484,1.20e-01,
485,2.40e-01,
486,1.60e-01,
487,8.00e-02,
488,1.60e-01,
489,8.00e-02,
490,1.60e-01,
491,4.00e-02,
492,4.00e-02,
493,1.20e-01,
494,4.00e-02,
495,1.20e-01,
496,4.00e-02,
497,1.20e-01,
498,4.00e-02,
499,1.20e-01,
500,1.20e-01,
501,4.00e-02,
502,4.00e-02,
503,1.20e-01,
504,1.20e-01,
505,4.00e-02,
506,4.00e-02,
507,1.48e+00,
508,1.52e+00,
509,3.72e+00,
510,3.68e+00,
511,3.80e+00,
512,3.76e+00,
513,3.88e+00,
514,3.80e+00,
515,3.88e+00,
516,3.84e+00,
517,3.92e+00,
518,3.96e+00,
519,3.84e+00,
520,3.88e+00,
521,3.96e+00,
522,3.92e+00,
523,3.96e+00,
524,3.92e+00,
525,4.00e+00,
526,3.92e+00,
527,3.96e+00,
528,3.92e+00,
529,4.00e+00,
530,3.92e+00,
531,4.00e+00,
532,3.92e+00,
533,4.00e+00,
534,3.92e+00,
535,4.00e+00,
536,3.92e+00,
537,4.00e+00,
538,3.92e+00,
539,2.80e-01,
540,3.20e-01,
541,2.00e-01,
542,2.80e-01,
543,1.20e-01,
544,2.40e-01,
545,8.00e-02,
546,1.60e-01,
547,8.00e-02,
548,1.60e-01,
549,8.00e-02,
550,4.00e-02,
551,1.60e-01,
552,4.00e-02,
553,3.72e+00,
554,3.64e+00,
555,3.80e+00,
556,3.76e+00,
557,3.84e+00,
558,3.80e+00,
559,3.88e+00,
560,3.88e+00,
561,3.84e+00,
562,3.84e+00,
563,3.96e+00,
564,3.96e+00,
565,3.84e+00,
566,3.96e+00,
567,3.92e+00,
568,3.96e+00,
569,3.92e+00,
570,3.92e+00,
571,3.96e+00,
572,3.92e+00,
573,4.00e+00,
574,3.92e+00,
575,4.00e+00,
576,3.92e+00,
577,4.00e+00,
578,3.92e+00,
579,4.00e+00,
580,4.00e+00,
581,3.92e+00,
582,4.00e+00,
583,3.20e-01,
584,4.00e-01,
585,2.40e-01,
586,2.80e-01,
587,2.00e-01,
588,2.40e-01,
589,1.20e-01,
590,8.00e-02,
591,2.00e-01,
592,1.60e-01,
593,8.00e-02,
594,1.60e-01,
595,8.00e-02,
596,4.00e-02,
597,1.64e+00,
598,1.72e+00,
599,3.76e+00,
600,3.68e+00,
601,3.84e+00,
602,3.80e+00,
603,3.88e+00,
604,3.80e+00,
605,3.88e+00,
606,3.84e+00,
607,3.96e+00,
608,3.96e+00,
609,3.84e+00,
610,3.92e+00,
611,3.96e+00,
612,3.92e+00,
613,3.96e+00,
614,3.92e+00,
615,3.96e+00,
616,3.92e+00,
617,4.00e+00,
618,3.92e+00,
619,4.00e+00,
620,3.92e+00,
621,4.00e+00,
622,4.00e+00,
623,3.92e+00,
624,3.92e+00,
625,4.00e+00,
626,4.00e+00,
627,3.20e+00,
628,3.20e+00,
629,2.80e-01,
630,4.00e-01,
631,2.00e-01,
632,2.80e-01,
633,1.20e-01,
634,2.00e-01,
635,8.00e-02,
636,1.60e-01,
637,8.00e-02,
638,1.60e-01,
639,8.00e-02,
640,1.60e-01,
641,4.00e-02,
642,4.00e-02,
643,3.72e+00,
644,3.68e+00,
645,3.80e+00,
646,3.76e+00,
647,3.88e+00,
648,3.80e+00,
649,3.88e+00,
650,3.84e+00,
651,3.96e+00,
652,3.96e+00,
653,3.84e+00,
654,3.96e+00,
655,3.88e+00,
656,3.96e+00,
657,3.72e+00,
658,3.72e+00,
659,2.40e-01,
660,3.20e-01,
661,2.00e-01,
662,2.80e-01,
663,1.20e-01,
664,2.40e-01,
665,8.00e-02,
666,1.60e-01,
667,8.00e-02,
668,1.60e-01,
669,8.00e-02,
670,1.60e-01,
671,4.00e-02,
672,1.20e-01,
673,4.00e-02,
674,4.00e-02,
675,1.20e-01,
676,4.00e-02,
677,1.20e-01,
678,4.00e-02,
679,1.20e-01,
680,4.00e-02,
681,1.20e-01,
682,1.20e-01,
683,4.00e-02,
684,4.00e-02,
685,1.20e-01,
686,4.00e-02,
687,2.32e+00,
688,2.36e+00,
689,3.76e+00,
690,3.68e+00,
691,3.84e+00,
692,3.76e+00,
693,3.88e+00,
694,3.88e+00,
695,3.80e+00,
696,3.84e+00,
697,3.96e+00,
698,3.96e+00,
699,3.84e+00,
700,3.96e+00,
701,3.92e+00,
702,3.92e+00,
703,3.96e+00,
704,3.92e+00,
705,4.00e+00,
706,3.92e+00,
707,4.00e+00,
708,3.92e+00,
709,4.00e+00,
710,3.92e+00,
711,4.00e+00,
712,3.92e+00,
713,4.00e+00,
714,3.92e+00,
715,4.00e+00,
716,4.00e+00,
717,2.52e+00,
718,2.52e+00,
719,2.40e-01,
720,3.20e-01,
721,2.00e-01,
722,2.80e-01,
723,1.20e-01,
724,2.40e-01,
725,8.00e-02,
726,1.60e-01,
727,8.00e-02,
728,1.60e-01,
729,8.00e-02,
730,1.20e-01,
731,4.00e-02,
732,4.00e-02,
733,3.72e+00,
734,3.72e+00,
735,3.80e+00,
736,3.76e+00,
737,3.84e+00,
738,3.80e+00,
739,3.88e+00,
740,3.84e+00,
741,3.92e+00,
742,3.84e+00,
743,3.96e+00,
744,3.88e+00,
745,3.96e+00,
746,3.96e+00,
747,3.60e-01,
748,4.00e-01,
749,2.00e-01,
750,2.80e-01,
751,1.20e-01,
752,2.40e-01,
753,1.20e-01,
754,1.60e-01,
755,8.00e-02,
756,1.60e-01,
757,8.00e-02,
758,1.20e-01,
759,4.00e-02,
760,1.20e-01,
761,4.00e-02,
762,4.00e-02,
763,1.20e-01,
764,4.00e-02,
765,1.20e-01,
766,4.00e-02,
767,1.20e-01,
768,4.00e-02,
769,1.20e-01,
770,1.20e-01,
771,4.00e-02,
772,4.00e-02,
773,1.20e-01,
774,4.00e-02,
775,1.20e-01,
776,4.00e-02,
777,3.04e+00,
778,3.12e+00,
779,3.76e+00,
780,3.72e+00,
781,3.84e+00,
782,3.76e+00,
783,3.88e+00,
784,3.88e+00,
785,3.80e+00,
786,3.84e+00,
787,3.96e+00,
788,3.96e+00,
789,3.84e+00,
790,3.88e+00,
791,3.96e+00,
792,3.96e+00,
793,2.80e-01,
794,3.20e-01,
795,2.00e-01,
796,2.80e-01,
797,1.20e-01,
798,2.40e-01,
799,8.00e-02,
800,1.60e-01,
801,8.00e-02,
802,1.60e-01,
803,4.00e-02,
804,1.20e-01,
805,4.00e-02,
806,1.20e-01,
807,4.00e-02,
808,4.00e-02,
809,1.20e-01,
810,4.00e-02,
811,1.20e-01,
812,4.00e-02,
813,1.20e-01,
814,4.00e-02,
815,1.20e-01,
816,1.20e-01,
817,4.00e-02,
818,4.00e-02,
819,1.20e-01,
820,4.00e-02,
821,4.80e-01,
822,5.20e-01,
823,3.72e+00,
824,3.64e+00,
825,3.80e+00,
826,3.76e+00,
827,3.84e+00,
828,3.80e+00,
829,3.88e+00,
830,3.88e+00,
831,3.84e+00,
832,3.96e+00,
833,3.84e+00,
834,3.96e+00,
835,3.84e+00,
836,3.96e+00,
837,4.40e-01,
838,4.80e-01,
839,2.00e-01,
840,2.80e-01,
841,1.20e-01,
842,2.40e-01,
843,8.00e-02,
844,8.00e-02,
845,1.60e-01,
846,1.60e-01,
847,8.00e-02,
848,1.20e-01,
849,4.00e-02,
850,4.00e-02,
851,1.20e-01,
852,1.20e-01,
853,4.00e-02,
854,1.20e-01,
855,4.00e-02,
856,4.00e-02,
857,1.20e-01,
858,4.00e-02,
859,1.20e-01,
860,4.00e-02,
861,1.20e-01,
862,4.00e-02,
863,1.20e-01,
864,4.00e-02,
865,1.20e-01,
866,4.00e-02,
867,3.68e+00,
868,3.64e+00,
869,3.80e+00,
870,3.72e+00,
871,3.84e+00,
872,3.80e+00,
873,3.88e+00,
874,3.88e+00,
875,3.80e+00,
876,3.84e+00,
877,3.96e+00,
878,3.84e+00,
879,3.96e+00,
880,3.92e+00,
881,3.96e+00,
882,3.92e+00,
883,3.96e+00,
884,3.92e+00,
885,3.96e+00,
886,3.92e+00,
887,3.96e+00,
888,3.96e+00,
889,3.92e+00,
890,3.92e+00,
891,4.00e+00,
892,3.92e+00,
893,4.00e+00,
894,3.92e+00,
895,4.00e+00,
896,3.96e+00,
897,1.44e+00,
898,1.40e+00,
899,2.40e-01,
900,3.20e-01,
901,2.00e-01,
902,2.40e-01,
903,1.20e-01,
904,2.00e-01,
905,8.00e-02,
906,1.60e-01,
907,8.00e-02,
908,1.20e-01,
909,4.00e-02,
910,4.00e-02,
911,1.44e+00,
912,1.48e+00,
913,3.72e+00,
914,3.68e+00,
915,3.84e+00,
916,3.76e+00,
917,3.88e+00,
918,3.88e+00,
919,3.80e+00,
920,3.84e+00,
921,3.96e+00,
922,3.96e+00,
923,3.84e+00,
924,3.96e+00,
925,3.88e+00,
926,3.96e+00,
927,3.20e-01,
928,4.00e-01,
929,2.00e-01,
930,2.80e-01,
931,1.20e-01,
932,2.40e-01,
933,1.20e-01,
934,1.60e-01,
935,8.00e-02,
936,8.00e-02,
937,1.60e-01,
938,1.20e-01,
939,4.00e-02,
940,1.20e-01,
941,4.00e-02,
942,1.20e-01,
943,4.00e-02,
944,1.20e-01,
945,4.00e-02,
946,4.00e-02,
947,1.20e-01,
948,1.20e-01,
949,4.00e-02,
950,4.00e-02,
951,1.20e-01,
952,1.20e-01,
953,4.00e-02,
954,1.20e-01,
955,4.00e-02,
956,4.00e-02,
957,3.68e+00,
958,3.64e+00,
959,3.80e+00,
960,3.76e+00,
961,3.84e+00,
962,3.80e+00,
963,3.88e+00,
964,3.88e+00,
965,3.80e+00,
966,3.96e+00,
967,3.84e+00,
968,3.88e+00,
969,3.96e+00,
970,3.92e+00,
971,3.96e+00,
972,3.92e+00,
973,3.96e+00,
974,3.92e+00,
975,3.96e+00,
976,3.92e+00,
977,4.00e+00,
978,3.92e+00,
979,4.00e+00,
980,3.92e+00,
981,4.00e+00,
982,3.92e+00,
983,4.00e+00,
984,3.92e+00,
985,4.00e+00,
986,3.92e+00,
987,2.80e-01,
988,4.00e-01,
989,2.00e-01,
990,2.80e-01,
991,1.20e-01,
992,2.40e-01,
993,8.00e-02,
994,1.60e-01,
995,8.00e-02,
996,1.60e-01,
997,4.00e-02,
998,1.60e-01,
999,4.00e-02,
1000,4.00e-02,
1001,2.24e+00,
1002,2.28e+00,
1003,3.80e+00,
1004,3.68e+00,
1005,3.84e+00,
1006,3.76e+00,
1007,3.88e+00,
1008,3.88e+00,
1009,3.80e+00,
1010,3.84e+00,
1011,3.96e+00,
1012,3.96e+00,
1013,3.84e+00,
1014,3.92e+00,
1015,3.96e+00,
1016,3.96e+00,
1017,2.80e-01,
1018,3.20e-01,
1019,2.00e-01,
1020,2.80e-01,
1021,1.20e-01,
1022,2.40e-01,
1023,8.00e-02,
1024,1.60e-01,
1025,8.00e-02,
1026,8.00e-02,
1027,1.60e-01,
1028,1.20e-01,
1029,4.00e-02,
1030,4.00e-02,
1031,1.20e-01,
1032,4.00e-02,
1033,1.20e-01,
1034,1.20e-01,
1035,4.00e-02,
1036,1.20e-01,
1037,4.00e-02,
1038,1.20e-01,
1039,4.00e-02,
1040,1.20e-01,
1041,4.00e-02,
1042,1.20e-01,
1043,4.00e-02,
1044,1.20e-01,
1045,4.00e-02,
1046,4.00e-02,
1047,3.72e+00,
1048,3.64e+00,
1049,3.80e+00,
1050,3.76e+00,
1051,3.84e+00,
1052,3.80e+00,
1053,3.88e+00,
1054,3.88e+00,
1055,3.84e+00,
1056,3.84e+00,
1057,3.96e+00,
1058,3.96e+00,
1059,3.88e+00,
1060,3.96e+00,
1061,2.12e+00,
1062,2.08e+00,
1063,2.40e-01,
1064,3.20e-01,
1065,2.00e-01,
1066,1.20e-01,
1067,2.40e-01,
1068,2.40e-01,
1069,8.00e-02,
1070,1.60e-01,
1071,8.00e-02,
1072,1.60e-01,
1073,4.00e-02,
1074,1.20e-01,
1075,4.00e-02,
1076,4.00e-02,
1077,1.20e-01,
1078,1.20e-01,
1079,4.00e-02,
1080,1.20e-01,
1081,4.00e-02,
1082,4.00e-02,
1083,1.20e-01,
1084,1.20e-01,
1085,4.00e-02,
1086,1.20e-01,
1087,4.00e-02,
1088,4.00e-02,
1089,1.20e-01,
1090,4.00e-02,
1091,3.12e+00,
1092,3.16e+00,
1093,3.76e+00,
1094,3.72e+00,
1095,3.84e+00,
1096,3.76e+00,
1097,3.88e+00,
1098,3.88e+00,
1099,3.80e+00,
1100,3.84e+00,
1101,3.96e+00,
1102,3.96e+00,
1103,3.84e+00,
1104,3.96e+00,
1105,3.88e+00,
1106,3.96e+00,
1107,3.92e+00,
1108,3.92e+00,
1109,4.00e+00,
1110,3.92e+00,
1111,4.00e+00,
1112,3.92e+00,
1113,4.00e+00,
1114,3.92e+00,
1115,4.00e+00,
1116,3.92e+00,
1117,4.00e+00,
1118,3.92e+00,
1119,4.00e+00,
1120,3.96e+00,
1121,2.80e-01,
1122,4.00e-01,
1123,2.00e-01,
1124,3.20e-01,
1125,1.20e-01,
1126,2.40e-01,
1127,8.00e-02,
1128,1.60e-01,
1129,8.00e-02,
1130,1.60e-01,
1131,8.00e-02,
1132,1.20e-01,
1133,4.00e-02,
1134,4.00e-02,
1135,1.20e-01,
1136,4.00e-02,
1137,1.20e-01,
1138,4.00e-02,
1139,1.20e-01,
1140,1.20e-01,
1141,4.00e-02,
1142,4.00e-02,
1143,1.20e-01,
1144,4.00e-02,
1145,1.20e-01,
1146,1.20e-01,
1147,4.00e-02,
1148,4.00e-02,
1149,1.20e-01,
1150,1.20e-01,
1151,4.00e-02,
1152,1.20e-01,
1153,4.00e-02,
1154,4.00e-02,
1155,1.20e-01,
1156,4.00e-02,
1157,1.20e-01,
1158,4.00e-02,
1159,1.20e-01,
1160,4.00e-02,
1161,1.20e-01,
1162,4.00e-02,
1163,1.20e-01,
1164,1.20e-01,
1165,0.00e+00,
1166,1.20e-01,
1167,4.00e-02,
1168,1.20e-01,
1169,4.00e-02,
1170,4.00e-02,
1171,1.20e-01,
1172,4.00e-02,
1173,1.20e-01,
1174,1.20e-01,
1175,4.00e-02,
1176,1.20e-01,
1177,4.00e-02,
1178,4.00e-02,
1179,1.20e-01,
1180,1.20e-01,
1181,4.00e-02,
1182,4.00e-02,
1183,1.20e-01,
1184,4.00e-02,
1185,1.20e-01,
1186,4.00e-02,
1187,1.20e-01,
1188,4.00e-02,
1189,1.20e-01,
1190,4.00e-02,
1191,1.20e-01,
1192,0.00e+00,
1193,1.20e-01,
1194,4.00e-02,
1195,1.20e-01,
1196,4.00e-02,
1197,1.20e-01,
1198,4.00e-02,
1199,1.20e-01,
